time;temp;target;level;fancount;rpm;limited_change;period;K_p;K_i;K_d;integral
43;30.61;30.39;255.00;3;2004.81;1;1.00;33.00;1.59;128.24;0.01
308;30.55;30.39;227.11;17;1694.89;0;1.00;33.00;1.59;128.24;0.07
526;30.48;30.37;205.66;29;1515.65;0;1.00;33.00;1.59;128.24;0.11
744;30.41;30.37;167.06;41;1653.44;0;1.00;33.00;1.59;128.24;0.12
961;30.34;30.39;123.52;53;1653.50;1;1.00;33.00;1.59;128.24;0.11
1179;30.34;30.37;137.64;64;1653.38;0;1.00;33.00;1.59;128.24;0.10
1397;30.27;30.37;94.60;75;1515.49;0;1.00;33.00;1.59;128.24;0.06
1615;30.21;30.39;51.05;86;1515.65;1;1.00;33.00;1.59;128.24;-0.00
1832;30.21;30.37;60.55;97;1377.92;0;1.00;33.00;1.59;128.24;-0.06
2050;30.14;30.37;17.00;107;1377.92;1;1.00;33.00;1.59;128.24;-0.14
2268;30.14;30.39;0.00;117;1377.56;0;1.00;33.00;1.59;128.24;-0.23
2486;30.14;30.37;7.02;120;551.21;0;1.00;33.00;1.59;128.24;-0.31
2703;30.14;30.39;0.00;120;0.00;0;1.00;33.00;1.59;128.24;-0.40
2921;30.07;30.37;0.00;120;0.00;0;1.00;33.00;1.59;128.24;-0.50
3138;30.07;30.39;0.00;120;0.00;0;1.00;33.00;1.59;128.24;-0.61
3355;30.07;30.39;0.00;120;0.00;0;1.00;33.00;1.59;128.24;-0.73
3573;30.07;30.39;0.00;120;0.00;0;1.00;33.00;1.59;128.24;-0.84
3790;30.00;30.37;0.00;120;0.00;0;1.00;33.00;1.59;128.24;-0.96
4008;30.07;30.37;28.89;120;0.00;0;1.00;33.00;1.59;128.24;-1.07
4225;30.07;30.39;2.02;124;551.63;0;1.00;33.00;1.59;128.24;-1.18
4443;30.07;30.37;5.83;130;826.78;0;1.00;33.00;1.59;128.24;-1.28
4661;30.14;30.37;36.65;130;0.00;0;1.00;33.00;1.59;128.24;-1.36
4878;30.14;30.37;27.56;134;413.68;0;1.00;33.00;1.59;128.24;-1.44
5096;30.14;30.37;18.39;139;826.78;0;1.00;33.00;1.59;128.24;-1.52
5314;30.14;30.39;0.00;145;688.88;0;1.00;33.00;1.59;128.24;-1.61
5531;30.21;30.37;43.53;147;413.50;1;1.00;33.00;1.59;128.24;-1.67
5749;30.21;30.39;20.58;151;413.28;0;1.00;33.00;1.59;128.24;-1.74
5967;30.27;30.37;64.13;155;688.78;1;1.00;33.00;1.59;128.24;-1.77
6185;30.27;30.37;59.16;160;688.71;0;1.00;33.00;1.59;128.24;-1.80
6403;30.34;30.37;96.35;164;551.17;0;1.00;33.00;1.59;128.24;-1.81
6620;30.55;30.37;139.90;169;688.83;1;1.00;33.00;1.59;128.24;-1.75
6838;30.48;30.39;96.34;174;550.98;1;1.00;33.00;1.59;128.24;-1.72
7056;30.48;30.37;113.17;179;688.86;0;1.00;33.00;1.59;128.24;-1.69
7274;30.48;30.39;99.25;184;826.54;0;1.00;33.00;1.59;128.24;-1.66
7491;30.55;30.39;142.68;189;688.88;0;1.00;33.00;1.59;128.24;-1.61
7709;30.61;30.39;186.24;195;826.51;1;1.00;33.00;1.59;128.24;-1.53
7927;30.61;30.37;207.80;201;688.81;0;1.00;33.00;1.59;128.24;-1.45
8145;30.68;30.37;251.36;207;964.19;1;1.00;33.00;1.59;128.24;-1.34
8362;30.68;30.37;255.00;214;964.15;0;1.00;33.00;1.59;128.24;-1.23
8580;30.68;30.37;255.00;222;964.33;0;1.00;33.00;1.59;128.24;-1.12
8798;30.68;30.37;255.00;230;1102.09;0;1.00;33.00;1.59;128.24;-1.01
9016;30.68;30.37;255.00;239;1239.71;0;1.00;33.00;1.59;128.24;-0.91
9234;30.68;30.39;248.68;248;1239.53;0;1.00;33.00;1.59;128.24;-0.81
9452;30.75;30.37;255.00;257;1377.01;1;1.00;33.00;1.59;128.24;-0.67
9669;30.68;30.37;224.56;267;1377.16;0;1.00;33.00;1.59;128.24;-0.57
9887;30.61;30.39;180.99;278;1377.06;1;1.00;33.00;1.59;128.24;-0.49
10105;30.61;30.39;187.77;288;1514.76;0;1.00;33.00;1.59;128.24;-0.42
10323;30.61;30.37;210.41;299;1374.43;0;1.00;33.00;1.59;128.24;-0.33
10542;30.61;30.39;202.43;310;1511.65;0;1.00;33.00;1.59;128.24;-0.26
10760;30.61;30.37;225.23;320;1511.60;0;1.00;33.00;1.59;128.24;-0.17
10978;30.55;30.39;181.57;331;1511.60;1;1.00;33.00;1.59;128.24;-0.12
11197;30.55;30.39;186.45;342;1511.71;0;1.00;33.00;1.59;128.24;-0.07
11415;30.48;30.39;149.14;353;1511.76;0;1.00;33.00;1.59;128.24;-0.04
11633;30.41;30.39;109.65;364;1511.65;0;1.00;33.00;1.59;128.24;-0.03
11851;30.34;30.39;67.94;375;1511.54;0;1.00;33.00;1.59;128.24;-0.05
12069;30.34;30.39;66.09;386;1377.16;0;1.00;33.00;1.59;128.24;-0.07
12287;30.34;30.37;80.04;396;1377.46;0;1.00;33.00;1.59;128.24;-0.08
12505;30.34;30.39;63.20;405;1377.31;0;1.00;33.00;1.59;128.24;-0.10
12723;30.34;30.37;77.12;414;1239.49;0;1.00;33.00;1.59;128.24;-0.11
12941;30.27;30.39;33.55;423;1239.53;1;1.00;33.00;1.59;128.24;-0.15
13158;30.27;30.39;29.35;432;1101.89;0;1.00;33.00;1.59;128.24;-0.19
13376;30.27;30.37;40.91;440;1101.97;0;1.00;33.00;1.59;128.24;-0.23
13594;30.27;30.39;21.66;447;1101.89;0;1.00;33.00;1.59;128.24;-0.27
13812;30.27;30.39;17.34;455;964.01;0;1.00;33.00;1.59;128.24;-0.31
14030;30.27;30.39;12.97;462;964.33;0;1.00;33.00;1.59;128.24;-0.35
14247;30.27;30.39;8.56;468;964.40;0;1.00;33.00;1.59;128.24;-0.40
14465;30.27;30.37;19.93;471;413.39;0;1.00;33.00;1.59;128.24;-0.43
14683;30.34;30.39;42.67;474;413.24;0;1.00;33.00;1.59;128.24;-0.45
14901;30.34;30.39;40.43;480;826.42;0;1.00;33.00;1.59;128.24;-0.47
15118;30.34;30.39;38.17;486;688.78;0;1.00;33.00;1.59;128.24;-0.48
15336;30.34;30.39;35.89;491;826.54;0;1.00;33.00;1.59;128.24;-0.50
15554;30.41;30.39;75.84;496;688.78;0;1.00;33.00;1.59;128.24;-0.50
15772;30.48;30.39;118.09;501;550.92;0;1.00;33.00;1.59;128.24;-0.47
15990;30.55;30.39;161.66;506;688.50;1;1.00;33.00;1.59;128.24;-0.42
16208;30.61;30.37;205.23;511;688.48;1;1.00;33.00;1.59;128.24;-0.33
16425;30.61;30.39;197.22;516;826.29;0;1.00;33.00;1.59;128.24;-0.26
16643;30.55;30.39;161.85;523;826.26;0;1.00;33.00;1.59;128.24;-0.21
16861;30.75;30.37;205.42;529;963.87;1;1.00;33.00;1.59;128.24;-0.07
17079;30.55;30.37;161.85;536;963.94;1;1.00;33.00;1.59;128.24;-0.01
17297;30.68;30.39;205.42;544;964.01;1;1.00;33.00;1.59;128.24;0.09
17515;30.61;30.39;172.63;552;1101.85;0;1.00;33.00;1.59;128.24;0.16
17732;30.61;30.39;180.07;560;1101.40;0;1.00;33.00;1.59;128.24;0.24
17950;30.61;30.39;187.58;568;1239.40;0;1.00;33.00;1.59;128.24;0.31
18168;30.68;30.39;231.15;577;1101.73;1;1.00;33.00;1.59;128.24;0.41
18386;30.75;30.39;255.00;586;1239.21;1;1.00;33.00;1.59;128.24;0.53
18604;30.61;31.34;211.42;595;1376.90;1;1.00;33.00;1.59;128.24;0.28
18822;30.61;33.72;167.86;605;1239.42;1;1.00;33.00;1.59;128.24;-0.79
19040;30.61;35.25;124.20;615;1374.28;1;1.00;33.00;1.59;128.24;-2.40
19258;30.61;36.52;80.54;625;1374.36;1;1.00;33.00;1.59;128.24;-4.45
19476;30.55;36.62;36.97;635;1377.26;1;1.00;33.00;1.59;128.24;-6.56
19694;30.55;36.62;0.00;644;1377.16;1;1.00;33.00;1.59;128.24;-8.66
19912;30.55;36.62;0.00;649;688.96;1;1.00;33.00;1.59;128.24;-10.77
20129;30.55;36.62;0.00;649;0.00;1;1.00;33.00;1.59;128.24;-12.87
20347;30.55;36.62;0.00;649;0.00;1;1.00;33.00;1.59;128.24;-14.97
20565;30.55;36.62;0.00;649;0.00;1;1.00;33.00;1.59;128.24;-17.07
20782;30.48;36.62;0.00;649;0.00;1;1.00;33.00;1.59;128.24;-19.20
21006;30.55;36.62;0.00;649;0.00;1;1.00;33.00;1.59;128.24;-21.30
21223;30.48;36.62;0.00;649;0.00;1;1.00;33.00;1.59;128.24;-23.49
21441;30.55;36.62;0.00;649;0.00;1;1.00;33.00;1.59;128.24;-25.59
21658;30.55;36.62;0.00;649;0.00;1;1.00;33.00;1.59;128.24;-27.69
21876;30.61;36.62;0.00;649;0.00;1;1.00;33.00;1.59;128.24;-29.77
22093;30.55;36.62;0.00;649;0.00;1;1.00;33.00;1.59;128.24;-31.87
22311;30.61;36.62;0.00;649;0.00;1;1.00;33.00;1.59;128.24;-33.95
22528;30.61;36.62;0.00;649;0.00;1;1.00;33.00;1.59;128.24;-36.03
22746;30.61;36.62;0.00;649;0.00;1;1.00;33.00;1.59;128.24;-38.10
22963;30.61;36.62;0.00;649;0.00;1;1.00;33.00;1.59;128.24;-40.18
23181;30.68;36.62;0.00;649;0.00;1;1.00;33.00;1.59;128.24;-42.23
23398;30.68;36.60;0.00;649;0.00;1;1.00;33.00;1.59;128.24;-44.28
23616;30.75;36.62;0.00;649;0.00;1;1.00;33.00;1.59;128.24;-46.31
23833;30.75;36.62;0.00;649;0.00;1;1.00;33.00;1.59;128.24;-48.34
24051;30.75;36.62;0.00;649;0.00;1;1.00;33.00;1.59;128.24;-50.37
24268;30.82;36.62;0.00;649;0.00;1;1.00;33.00;1.59;128.24;-52.38
24486;30.89;36.62;0.00;649;0.00;1;1.00;33.00;1.59;128.24;-54.36
24704;30.89;36.62;0.00;649;0.00;1;1.00;33.00;1.59;128.24;-56.35
24921;30.95;36.62;0.00;649;0.00;1;1.00;33.00;1.59;128.24;-58.31
25139;31.02;36.62;0.00;649;0.00;1;1.00;33.00;1.59;128.24;-60.25
25356;31.02;36.62;0.00;649;0.00;1;1.00;33.00;1.59;128.24;-62.18
25574;31.09;36.62;0.00;649;0.00;1;1.00;33.00;1.59;128.24;-64.09
25792;31.09;36.62;0.00;649;0.00;1;1.00;33.00;1.59;128.24;-66.01
26009;31.23;36.62;0.00;649;0.00;1;1.00;33.00;1.59;128.24;-67.87
26227;31.23;36.62;0.00;649;0.00;1;1.00;33.00;1.59;128.24;-69.74
26444;31.30;36.62;0.00;649;0.00;1;1.00;33.00;1.59;128.24;-71.58
26662;31.37;36.62;0.00;649;0.00;1;1.00;33.00;1.59;128.24;-73.40
26879;31.37;36.62;0.00;649;0.00;1;1.00;33.00;1.59;128.24;-75.22
27097;31.51;36.62;0.00;649;0.00;1;1.00;33.00;1.59;128.24;-76.98
27314;31.51;36.62;0.00;649;0.00;1;1.00;33.00;1.59;128.24;-78.75
27532;31.58;36.62;0.00;649;0.00;1;1.00;33.00;1.59;128.24;-80.50
27749;31.64;36.62;0.00;649;0.00;1;1.00;33.00;1.59;128.24;-82.22
27967;31.71;36.62;0.00;649;0.00;1;1.00;33.00;1.59;128.24;-83.92
28184;31.78;36.62;0.00;649;0.00;1;1.00;33.00;1.59;128.24;-85.59
28402;31.85;36.62;0.00;649;0.00;1;1.00;33.00;1.59;128.24;-87.24
28619;31.92;36.62;0.00;649;0.00;1;1.00;33.00;1.59;128.24;-88.87
28837;31.99;36.62;0.00;649;0.00;1;1.00;33.00;1.59;128.24;-90.47
29054;32.06;36.62;0.00;649;0.00;1;1.00;33.00;1.59;128.24;-92.04
29272;32.13;36.62;0.00;649;0.00;1;1.00;33.00;1.59;128.24;-93.59
29489;32.20;36.62;0.00;649;0.00;1;1.00;33.00;1.59;128.24;-95.12
29707;32.27;36.62;0.00;649;0.00;1;1.00;33.00;1.59;128.24;-96.63
29924;32.41;36.62;0.00;649;0.00;1;1.00;33.00;1.59;128.24;-98.08
30142;32.48;36.62;0.00;649;0.00;1;1.00;33.00;1.59;128.24;-99.51
30360;32.48;36.62;0.00;649;0.00;1;1.00;33.00;1.59;128.24;-100.95
30577;32.70;36.62;0.00;649;0.00;1;1.00;33.00;1.59;128.24;-102.30
30795;32.77;36.62;0.00;649;0.00;1;1.00;33.00;1.59;128.24;-103.64
31013;32.84;36.62;0.00;649;0.00;1;1.00;33.00;1.59;128.24;-104.95
31230;32.91;36.65;0.00;649;0.00;1;1.00;33.00;1.59;128.24;-106.24
31448;32.98;36.62;0.00;649;0.00;1;1.00;33.00;1.59;128.24;-107.50
31666;33.12;36.62;0.00;649;0.00;1;1.00;33.00;1.59;128.24;-108.71
31883;33.27;36.62;0.00;649;0.00;1;1.00;33.00;1.59;128.24;-109.88
32101;33.34;36.62;0.00;649;0.00;1;1.00;33.00;1.59;128.24;-111.01
32319;33.41;36.62;0.00;649;0.00;1;1.00;33.00;1.59;128.24;-112.12
32536;33.55;36.62;0.00;649;0.00;1;1.00;33.00;1.59;128.24;-113.19
32754;33.62;36.62;0.00;649;0.00;1;1.00;33.00;1.59;128.24;-114.22
32972;33.70;36.62;0.00;649;0.00;1;1.00;33.00;1.59;128.24;-115.24
33189;33.84;36.62;0.00;649;0.00;1;1.00;33.00;1.59;128.24;-116.20
33407;33.91;36.62;0.00;649;0.00;1;1.00;33.00;1.59;128.24;-117.13
33624;34.13;36.62;0.00;649;0.00;1;1.00;33.00;1.59;128.24;-118.00
33842;34.13;36.62;0.00;649;0.00;1;1.00;33.00;1.59;128.24;-118.86
34059;34.28;36.62;0.00;649;0.00;1;1.00;33.00;1.59;128.24;-119.67
34277;34.42;36.62;0.00;649;0.00;1;1.00;33.00;1.59;128.24;-120.43
34494;34.57;36.62;0.00;649;0.00;1;1.00;33.00;1.59;128.24;-121.14
34712;34.65;36.62;0.00;649;0.00;1;1.00;33.00;1.59;128.24;-121.82
34929;34.79;36.62;0.00;649;0.00;1;1.00;33.00;1.59;128.24;-122.45
35147;34.94;36.62;0.00;649;0.00;1;1.00;33.00;1.59;128.24;-123.03
35365;35.09;36.62;0.00;649;0.00;1;1.00;33.00;1.59;128.24;-123.56
35582;35.24;36.62;0.00;649;0.00;1;1.00;33.00;1.59;128.24;-124.04
35800;35.31;36.62;0.00;649;0.00;1;1.00;33.00;1.59;128.24;-124.49
36017;35.46;36.62;0.00;649;0.00;1;1.00;33.00;1.59;128.24;-124.89
36235;35.61;36.62;0.00;649;0.00;1;1.00;33.00;1.59;128.24;-125.24
36453;35.77;36.62;0.00;649;0.00;1;1.00;33.00;1.59;128.24;-125.54
36670;35.84;36.62;0.00;649;0.00;1;1.00;33.00;1.59;128.24;-125.81
36888;35.99;36.62;0.00;649;0.00;1;1.00;33.00;1.59;128.24;-126.03
37106;36.07;36.62;0.00;649;0.00;1;1.00;33.00;1.59;128.24;-126.22
37323;36.22;36.62;0.00;649;0.00;1;1.00;33.00;1.59;128.24;-126.36
37541;36.38;36.62;0.00;649;0.00;1;1.00;33.00;1.59;128.24;-126.44
37759;36.45;36.62;0.00;649;0.00;1;1.00;33.00;1.59;128.24;-126.50
37976;36.61;36.62;0.00;649;0.00;0;1.00;33.00;1.59;128.24;-126.50
38194;36.68;36.62;0.00;649;0.00;1;1.00;33.00;1.59;128.24;-126.48
38412;36.84;36.62;0.00;649;0.00;0;1.00;33.00;1.59;128.24;-126.41
38629;37.00;36.62;0.00;649;0.00;0;1.00;33.00;1.59;128.24;-126.28
38847;37.15;36.62;0.00;649;0.00;0;1.00;33.00;1.59;128.24;-126.09
39064;37.23;36.62;0.00;649;0.00;1;1.00;33.00;1.59;128.24;-125.88
39282;37.39;36.62;0.00;649;0.00;0;1.00;33.00;1.59;128.24;-125.62
39500;37.39;36.62;0.00;649;0.00;1;1.00;33.00;1.59;128.24;-125.35
39717;37.63;36.65;32.18;649;0.00;0;1.00;33.00;1.59;128.24;-125.01
39935;37.70;36.62;5.05;649;0.00;0;1.00;33.00;1.59;128.24;-124.64
40153;37.86;36.62;15.71;649;0.00;0;1.00;33.00;1.59;128.24;-124.21
40370;37.94;36.62;0.00;650;137.82;0;1.00;33.00;1.59;128.24;-123.75
40588;38.02;36.62;0.00;652;275.50;0;1.00;33.00;1.59;128.24;-123.27
40806;38.10;36.62;0.00;655;413.27;0;1.00;33.00;1.59;128.24;-122.75
41024;38.10;36.62;0.00;657;275.48;1;1.00;33.00;1.59;128.24;-122.24
41241;38.18;36.62;0.00;657;0.00;0;1.00;33.00;1.59;128.24;-121.70
41459;38.27;36.62;0.00;657;0.00;0;1.00;33.00;1.59;128.24;-121.13
41676;38.27;36.62;0.00;657;0.00;1;1.00;33.00;1.59;128.24;-120.56
41894;38.27;36.60;0.00;657;0.00;1;1.00;33.00;1.59;128.24;-119.98
42112;38.27;36.62;0.00;657;0.00;1;1.00;33.00;1.59;128.24;-119.41
42329;38.27;36.62;0.00;657;0.00;1;1.00;33.00;1.59;128.24;-118.85
42547;38.35;36.62;0.00;657;0.00;0;1.00;33.00;1.59;128.24;-118.25
42765;38.27;36.62;0.00;657;0.00;1;1.00;33.00;1.59;128.24;-117.68
42982;38.27;36.62;0.00;657;0.00;1;1.00;33.00;1.59;128.24;-117.11
43200;38.35;36.62;0.00;657;0.00;0;1.00;33.00;1.59;128.24;-116.51
43418;38.35;36.62;0.00;657;0.00;1;1.00;33.00;1.59;128.24;-115.92
43635;38.27;36.62;0.00;657;0.00;1;1.00;33.00;1.59;128.24;-115.35
43853;38.35;36.62;0.00;657;0.00;0;1.00;33.00;1.59;128.24;-114.75
44070;38.35;36.62;0.00;657;0.00;1;1.00;33.00;1.59;128.24;-114.16
44288;38.35;36.62;0.00;657;0.00;1;1.00;33.00;1.59;128.24;-113.56
44506;38.43;36.62;0.00;657;0.00;0;1.00;33.00;1.59;128.24;-112.93
44723;38.43;36.62;0.00;657;0.00;1;1.00;33.00;1.59;128.24;-112.31
44941;38.43;36.62;0.00;657;0.00;1;1.00;33.00;1.59;128.24;-111.68
45159;38.43;36.62;0.00;657;0.00;1;1.00;33.00;1.59;128.24;-111.06
45376;38.51;36.62;0.00;657;0.00;0;1.00;33.00;1.59;128.24;-110.41
45594;38.51;36.62;0.00;657;0.00;1;1.00;33.00;1.59;128.24;-109.75
45811;38.51;36.62;0.00;657;0.00;1;1.00;33.00;1.59;128.24;-109.10
46029;38.59;36.62;4.46;657;0.00;0;1.00;33.00;1.59;128.24;-108.42
46247;38.67;36.60;28.25;657;0.00;0;1.00;33.00;1.59;128.24;-107.70
46464;38.67;36.62;0.00;657;0.00;1;1.00;33.00;1.59;128.24;-106.99
46682;38.67;36.62;0.00;657;0.00;0;1.00;33.00;1.59;128.24;-106.28
46899;38.83;36.62;43.52;659;275.82;1;1.00;33.00;1.59;128.24;-105.52
47118;38.75;36.62;0.00;661;274.82;1;1.00;33.00;1.59;128.24;-104.78
47336;38.83;36.62;17.25;663;275.49;0;1.00;33.00;1.59;128.24;-104.01
47554;38.92;36.62;37.98;664;137.41;0;1.00;33.00;1.59;128.24;-103.22
47772;38.83;36.62;0.00;666;274.82;1;1.00;33.00;1.59;128.24;-102.45
47990;38.83;36.62;0.00;668;275.48;0;1.00;33.00;1.59;128.24;-101.68
48208;38.83;36.62;0.00;668;0.00;0;1.00;33.00;1.59;128.24;-100.91
48425;38.83;36.62;0.00;668;0.00;0;1.00;33.00;1.59;128.24;-100.15
48643;38.83;36.62;0.00;668;0.00;0;1.00;33.00;1.59;128.24;-99.38
48861;38.83;36.62;0.00;668;0.00;0;1.00;33.00;1.59;128.24;-98.62
49078;38.83;36.62;0.00;668;0.00;0;1.00;33.00;1.59;128.24;-97.85
49296;38.83;36.62;0.00;668;0.00;0;1.00;33.00;1.59;128.24;-97.09
49513;38.83;36.62;0.00;668;0.00;0;1.00;33.00;1.59;128.24;-96.32
49731;38.83;36.62;0.00;668;0.00;0;1.00;33.00;1.59;128.24;-95.55
49948;38.83;36.62;0.00;668;0.00;0;1.00;33.00;1.59;128.24;-94.79
50166;38.83;36.62;0.00;668;0.00;0;1.00;33.00;1.59;128.24;-94.02
50384;38.83;36.62;0.00;668;0.00;0;1.00;33.00;1.59;128.24;-93.26
50601;38.83;36.62;0.00;668;0.00;0;1.00;33.00;1.59;128.24;-92.49
50819;38.83;36.62;0.00;668;0.00;0;1.00;33.00;1.59;128.24;-91.73
51036;38.92;36.62;33.18;668;0.00;0;1.00;33.00;1.59;128.24;-90.93
51254;38.83;36.62;0.00;668;0.00;1;1.00;33.00;1.59;128.24;-90.17
51472;38.92;36.62;34.74;670;275.87;0;1.00;33.00;1.59;128.24;-89.37
51689;39.00;36.62;73.08;672;275.40;0;1.00;33.00;1.59;128.24;-88.55
51907;38.92;36.62;29.51;674;275.42;1;1.00;33.00;1.59;128.24;-87.75
52125;38.92;36.62;18.30;677;413.13;0;1.00;33.00;1.59;128.24;-86.96
52343;38.92;36.62;7.88;679;275.44;0;1.00;33.00;1.59;128.24;-86.16
52561;38.83;36.62;0.00;680;137.75;1;1.00;33.00;1.59;128.24;-85.40
52778;38.83;36.62;0.00;680;0.00;0;1.00;33.00;1.59;128.24;-84.63
52996;38.83;36.62;0.00;680;0.00;0;1.00;33.00;1.59;128.24;-83.87
53213;38.83;36.62;0.00;680;0.00;0;1.00;33.00;1.59;128.24;-83.10
53431;38.83;36.62;0.00;680;0.00;0;1.00;33.00;1.59;128.24;-82.34
53648;38.83;36.62;0.00;680;0.00;0;1.00;33.00;1.59;128.24;-81.57
53866;38.75;36.62;0.00;680;0.00;1;1.00;33.00;1.59;128.24;-80.83
54083;38.83;36.62;41.26;680;0.00;0;1.00;33.00;1.59;128.24;-80.07
54301;38.75;36.62;0.00;680;0.00;1;1.00;33.00;1.59;128.24;-79.33
54519;38.83;36.62;42.73;682;275.70;0;1.00;33.00;1.59;128.24;-78.56
54737;38.83;36.62;37.97;685;413.13;0;1.00;33.00;1.59;128.24;-77.80
54954;38.75;36.62;0.00;687;275.44;1;1.00;33.00;1.59;128.24;-77.06
55172;38.75;36.62;0.00;689;275.48;0;1.00;33.00;1.59;128.24;-76.32
55390;38.75;36.62;0.00;689;0.00;0;1.00;33.00;1.59;128.24;-75.58
55608;38.75;36.62;0.00;689;0.00;0;1.00;33.00;1.59;128.24;-74.85
55825;38.75;36.62;0.00;689;0.00;0;1.00;33.00;1.59;128.24;-74.11
56043;38.75;36.62;0.00;689;0.00;0;1.00;33.00;1.59;128.24;-73.37
56260;38.75;36.62;0.00;689;0.00;0;1.00;33.00;1.59;128.24;-72.63
56478;38.67;36.62;0.00;689;0.00;1;1.00;33.00;1.59;128.24;-71.92
56696;38.75;36.62;43.52;689;0.00;1;1.00;33.00;1.59;128.24;-71.19
56913;38.67;36.62;0.00;689;0.00;1;1.00;33.00;1.59;128.24;-70.48
57131;38.67;36.62;0.00;691;275.67;0;1.00;33.00;1.59;128.24;-69.77
57349;38.67;36.62;0.00;693;275.60;0;1.00;33.00;1.59;128.24;-69.06
57566;38.67;36.62;0.00;694;137.79;0;1.00;33.00;1.59;128.24;-68.35
57784;38.67;36.62;0.00;694;0.00;0;1.00;33.00;1.59;128.24;-67.64
58001;38.59;36.62;0.00;694;0.00;1;1.00;33.00;1.59;128.24;-66.96
58219;38.59;36.62;0.00;694;0.00;0;1.00;33.00;1.59;128.24;-66.28
58437;38.67;36.62;43.50;694;0.00;1;1.00;33.00;1.59;128.24;-65.57
58654;38.59;36.62;0.00;694;0.00;1;1.00;33.00;1.59;128.24;-64.89
58872;38.59;36.62;0.74;697;275.83;0;1.00;33.00;1.59;128.24;-64.21
59090;38.59;36.62;2.15;699;413.25;0;1.00;33.00;1.59;128.24;-63.53
59307;38.59;36.62;4.25;699;0.00;0;1.00;33.00;1.59;128.24;-62.85
59525;38.59;36.62;7.03;699;0.00;0;1.00;33.00;1.59;128.24;-62.16
59742;38.51;36.62;0.00;699;0.00;1;1.00;33.00;1.59;128.24;-61.51
59960;38.51;36.62;1.40;699;0.00;0;1.00;33.00;1.59;128.24;-60.86
60177;38.51;36.62;3.46;699;0.00;0;1.00;33.00;1.59;128.24;-60.21
60395;38.51;36.62;6.16;699;0.00;0;1.00;33.00;1.59;128.24;-59.55
60613;38.51;36.62;9.52;699;0.00;0;1.00;33.00;1.59;128.24;-58.90
60830;38.51;36.62;13.53;699;0.00;0;1.00;33.00;1.59;128.24;-58.25
61048;38.51;36.62;18.20;699;0.00;0;1.00;33.00;1.59;128.24;-57.60
61266;38.51;36.62;23.52;699;0.00;0;1.00;33.00;1.59;128.24;-56.94
61483;38.51;36.62;29.49;701;275.67;0;1.00;33.00;1.59;128.24;-56.29
61701;38.51;36.62;36.11;703;275.48;0;1.00;33.00;1.59;128.24;-55.64
61919;38.51;36.62;43.39;706;413.19;0;1.00;33.00;1.59;128.24;-54.98
62137;38.51;36.62;51.32;708;275.45;0;1.00;33.00;1.59;128.24;-54.33
62355;38.43;36.62;9.41;711;413.16;0;1.00;33.00;1.59;128.24;-53.70
62572;38.43;36.65;0.11;713;275.46;0;1.00;33.00;1.59;128.24;-53.09
62790;38.43;36.60;38.01;713;0.00;0;1.00;33.00;1.59;128.24;-52.45
63014;38.43;36.62;30.79;714;137.82;0;1.00;33.00;1.59;128.24;-51.83
63232;38.43;36.62;39.19;717;401.54;0;1.00;33.00;1.59;128.24;-51.19
63450;38.35;36.62;0.00;720;275.42;0;1.00;33.00;1.59;128.24;-50.59
63668;38.35;36.62;6.92;722;413.36;0;1.00;33.00;1.59;128.24;-49.99
63885;38.35;36.62;14.43;722;0.00;0;1.00;33.00;1.59;128.24;-49.39
64103;38.35;36.62;22.55;722;0.00;0;1.00;33.00;1.59;128.24;-48.80
64321;38.35;36.62;31.26;725;413.59;0;1.00;33.00;1.59;128.24;-48.20
64538;38.27;36.62;0.00;728;413.18;0;1.00;33.00;1.59;128.24;-47.63
64756;38.27;36.62;7.18;729;137.79;0;1.00;33.00;1.59;128.24;-47.06
64974;38.27;36.62;14.93;729;0.00;0;1.00;33.00;1.59;128.24;-46.49
65191;38.27;36.62;23.25;729;0.00;0;1.00;33.00;1.59;128.24;-45.92
65409;38.18;36.62;0.00;730;137.86;0;1.00;33.00;1.59;128.24;-45.38
65627;38.18;36.62;6.74;733;413.33;0;1.00;33.00;1.59;128.24;-44.84
65845;38.10;36.62;0.00;735;275.53;0;1.00;33.00;1.59;128.24;-44.33
66062;38.10;36.62;5.11;735;0.00;0;1.00;33.00;1.59;128.24;-43.82
66280;38.02;36.62;0.00;735;0.00;1;1.00;33.00;1.59;128.24;-43.33
66498;38.10;36.62;43.52;735;0.00;1;1.00;33.00;1.59;128.24;-42.82
66715;38.10;36.62;50.15;736;137.82;0;1.00;33.00;1.59;128.24;-42.30
66933;38.02;36.62;7.35;739;413.22;0;1.00;33.00;1.59;128.24;-41.82
67151;37.94;36.62;0.00;741;275.47;1;1.00;33.00;1.59;128.24;-41.36
67369;38.02;36.62;43.55;741;0.00;1;1.00;33.00;1.59;128.24;-40.87
67586;38.02;36.62;49.44;742;137.81;0;1.00;33.00;1.59;128.24;-40.39
67804;37.94;36.62;5.96;745;413.22;0;1.00;33.00;1.59;128.24;-39.93
68022;37.94;36.62;10.12;748;413.15;0;1.00;33.00;1.59;128.24;-39.47
68240;37.86;36.62;0.00;748;0.00;1;1.00;33.00;1.59;128.24;-39.04
68457;37.86;36.62;2.38;748;0.00;0;1.00;33.00;1.59;128.24;-38.61
68675;37.86;36.62;5.20;748;0.00;0;1.00;33.00;1.59;128.24;-38.18
68893;37.86;36.62;8.44;748;0.00;0;1.00;33.00;1.59;128.24;-37.75
69110;37.86;36.62;12.11;748;0.00;0;1.00;33.00;1.59;128.24;-37.32
69328;37.86;36.62;16.21;748;0.00;0;1.00;33.00;1.59;128.24;-36.89
69545;37.86;36.62;20.75;749;0.00;0;1.00;33.00;1.59;128.24;-36.46
69763;37.78;36.62;0.00;751;413.59;1;1.00;33.00;1.59;128.24;-36.06
69981;37.86;36.62;43.54;753;275.58;1;1.00;33.00;1.59;128.24;-35.63
70199;37.78;36.60;15.55;754;137.71;0;1.00;33.00;1.59;128.24;-35.22
70417;37.78;36.62;4.14;757;413.07;0;1.00;33.00;1.59;128.24;-34.82
70634;37.78;36.62;8.09;758;137.72;0;1.00;33.00;1.59;128.24;-34.41
70852;37.78;36.62;12.44;758;0.00;0;1.00;33.00;1.59;128.24;-34.01
71070;37.70;36.62;0.00;758;0.00;1;1.00;33.00;1.59;128.24;-33.64
71287;37.78;36.62;43.50;758;0.00;1;1.00;33.00;1.59;128.24;-33.24
71505;37.70;36.62;0.00;759;137.83;1;1.00;33.00;1.59;128.24;-32.86
71723;37.78;36.62;43.55;761;275.56;1;1.00;33.00;1.59;128.24;-32.46
71941;37.70;36.62;0.35;764;413.12;0;1.00;33.00;1.59;128.24;-32.08
72158;37.70;36.62;4.39;766;275.47;0;1.00;33.00;1.59;128.24;-31.71
72376;37.70;36.62;8.79;766;0.00;0;1.00;33.00;1.59;128.24;-31.33
72594;37.70;36.62;13.57;766;0.00;0;1.00;33.00;1.59;128.24;-30.96
72811;37.70;36.62;18.72;766;0.00;0;1.00;33.00;1.59;128.24;-30.58
73029;37.55;36.62;0.00;766;0.00;1;1.00;33.00;1.59;128.24;-30.26
73247;37.63;36.62;43.54;769;413.51;1;1.00;33.00;1.59;128.24;-29.92
73465;37.63;36.62;47.09;772;275.38;0;1.00;33.00;1.59;128.24;-29.57
73682;37.63;36.62;50.98;774;413.15;0;1.00;33.00;1.59;128.24;-29.22
73900;37.63;36.62;55.22;777;413.21;0;1.00;33.00;1.59;128.24;-28.87
74118;37.55;36.62;11.66;780;413.18;1;1.00;33.00;1.59;128.24;-28.55
74336;37.63;36.62;55.23;783;413.13;1;1.00;33.00;1.59;128.24;-28.21
74554;37.55;36.62;11.65;786;413.09;1;1.00;33.00;1.59;128.24;-27.89
74772;37.47;36.62;0.00;789;275.40;1;1.00;33.00;1.59;128.24;-27.59
74989;37.47;36.62;0.59;790;275.50;0;1.00;33.00;1.59;128.24;-27.30
75207;37.55;36.62;44.13;790;0.00;1;1.00;33.00;1.59;128.24;-26.98
75425;37.47;36.62;0.59;791;137.84;1;1.00;33.00;1.59;128.24;-26.69
75643;37.47;36.62;2.09;794;413.19;0;1.00;33.00;1.59;128.24;-26.40
75860;37.47;36.62;3.88;795;137.74;0;1.00;33.00;1.59;128.24;-26.10
76078;37.47;36.62;5.96;795;0.00;0;1.00;33.00;1.59;128.24;-25.81
76296;37.47;36.62;8.33;795;0.00;0;1.00;33.00;1.59;128.24;-25.52
76513;37.47;36.62;11.00;795;0.00;0;1.00;33.00;1.59;128.24;-25.22
76731;37.47;36.62;13.96;795;0.00;0;1.00;33.00;1.59;128.24;-24.93
76949;37.47;36.62;17.21;795;0.00;0;1.00;33.00;1.59;128.24;-24.64
77166;37.47;36.62;20.75;796;137.85;0;1.00;33.00;1.59;128.24;-24.35
77384;37.47;36.62;24.59;798;275.44;0;1.00;33.00;1.59;128.24;-24.05
77602;37.47;36.62;28.72;801;413.12;0;1.00;33.00;1.59;128.24;-23.76
77820;37.47;36.62;33.14;803;275.44;0;1.00;33.00;1.59;128.24;-23.47
78038;37.47;36.62;37.86;806;413.15;0;1.00;33.00;1.59;128.24;-23.18
78256;37.47;36.62;42.86;808;275.45;0;1.00;33.00;1.59;128.24;-22.88
78473;37.47;36.62;48.16;810;275.43;0;1.00;33.00;1.59;128.24;-22.59
78691;37.47;36.62;53.76;813;413.13;0;1.00;33.00;1.59;128.24;-22.30
78909;37.47;36.62;59.64;815;275.46;0;1.00;33.00;1.59;128.24;-22.01
79127;37.47;36.62;65.82;818;413.19;0;1.00;33.00;1.59;128.24;-21.71
79345;37.47;36.62;72.29;821;413.18;0;1.00;33.00;1.59;128.24;-21.42
79562;37.39;36.62;29.94;824;413.18;0;1.00;33.00;1.59;128.24;-21.15
79780;37.47;36.62;73.52;827;413.12;1;1.00;33.00;1.59;128.24;-20.86
79998;37.47;36.62;80.84;830;413.10;0;1.00;33.00;1.59;128.24;-20.57
80216;37.39;36.62;39.34;833;413.19;0;1.00;33.00;1.59;128.24;-20.30
80434;37.47;36.62;82.91;836;413.13;1;1.00;33.00;1.59;128.24;-20.01
80652;37.39;36.62;41.99;840;550.74;0;1.00;33.00;1.59;128.24;-19.75
80870;37.39;36.62;47.79;843;413.09;0;1.00;33.00;1.59;128.24;-19.48
81087;37.31;36.62;4.86;847;413.19;0;1.00;33.00;1.59;128.24;-19.24
81305;37.31;36.62;8.55;849;413.19;0;1.00;33.00;1.59;128.24;-19.00
81523;37.23;36.62;0.00;849;0.00;1;1.00;33.00;1.59;128.24;-18.79
81740;37.31;36.62;43.51;849;0.00;1;1.00;33.00;1.59;128.24;-18.56
81958;37.31;36.62;47.88;850;137.84;0;1.00;33.00;1.59;128.24;-18.32
82176;37.23;36.62;4.31;853;413.16;1;1.00;33.00;1.59;128.24;-18.11
82394;37.23;36.62;6.51;856;413.19;0;1.00;33.00;1.59;128.24;-17.90
82612;37.23;36.62;8.91;856;0.00;0;1.00;33.00;1.59;128.24;-17.69
82829;37.15;36.62;0.00;856;0.00;1;1.00;33.00;1.59;128.24;-17.50
83047;37.23;36.62;43.51;856;0.00;1;1.00;33.00;1.59;128.24;-17.29
83264;37.15;36.62;0.00;857;0.00;1;1.00;33.00;1.59;128.24;-17.11
83482;37.15;36.62;0.58;860;551.59;0;1.00;33.00;1.59;128.24;-16.92
83700;37.23;36.62;44.14;861;137.76;1;1.00;33.00;1.59;128.24;-16.71
83918;37.15;36.62;0.56;863;137.69;1;1.00;33.00;1.59;128.24;-16.53
84135;37.15;36.62;1.72;866;550.88;0;1.00;33.00;1.59;128.24;-16.35
84353;37.15;36.62;3.06;867;137.76;0;1.00;33.00;1.59;128.24;-16.16
84571;37.07;36.62;0.00;867;0.00;1;1.00;33.00;1.59;128.24;-16.01
84789;37.07;36.62;0.00;867;0.00;0;1.00;33.00;1.59;128.24;-15.85
85006;37.15;36.62;43.52;867;0.00;1;1.00;33.00;1.59;128.24;-15.67
85224;37.15;36.60;61.36;868;0.00;0;1.00;33.00;1.59;128.24;-15.47
85442;37.15;36.62;48.61;871;413.39;0;1.00;33.00;1.59;128.24;-15.29
85660;37.07;36.62;5.03;874;413.06;1;1.00;33.00;1.59;128.24;-15.13
85877;37.15;36.62;48.59;876;413.21;1;1.00;33.00;1.59;128.24;-14.95
86095;37.07;36.62;5.02;877;137.71;1;1.00;33.00;1.59;128.24;-14.79
86313;37.00;36.62;0.00;881;413.18;1;1.00;33.00;1.59;128.24;-14.66
86531;37.07;36.62;43.56;882;275.47;1;1.00;33.00;1.59;128.24;-14.51
86749;37.07;36.62;44.13;884;137.70;0;1.00;33.00;1.59;128.24;-14.35
86966;37.07;36.62;44.86;887;550.90;0;1.00;33.00;1.59;128.24;-14.19
87184;37.07;36.62;45.74;890;413.18;0;1.00;33.00;1.59;128.24;-14.04
87402;37.00;36.62;2.18;893;413.18;1;1.00;33.00;1.59;128.24;-13.91
87620;37.07;36.62;45.74;895;275.48;1;1.00;33.00;1.59;128.24;-13.75
87838;37.00;36.62;2.16;896;137.70;1;1.00;33.00;1.59;128.24;-13.62
88056;37.00;36.62;1.02;899;413.16;0;1.00;33.00;1.59;128.24;-13.49
88273;37.00;36.62;0.00;900;137.76;0;1.00;33.00;1.59;128.24;-13.36
88491;36.92;36.62;0.00;900;0.00;1;1.00;33.00;1.59;128.24;-13.26
88709;36.92;36.62;0.00;900;0.00;0;1.00;33.00;1.59;128.24;-13.16
88926;36.92;36.62;0.00;900;0.00;0;1.00;33.00;1.59;128.24;-13.05
89144;37.00;36.62;43.50;900;0.00;1;1.00;33.00;1.59;128.24;-12.93
89361;37.00;36.62;43.04;901;0.00;0;1.00;33.00;1.59;128.24;-12.80
89579;36.92;36.62;0.00;903;413.62;1;1.00;33.00;1.59;128.24;-12.69
89797;37.00;36.62;43.55;906;413.30;1;1.00;33.00;1.59;128.24;-12.56
90015;36.92;36.62;0.00;907;137.71;1;1.00;33.00;1.59;128.24;-12.46
90232;36.92;36.62;0.00;910;413.22;0;1.00;33.00;1.59;128.24;-12.36
90450;36.92;36.60;13.33;912;275.52;0;1.00;33.00;1.59;128.24;-12.25
90668;36.92;36.62;0.00;913;137.70;0;1.00;33.00;1.59;128.24;-12.15
90886;36.92;36.62;0.00;916;413.25;0;1.00;33.00;1.59;128.24;-12.04
91103;36.92;36.62;0.00;917;137.79;0;1.00;33.00;1.59;128.24;-11.94
91321;36.92;36.62;0.00;917;0.00;0;1.00;33.00;1.59;128.24;-11.84
91539;36.92;36.62;0.00;917;0.00;0;1.00;33.00;1.59;128.24;-11.74
91756;36.92;36.62;0.00;917;0.00;0;1.00;33.00;1.59;128.24;-11.63
91974;36.92;36.62;0.00;917;0.00;0;1.00;33.00;1.59;128.24;-11.53
92192;36.92;36.62;0.00;917;0.00;0;1.00;33.00;1.59;128.24;-11.43
92409;36.92;36.62;0.00;917;0.00;0;1.00;33.00;1.59;128.24;-11.33
92627;36.92;36.62;0.00;917;0.00;0;1.00;33.00;1.59;128.24;-11.22
92844;36.92;36.62;0.00;917;0.00;0;1.00;33.00;1.59;128.24;-11.12
93062;36.92;36.62;0.00;917;0.00;0;1.00;33.00;1.59;128.24;-11.02
93279;36.92;36.62;0.00;917;0.00;0;1.00;33.00;1.59;128.24;-10.92
93497;37.00;36.62;43.50;917;0.00;1;1.00;33.00;1.59;128.24;-10.79
93715;37.00;36.62;45.19;917;0.00;0;1.00;33.00;1.59;128.24;-10.66
93932;36.92;36.62;1.65;920;413.53;1;1.00;33.00;1.59;128.24;-10.55
94150;37.00;36.62;45.22;922;275.47;1;1.00;33.00;1.59;128.24;-10.43
94368;37.00;36.62;47.26;923;137.68;0;1.00;33.00;1.59;128.24;-10.30
94586;37.00;36.62;49.44;926;275.42;0;1.00;33.00;1.59;128.24;-10.17
94804;37.07;36.62;93.00;928;413.16;1;1.00;33.00;1.59;128.24;-10.01
95022;37.07;36.62;98.07;931;413.13;0;1.00;33.00;1.59;128.24;-9.85
95239;37.07;36.62;103.30;935;413.25;0;1.00;33.00;1.59;128.24;-9.70
95457;37.00;36.60;75.89;938;550.80;0;1.00;33.00;1.59;128.24;-9.56
95675;37.07;36.62;112.44;942;550.88;0;1.00;33.00;1.59;128.24;-9.40
95893;37.00;36.62;69.53;946;550.82;0;1.00;33.00;1.59;128.24;-9.27
96111;37.00;36.62;72.73;950;550.90;0;1.00;33.00;1.59;128.24;-9.14
96328;36.92;36.62;29.17;954;551.02;1;1.00;33.00;1.59;128.24;-9.04
96546;36.92;36.62;30.00;959;688.71;0;1.00;33.00;1.59;128.24;-8.94
96764;36.84;36.62;0.00;963;550.98;1;1.00;33.00;1.59;128.24;-8.86
96982;36.84;36.62;0.00;965;275.55;0;1.00;33.00;1.59;128.24;-8.79
97199;36.76;36.62;0.00;965;0.00;1;1.00;33.00;1.59;128.24;-8.74
97417;36.76;36.62;0.00;965;0.00;0;1.00;33.00;1.59;128.24;-8.69
97634;36.76;36.62;0.00;965;0.00;0;1.00;33.00;1.59;128.24;-8.64
97852;36.68;36.62;0.00;965;0.00;1;1.00;33.00;1.59;128.24;-8.62
98069;36.68;36.62;0.00;965;0.00;0;1.00;33.00;1.59;128.24;-8.60
98287;36.68;36.62;0.00;965;0.00;0;1.00;33.00;1.59;128.24;-8.57
98505;36.68;36.62;0.00;965;0.00;0;1.00;33.00;1.59;128.24;-8.55
98722;36.68;36.62;0.00;965;0.00;0;1.00;33.00;1.59;128.24;-8.53
98940;36.61;36.62;0.00;965;0.00;1;1.00;33.00;1.59;128.24;-8.54
99157;36.61;36.62;0.00;965;0.00;0;1.00;33.00;1.59;128.24;-8.54
99375;36.68;36.62;39.18;965;0.00;0;1.00;33.00;1.59;128.24;-8.52
99592;36.61;36.62;0.00;966;0.00;1;1.00;33.00;1.59;128.24;-8.52
99810;36.61;36.62;0.00;968;413.83;0;1.00;33.00;1.59;128.24;-8.53
100027;36.61;36.62;0.00;970;275.65;0;1.00;33.00;1.59;128.24;-8.53
100245;36.53;36.62;0.00;970;0.00;1;1.00;33.00;1.59;128.24;-8.57
100463;36.61;36.65;20.64;970;0.00;0;1.00;33.00;1.59;128.24;-8.58
100680;36.61;36.62;26.56;971;137.84;0;1.00;33.00;1.59;128.24;-8.58
100898;36.61;36.62;17.49;974;413.12;0;1.00;33.00;1.59;128.24;-8.59
101116;36.61;36.62;8.43;977;413.16;0;1.00;33.00;1.59;128.24;-8.59
101334;36.61;36.62;0.00;979;275.48;0;1.00;33.00;1.59;128.24;-8.60
101551;36.53;36.62;0.00;979;0.00;1;1.00;33.00;1.59;128.24;-8.63
101769;36.53;36.62;0.00;979;0.00;0;1.00;33.00;1.59;128.24;-8.66
101986;36.61;36.62;36.38;979;0.00;0;1.00;33.00;1.59;128.24;-8.67
102204;36.61;36.62;27.24;980;0.00;0;1.00;33.00;1.59;128.24;-8.67
102422;36.61;36.62;18.09;982;413.45;0;1.00;33.00;1.59;128.24;-8.68
102640;36.68;36.62;57.06;985;413.19;0;1.00;33.00;1.59;128.24;-8.66
102858;36.61;36.62;13.49;987;275.42;1;1.00;33.00;1.59;128.24;-8.66
103075;36.61;36.62;4.35;990;413.09;0;1.00;33.00;1.59;128.24;-8.67
103293;36.61;36.62;0.00;992;275.53;0;1.00;33.00;1.59;128.24;-8.67
103511;36.61;36.62;0.00;992;0.00;0;1.00;33.00;1.59;128.24;-8.68
103729;36.68;36.62;39.02;992;0.00;0;1.00;33.00;1.59;128.24;-8.65
103946;36.68;36.62;32.47;993;137.81;0;1.00;33.00;1.59;128.24;-8.63
104164;36.61;36.62;0.00;996;275.45;1;1.00;33.00;1.59;128.24;-8.64
104382;36.68;36.62;39.01;998;413.24;0;1.00;33.00;1.59;128.24;-8.62
104600;36.61;36.62;0.00;999;137.71;1;1.00;33.00;1.59;128.24;-8.62
104817;36.68;36.62;39.03;1002;413.22;0;1.00;33.00;1.59;128.24;-8.60
105036;36.68;36.62;32.53;1005;412.22;0;1.00;33.00;1.59;128.24;-8.58
105254;36.68;36.62;26.06;1008;412.28;0;1.00;33.00;1.59;128.24;-8.55
105472;36.68;36.62;19.61;1011;412.25;0;1.00;33.00;1.59;128.24;-8.53
105691;36.68;36.62;13.17;1014;412.24;0;1.00;33.00;1.59;128.24;-8.51
105909;36.68;36.62;6.76;1016;274.82;0;1.00;33.00;1.59;128.24;-8.49
106127;36.68;36.62;0.38;1018;275.42;0;1.00;33.00;1.59;128.24;-8.47
106345;36.68;36.62;0.00;1018;0.00;0;1.00;33.00;1.59;128.24;-8.45
106562;36.68;36.62;0.00;1018;0.00;0;1.00;33.00;1.59;128.24;-8.42
106780;36.68;36.62;0.00;1018;0.00;0;1.00;33.00;1.59;128.24;-8.40
106997;36.68;36.62;0.00;1018;0.00;0;1.00;33.00;1.59;128.24;-8.38
107215;36.68;36.62;0.00;1018;0.00;0;1.00;33.00;1.59;128.24;-8.36
107432;36.68;36.62;0.00;1018;0.00;0;1.00;33.00;1.59;128.24;-8.34
107650;36.76;36.62;42.05;1018;0.00;0;1.00;33.00;1.59;128.24;-8.29
107867;36.76;36.62;38.45;1018;0.00;0;1.00;33.00;1.59;128.24;-8.24
108085;36.84;36.62;82.00;1020;275.63;1;1.00;33.00;1.59;128.24;-8.16
108303;36.76;36.62;38.34;1023;412.31;1;1.00;33.00;1.59;128.24;-8.11
108522;36.76;36.62;34.91;1025;274.84;0;1.00;33.00;1.59;128.24;-8.07
108740;36.84;36.60;78.57;1028;412.25;1;1.00;33.00;1.59;128.24;-7.98
108958;36.76;36.62;34.92;1031;412.28;1;1.00;33.00;1.59;128.24;-7.93
109177;36.84;36.62;78.59;1034;274.78;1;1.00;33.00;1.59;128.24;-7.86
109395;36.84;36.62;78.01;1036;412.21;0;1.00;33.00;1.59;128.24;-7.78
109613;36.84;36.62;77.50;1039;412.21;0;1.00;33.00;1.59;128.24;-7.71
109832;36.84;36.62;77.07;1043;412.21;0;1.00;33.00;1.59;128.24;-7.63
110050;36.84;36.62;76.72;1046;549.67;0;1.00;33.00;1.59;128.24;-7.55
110268;36.84;36.62;76.44;1050;412.24;0;1.00;33.00;1.59;128.24;-7.48
110487;36.76;36.62;32.79;1053;549.79;1;1.00;33.00;1.59;128.24;-7.43
110705;36.76;36.62;30.05;1057;549.67;0;1.00;33.00;1.59;128.24;-7.38
110923;36.76;36.62;27.35;1061;549.81;0;1.00;33.00;1.59;128.24;-7.33
111141;36.76;36.62;24.71;1064;412.33;0;1.00;33.00;1.59;128.24;-7.28
111360;36.68;36.62;0.00;1068;412.24;1;1.00;33.00;1.59;128.24;-7.26
111578;36.76;36.62;43.08;1069;275.59;0;1.00;33.00;1.59;128.24;-7.21
111796;36.76;36.62;40.56;1070;137.41;0;1.00;33.00;1.59;128.24;-7.16
112014;36.68;36.62;0.00;1073;412.25;1;1.00;33.00;1.59;128.24;-7.14
112232;36.68;36.62;0.00;1076;413.30;0;1.00;33.00;1.59;128.24;-7.12
112450;36.61;36.62;0.00;1076;0.00;1;1.00;33.00;1.59;128.24;-7.13
112667;36.61;36.62;0.00;1076;0.00;0;1.00;33.00;1.59;128.24;-7.13
112885;36.61;36.62;0.00;1076;0.00;0;1.00;33.00;1.59;128.24;-7.14
113102;36.68;36.62;40.57;1076;0.00;0;1.00;33.00;1.59;128.24;-7.11
113320;36.68;36.62;35.55;1077;137.80;0;1.00;33.00;1.59;128.24;-7.09
113538;36.68;36.62;30.56;1080;412.27;0;1.00;33.00;1.59;128.24;-7.07
113757;36.61;36.62;0.00;1083;412.22;1;1.00;33.00;1.59;128.24;-7.07
113974;36.61;36.62;0.00;1084;137.75;0;1.00;33.00;1.59;128.24;-7.08
114192;36.61;36.62;0.00;1084;0.00;0;1.00;33.00;1.59;128.24;-7.08
114410;36.61;36.62;0.00;1084;0.00;0;1.00;33.00;1.59;128.24;-7.09
114627;36.61;36.62;0.00;1084;0.00;0;1.00;33.00;1.59;128.24;-7.09
114845;36.61;36.62;0.00;1084;0.00;0;1.00;33.00;1.59;128.24;-7.10
115063;36.68;36.62;40.59;1084;0.00;0;1.00;33.00;1.59;128.24;-7.08
115280;36.61;36.62;0.00;1084;0.00;1;1.00;33.00;1.59;128.24;-7.08
115498;36.61;36.62;0.00;1087;413.51;0;1.00;33.00;1.59;128.24;-7.09
115716;36.68;36.62;40.56;1089;275.46;0;1.00;33.00;1.59;128.24;-7.07
115934;36.61;36.62;0.00;1090;137.40;1;1.00;33.00;1.59;128.24;-7.07
116152;36.68;36.62;40.58;1093;413.21;0;1.00;33.00;1.59;128.24;-7.05
116370;36.68;36.62;35.63;1096;412.16;0;1.00;33.00;1.59;128.24;-7.03
116589;36.68;36.62;30.71;1099;412.25;0;1.00;33.00;1.59;128.24;-7.01
116807;36.61;36.62;0.00;1102;412.25;1;1.00;33.00;1.59;128.24;-7.01
117025;36.61;36.62;0.00;1103;137.73;0;1.00;33.00;1.59;128.24;-7.01
117243;36.68;36.62;40.66;1103;0.00;0;1.00;33.00;1.59;128.24;-6.99
117460;36.61;36.62;0.00;1103;0.00;1;1.00;33.00;1.59;128.24;-7.00
117678;36.68;36.62;40.69;1106;413.68;0;1.00;33.00;1.59;128.24;-6.98
117896;36.61;36.62;0.00;1109;412.13;1;1.00;33.00;1.59;128.24;-6.98
118114;36.68;36.60;43.56;1111;275.51;1;1.00;33.00;1.59;128.24;-6.95
118332;36.68;36.62;23.78;1112;0.00;0;1.00;33.00;1.59;128.24;-6.93
118550;36.61;36.62;0.00;1115;551.15;1;1.00;33.00;1.59;128.24;-6.93
118768;36.68;36.62;40.72;1116;137.76;0;1.00;33.00;1.59;128.24;-6.91
118986;36.61;36.62;0.00;1118;137.37;1;1.00;33.00;1.59;128.24;-6.92
119204;36.68;36.62;40.73;1121;413.22;0;1.00;33.00;1.59;128.24;-6.90
119422;36.76;36.62;84.06;1123;274.87;0;1.00;33.00;1.59;128.24;-6.85
119641;36.68;36.62;40.39;1126;412.16;1;1.00;33.00;1.59;128.24;-6.82
119859;36.68;36.62;35.67;1129;412.19;0;1.00;33.00;1.59;128.24;-6.80
120077;36.68;36.62;30.97;1132;549.63;0;1.00;33.00;1.59;128.24;-6.78
120296;36.68;36.62;26.29;1135;412.21;0;1.00;33.00;1.59;128.24;-6.76
120514;36.68;36.62;21.63;1138;274.83;0;1.00;33.00;1.59;128.24;-6.74
120732;36.61;36.62;0.00;1140;412.16;1;1.00;33.00;1.59;128.24;-6.74
120950;36.68;36.62;40.90;1142;275.43;0;1.00;33.00;1.59;128.24;-6.72
121169;36.61;36.62;0.00;1143;137.37;1;1.00;33.00;1.59;128.24;-6.73
121386;36.68;36.62;40.92;1146;275.44;0;1.00;33.00;1.59;128.24;-6.70
121605;36.68;36.62;36.32;1148;412.15;0;1.00;33.00;1.59;128.24;-6.68
121823;36.68;36.62;31.74;1151;412.22;0;1.00;33.00;1.59;128.24;-6.66
122041;36.61;36.62;0.00;1154;412.25;1;1.00;33.00;1.59;128.24;-6.66
122259;36.68;36.62;40.98;1156;275.44;0;1.00;33.00;1.59;128.24;-6.64
122478;36.68;36.62;36.44;1157;137.40;0;1.00;33.00;1.59;128.24;-6.62
122696;36.61;36.62;0.00;1160;412.21;1;1.00;33.00;1.59;128.24;-6.63
122914;36.68;36.62;41.02;1162;275.45;0;1.00;33.00;1.59;128.24;-6.60
123132;36.68;36.62;36.52;1164;137.40;0;1.00;33.00;1.59;128.24;-6.58
123350;36.68;36.62;32.04;1167;412.27;0;1.00;33.00;1.59;128.24;-6.56
123569;36.68;36.62;27.58;1170;412.25;0;1.00;33.00;1.59;128.24;-6.54
123787;36.68;36.62;23.14;1172;412.19;0;1.00;33.00;1.59;128.24;-6.52
124005;36.68;36.62;18.73;1175;412.22;0;1.00;33.00;1.59;128.24;-6.49
124224;36.76;36.62;62.38;1178;274.91;1;1.00;33.00;1.59;128.24;-6.45
124442;36.68;36.62;18.71;1180;412.16;1;1.00;33.00;1.59;128.24;-6.42
124660;36.68;36.62;14.38;1183;412.21;0;1.00;33.00;1.59;128.24;-6.40
124879;36.76;36.62;58.04;1185;274.90;1;1.00;33.00;1.59;128.24;-6.35
125097;36.76;36.62;56.37;1188;412.22;0;1.00;33.00;1.59;128.24;-6.30
125315;36.68;36.62;12.71;1190;274.84;1;1.00;33.00;1.59;128.24;-6.28
125534;36.68;36.62;8.53;1193;412.16;0;1.00;33.00;1.59;128.24;-6.26
125751;36.76;36.62;52.08;1194;137.77;1;1.00;33.00;1.59;128.24;-6.21
125970;36.76;36.62;50.55;1195;137.43;0;1.00;33.00;1.59;128.24;-6.16
126188;36.76;36.62;49.07;1198;412.28;0;1.00;33.00;1.59;128.24;-6.11
126406;36.76;36.62;47.65;1201;412.33;0;1.00;33.00;1.59;128.24;-6.07
126624;36.76;36.62;46.27;1204;412.34;0;1.00;33.00;1.59;128.24;-6.02
126843;36.84;36.62;89.93;1207;412.22;1;1.00;33.00;1.59;128.24;-5.94
127061;36.76;36.62;46.27;1210;412.28;1;1.00;33.00;1.59;128.24;-5.89
127279;36.76;36.62;45.07;1213;412.27;0;1.00;33.00;1.59;128.24;-5.84
127498;36.76;36.62;43.91;1216;412.36;0;1.00;33.00;1.59;128.24;-5.79
127716;36.76;36.62;42.80;1220;412.30;0;1.00;33.00;1.59;128.24;-5.75
127934;36.68;36.62;0.00;1223;549.63;1;1.00;33.00;1.59;128.24;-5.72
128152;36.76;36.62;43.55;1225;275.52;1;1.00;33.00;1.59;128.24;-5.68
128370;36.76;36.62;42.57;1226;137.43;0;1.00;33.00;1.59;128.24;-5.63
128589;36.76;36.62;41.63;1229;412.31;0;1.00;33.00;1.59;128.24;-5.58
128807;36.68;36.62;0.00;1232;412.27;1;1.00;33.00;1.59;128.24;-5.56
129025;36.68;36.62;0.00;1235;413.16;0;1.00;33.00;1.59;128.24;-5.53
129242;36.68;36.62;0.00;1235;0.00;0;1.00;33.00;1.59;128.24;-5.51
129460;36.68;36.62;0.00;1235;0.00;0;1.00;33.00;1.59;128.24;-5.49
129677;36.68;36.62;0.00;1235;0.00;0;1.00;33.00;1.59;128.24;-5.47
129895;36.68;36.62;0.00;1235;0.00;0;1.00;33.00;1.59;128.24;-5.45
130113;36.76;36.62;43.50;1235;0.00;1;1.00;33.00;1.59;128.24;-5.40
130330;36.68;36.62;0.00;1236;0.00;1;1.00;33.00;1.59;128.24;-5.38
130548;36.68;36.60;12.55;1238;413.69;0;1.00;33.00;1.59;128.24;-5.35
130766;36.68;36.62;0.00;1241;412.13;0;1.00;33.00;1.59;128.24;-5.32
130984;36.68;36.62;0.00;1243;275.52;0;1.00;33.00;1.59;128.24;-5.30
131202;36.68;36.62;0.00;1243;0.00;0;1.00;33.00;1.59;128.24;-5.28
131419;36.68;36.62;0.00;1243;0.00;0;1.00;33.00;1.59;128.24;-5.26
131637;36.76;36.62;43.50;1243;0.00;1;1.00;33.00;1.59;128.24;-5.21
131854;36.76;36.62;42.98;1244;137.83;0;1.00;33.00;1.59;128.24;-5.16
132073;36.68;36.62;0.00;1246;274.83;1;1.00;33.00;1.59;128.24;-5.14
132290;36.76;36.62;43.56;1248;275.50;1;1.00;33.00;1.59;128.24;-5.09
132509;36.68;36.62;0.00;1249;137.40;1;1.00;33.00;1.59;128.24;-5.07
132727;36.68;36.62;0.00;1252;413.16;0;1.00;33.00;1.59;128.24;-5.05
132944;36.76;36.62;43.55;1253;137.79;1;1.00;33.00;1.59;128.24;-5.00
133163;36.92;36.62;87.22;1255;137.38;1;1.00;33.00;1.59;128.24;-4.90
133381;36.76;36.62;43.56;1258;549.67;1;1.00;33.00;1.59;128.24;-4.85
133599;36.76;36.62;43.40;1261;412.30;0;1.00;33.00;1.59;128.24;-4.80
133818;36.76;36.62;43.28;1264;412.37;0;1.00;33.00;1.59;128.24;-4.75
134036;36.68;36.62;0.00;1267;412.25;1;1.00;33.00;1.59;128.24;-4.73
134254;36.68;36.62;0.00;1270;413.16;0;1.00;33.00;1.59;128.24;-4.71
134471;36.76;36.62;43.55;1270;0.00;1;1.00;33.00;1.59;128.24;-4.66
134689;36.76;36.62;43.58;1272;137.80;0;1.00;33.00;1.59;128.24;-4.61
134908;36.68;36.62;0.00;1275;549.65;1;1.00;33.00;1.59;128.24;-4.59
135125;36.68;36.62;0.00;1277;275.47;0;1.00;33.00;1.59;128.24;-4.56
135343;36.68;36.62;0.00;1277;0.00;0;1.00;33.00;1.59;128.24;-4.54
135560;36.68;36.62;0.00;1277;0.00;0;1.00;33.00;1.59;128.24;-4.52
135778;36.68;36.62;0.00;1277;0.00;0;1.00;33.00;1.59;128.24;-4.50
135996;36.68;36.62;0.00;1277;0.00;0;1.00;33.00;1.59;128.24;-4.48
136213;36.68;36.62;0.00;1277;0.00;0;1.00;33.00;1.59;128.24;-4.46
136431;36.61;36.62;0.00;1277;0.00;1;1.00;33.00;1.59;128.24;-4.46
136648;36.68;36.62;43.24;1277;0.00;0;1.00;33.00;1.59;128.24;-4.44
136866;36.68;36.62;40.90;1278;0.00;0;1.00;33.00;1.59;128.24;-4.42
137084;36.61;36.62;0.00;1280;413.53;1;1.00;33.00;1.59;128.24;-4.42
137301;36.68;36.62;43.24;1282;275.53;0;1.00;33.00;1.59;128.24;-4.40
137520;36.76;36.62;86.89;1283;0.00;1;1.00;33.00;1.59;128.24;-4.35
137737;36.68;36.62;43.33;1286;413.37;1;1.00;33.00;1.59;128.24;-4.33
137956;36.68;36.62;41.11;1289;549.55;0;1.00;33.00;1.59;128.24;-4.31
138174;36.68;35.96;84.78;1292;412.19;1;1.00;33.00;1.59;128.24;-4.06
138392;36.68;33.22;128.44;1295;412.19;1;1.00;33.00;1.59;128.24;-2.85
138612;37.00;30.67;172.32;1299;410.22;1;1.00;33.00;1.59;128.24;-0.65
138831;36.68;30.39;216.20;1303;547.01;1;1.00;33.00;1.59;128.24;1.55
139050;36.68;30.42;255.00;1307;686.99;1;1.00;33.00;1.59;128.24;3.72
139268;36.61;30.42;255.00;1312;686.94;1;1.00;33.00;1.59;128.24;5.87
139486;36.53;30.39;255.00;1318;824.33;1;1.00;33.00;1.59;128.24;8.00
139705;36.45;30.42;255.00;1325;961.57;1;1.00;33.00;1.59;128.24;10.09
139924;36.38;30.42;255.00;1332;957.16;1;1.00;33.00;1.59;128.24;12.17
140143;36.30;30.42;255.00;1341;1093.97;1;1.00;33.00;1.59;128.24;14.22
140364;36.22;30.42;255.00;1349;1224.87;1;1.00;33.00;1.59;128.24;16.26
140584;36.07;30.39;255.00;1358;1224.87;1;1.00;33.00;1.59;128.24;18.25
140805;36.07;30.42;255.00;1368;1224.82;1;1.00;33.00;1.59;128.24;20.23
141025;35.92;30.42;255.00;1378;1497.03;1;1.00;33.00;1.59;128.24;22.15
141246;35.84;30.42;255.00;1389;1360.74;1;1.00;33.00;1.59;128.24;24.05
141466;35.61;30.42;255.00;1399;1496.90;1;1.00;33.00;1.59;128.24;25.87
141687;35.46;30.42;255.00;1411;1496.79;1;1.00;33.00;1.59;128.24;27.64
141907;35.39;30.42;255.00;1422;1496.84;1;1.00;33.00;1.59;128.24;29.38
142127;35.16;30.42;255.00;1433;1633.16;1;1.00;33.00;1.59;128.24;31.05
142348;35.09;30.42;255.00;1445;1633.10;1;1.00;33.00;1.59;128.24;32.68
142568;34.87;30.42;255.00;1457;1633.04;1;1.00;33.00;1.59;128.24;34.24
142789;34.72;30.42;255.00;1470;1633.04;1;1.00;33.00;1.59;128.24;35.75
143009;34.57;30.42;255.00;1482;1633.10;1;1.00;33.00;1.59;128.24;37.20
143230;34.42;30.42;255.00;1494;1769.00;1;1.00;33.00;1.59;128.24;38.61
143450;34.28;30.42;255.00;1507;1633.04;1;1.00;33.00;1.59;128.24;39.96
143671;34.21;30.42;255.00;1520;1769.25;1;1.00;33.00;1.59;128.24;41.29
143891;33.99;30.42;255.00;1532;1769.19;0;1.00;33.00;1.59;128.24;42.54
144111;33.91;30.39;255.00;1545;1768.93;1;1.00;33.00;1.59;128.24;43.77
144332;33.70;30.42;255.00;1558;1633.39;0;1.00;33.00;1.59;128.24;44.92
144552;33.55;30.42;255.00;1571;1905.35;1;1.00;33.00;1.59;128.24;46.02
144773;33.48;30.42;255.00;1584;1769.19;1;1.00;33.00;1.59;128.24;47.09
144993;33.27;30.42;255.00;1598;1769.51;0;1.00;33.00;1.59;128.24;48.09
145214;33.12;30.42;255.00;1611;1769.45;1;1.00;33.00;1.59;128.24;49.03
145434;32.98;30.39;255.00;1624;1769.45;1;1.00;33.00;1.59;128.24;49.94
145654;32.84;30.39;255.00;1637;1769.19;1;1.00;33.00;1.59;128.24;50.79
145875;32.70;30.42;255.00;1651;1905.35;0;1.00;33.00;1.59;128.24;51.59
146095;32.62;30.42;255.00;1664;1769.38;1;1.00;33.00;1.59;128.24;52.36
146316;32.48;30.42;255.00;1677;1769.19;0;1.00;33.00;1.59;128.24;53.09
146536;32.34;30.42;255.00;1691;1905.49;0;1.00;33.00;1.59;128.24;53.76
146756;32.27;30.42;255.00;1704;1769.45;1;1.00;33.00;1.59;128.24;54.41
146977;32.13;30.42;255.00;1717;1905.63;0;1.00;33.00;1.59;128.24;55.01
147197;31.99;30.42;255.00;1731;1769.32;0;1.00;33.00;1.59;128.24;55.56
147418;31.92;30.42;255.00;1744;1769.25;1;1.00;33.00;1.59;128.24;56.09
147638;31.78;30.42;255.00;1758;1905.07;0;1.00;33.00;1.59;128.24;56.57
147859;31.71;30.42;255.00;1771;1769.38;1;1.00;33.00;1.59;128.24;57.02
148079;31.58;30.42;255.00;1785;1905.07;0;1.00;33.00;1.59;128.24;57.42
148300;31.44;30.42;255.00;1798;1769.19;0;1.00;33.00;1.59;128.24;57.78
148520;31.37;30.42;255.00;1812;1905.35;1;1.00;33.00;1.59;128.24;58.11
148740;31.30;30.42;255.00;1825;1769.32;1;1.00;33.00;1.59;128.24;58.42
148961;31.23;30.42;255.00;1839;1905.28;1;1.00;33.00;1.59;128.24;58.70
149181;31.09;30.42;255.00;1852;1769.12;0;1.00;33.00;1.59;128.24;58.94
149402;31.02;30.42;255.00;1866;1905.28;0;1.00;33.00;1.59;128.24;59.15
149622;30.95;30.39;255.00;1879;1769.06;1;1.00;33.00;1.59;128.24;59.35
149843;30.89;30.42;255.00;1893;1905.28;0;1.00;33.00;1.59;128.24;59.51
150063;30.82;30.42;255.00;1906;1769.25;0;1.00;33.00;1.59;128.24;59.65
150283;30.61;30.42;210.92;1920;1905.63;1;1.00;33.00;1.59;128.24;59.72
150504;30.61;30.42;255.00;1933;1905.59;1;1.00;33.00;1.59;128.24;59.78
150724;30.61;30.39;255.00;1947;1769.73;1;1.00;33.00;1.59;128.24;59.86
150945;30.48;30.42;222.72;1960;1769.45;0;1.00;33.00;1.59;128.24;59.88
151165;30.41;30.42;242.68;1973;1905.56;0;1.00;33.00;1.59;128.24;59.88
151385;30.27;30.42;218.70;1987;1769.38;0;1.00;33.00;1.59;128.24;59.83
151606;30.27;30.42;255.00;2000;1769.25;1;1.00;33.00;1.59;128.24;59.77
151826;30.21;30.42;255.00;2013;1769.64;0;1.00;33.00;1.59;128.24;59.70
152047;30.14;30.39;255.00;2026;1769.45;0;1.00;33.00;1.59;128.24;59.61
152267;30.07;30.42;248.80;2039;1905.56;0;1.00;33.00;1.59;128.24;59.49
152488;30.00;30.42;255.00;2053;1769.32;0;1.00;33.00;1.59;128.24;59.34
152708;30.00;30.42;255.00;2066;1769.38;1;1.00;33.00;1.59;128.24;59.19
152928;29.94;30.42;255.00;2079;1769.64;0;1.00;33.00;1.59;128.24;59.02
153149;29.87;30.42;255.00;2093;1905.56;0;1.00;33.00;1.59;128.24;58.83
153369;29.87;30.39;255.00;2106;1769.22;1;1.00;33.00;1.59;128.24;58.65
153590;29.80;30.42;239.03;2119;1769.16;0;1.00;33.00;1.59;128.24;58.43
153810;29.73;30.42;235.40;2133;1905.00;0;1.00;33.00;1.59;128.24;58.19
154031;29.73;30.42;255.00;2146;1769.00;0;1.00;33.00;1.59;128.24;57.95
154251;29.67;30.42;248.71;2159;1769.38;0;1.00;33.00;1.59;128.24;57.68
154471;29.53;30.42;204.62;2173;1905.14;1;1.00;33.00;1.59;128.24;57.37
154692;29.53;30.42;232.36;2186;1769.32;0;1.00;33.00;1.59;128.24;57.06
154912;29.60;30.42;255.00;2199;1769.32;1;1.00;33.00;1.59;128.24;56.77
155133;29.53;30.42;243.14;2212;1769.19;0;1.00;33.00;1.59;128.24;56.46
155353;29.40;30.42;199.04;2225;1769.06;1;1.00;33.00;1.59;128.24;56.10
155574;29.40;30.42;221.05;2238;1769.12;0;1.00;33.00;1.59;128.24;55.74
155794;29.40;30.42;242.69;2251;1769.32;0;1.00;33.00;1.59;128.24;55.38
156014;29.33;30.42;222.85;2264;1769.51;0;1.00;33.00;1.59;128.24;55.00
156235;29.26;30.42;200.45;2277;1769.45;0;1.00;33.00;1.59;128.24;54.60
156455;29.33;30.42;244.53;2290;1769.45;1;1.00;33.00;1.59;128.24;54.22
156676;29.26;30.42;221.34;2303;1769.32;0;1.00;33.00;1.59;128.24;53.81
156896;29.26;30.42;236.60;2315;1633.33;0;1.00;33.00;1.59;128.24;53.41
157116;29.20;30.42;210.39;2328;1769.45;0;1.00;33.00;1.59;128.24;52.98
157337;29.20;30.42;222.59;2341;1769.45;0;1.00;33.00;1.59;128.24;52.55
157557;29.13;30.42;193.34;2353;1633.39;0;1.00;33.00;1.59;128.24;52.10
157778;29.13;30.42;202.43;2366;1769.51;0;1.00;33.00;1.59;128.24;51.64
157998;29.13;30.42;211.07;2378;1769.70;0;1.00;33.00;1.59;128.24;51.19
158218;29.13;30.42;219.26;2391;1633.63;0;1.00;33.00;1.59;128.24;50.74
158439;29.06;30.42;186.01;2403;1633.57;0;1.00;33.00;1.59;128.24;50.27
158659;29.06;30.39;206.68;2415;1769.38;0;1.00;33.00;1.59;128.24;49.80
158880;29.06;30.42;196.47;2428;1633.16;0;1.00;33.00;1.59;128.24;49.32
159100;29.06;30.42;200.57;2440;1633.22;0;1.00;33.00;1.59;128.24;48.85
159321;29.00;30.39;178.90;2452;1633.39;0;1.00;33.00;1.59;128.24;48.36
159541;29.00;30.42;165.03;2464;1632.92;0;1.00;33.00;1.59;128.24;47.86
159761;29.06;30.42;206.37;2476;1633.16;0;1.00;33.00;1.59;128.24;47.39
159982;29.00;30.39;183.24;2488;1633.10;0;1.00;33.00;1.59;128.24;46.90
160202;29.00;30.42;167.90;2499;1632.92;0;1.00;33.00;1.59;128.24;46.40
160423;29.00;30.42;166.86;2511;1496.84;0;1.00;33.00;1.59;128.24;45.90
160643;28.93;30.39;140.04;2523;1633.10;0;1.00;33.00;1.59;128.24;45.39
160864;29.00;30.42;161.88;2534;1496.95;0;1.00;33.00;1.59;128.24;44.89
161084;28.93;30.42;118.42;2545;1632.98;0;1.00;33.00;1.59;128.24;44.36
161305;29.00;30.42;154.03;2556;1497.06;0;1.00;33.00;1.59;128.24;43.87
161525;29.00;30.42;150.45;2567;1497.11;0;1.00;33.00;1.59;128.24;43.37
161745;29.00;30.42;146.37;2578;1361.16;0;1.00;33.00;1.59;128.24;42.87
161966;28.93;30.42;102.29;2588;1497.22;1;1.00;33.00;1.59;128.24;42.35
162186;29.00;30.42;135.87;2599;1360.96;0;1.00;33.00;1.59;128.24;41.85
162407;29.00;30.42;130.28;2609;1361.06;0;1.00;33.00;1.59;128.24;41.35
162627;29.00;30.39;139.82;2619;1361.21;0;1.00;33.00;1.59;128.24;40.86
162847;29.00;30.42;118.45;2629;1360.91;0;1.00;33.00;1.59;128.24;40.36
163068;29.00;30.42;111.37;2638;1360.87;0;1.00;33.00;1.59;128.24;39.86
163288;28.93;30.42;67.29;2648;1225.05;1;1.00;33.00;1.59;128.24;39.34
163508;29.00;30.42;98.06;2657;1367.57;0;1.00;33.00;1.59;128.24;38.85
163727;29.06;30.42;130.56;2666;1230.54;0;1.00;33.00;1.59;128.24;38.37
163947;29.06;30.42;123.70;2675;1088.77;0;1.00;33.00;1.59;128.24;37.90
164168;29.06;30.42;116.38;2683;1225.18;0;1.00;33.00;1.59;128.24;37.42
164388;29.06;30.42;108.57;2692;1225.22;0;1.00;33.00;1.59;128.24;36.95
164609;29.13;30.42;141.27;2701;1088.93;0;1.00;33.00;1.59;128.24;36.49
164829;29.06;30.42;97.19;2709;1088.89;1;1.00;33.00;1.59;128.24;36.02
165048;29.13;30.42;129.16;2717;1230.90;0;1.00;33.00;1.59;128.24;35.57
165269;29.13;30.42;121.72;2726;1088.65;0;1.00;33.00;1.59;128.24;35.12
165489;29.20;30.42;154.85;2734;1088.89;0;1.00;33.00;1.59;128.24;34.69
165710;29.20;30.42;148.76;2742;1224.87;0;1.00;33.00;1.59;128.24;34.26
165930;29.20;30.42;142.24;2751;1088.77;0;1.00;33.00;1.59;128.24;33.83
166151;29.26;30.42;176.35;2759;1224.91;0;1.00;33.00;1.59;128.24;33.43
166371;29.46;30.42;220.44;2768;1088.73;1;1.00;33.00;1.59;128.24;33.09
166591;29.33;30.42;176.35;2777;1224.87;1;1.00;33.00;1.59;128.24;32.71
166812;29.33;30.42;172.73;2786;1224.91;0;1.00;33.00;1.59;128.24;32.33
167032;29.33;30.42;168.73;2795;1361.11;0;1.00;33.00;1.59;128.24;31.95
167253;29.33;30.42;164.35;2805;1225.00;0;1.00;33.00;1.59;128.24;31.56
167473;29.33;30.42;159.59;2814;1361.21;0;1.00;33.00;1.59;128.24;31.18
167693;29.33;30.42;154.44;2824;1224.87;0;1.00;33.00;1.59;128.24;30.80
167914;29.40;30.42;190.05;2833;1361.11;0;1.00;33.00;1.59;128.24;30.44
168134;29.40;30.42;186.39;2843;1224.78;0;1.00;33.00;1.59;128.24;30.08
168355;29.46;30.42;223.57;2853;1361.16;0;1.00;33.00;1.59;128.24;29.75
168575;29.46;30.42;221.45;2863;1361.06;0;1.00;33.00;1.59;128.24;29.41
168796;29.40;30.42;177.81;2873;1361.26;0;1.00;33.00;1.59;128.24;29.06
169016;29.46;30.42;213.96;2883;1497.17;0;1.00;33.00;1.59;128.24;28.72
169236;29.40;30.39;185.26;2894;1361.06;0;1.00;33.00;1.59;128.24;28.37
169457;29.46;30.42;205.93;2905;1497.17;0;1.00;33.00;1.59;128.24;28.04
169677;29.46;30.42;202.11;2915;1497.11;0;1.00;33.00;1.59;128.24;27.70
169898;29.40;30.42;158.03;2926;1361.21;1;1.00;33.00;1.59;128.24;27.34
170118;29.46;30.42;192.46;2937;1497.28;0;1.00;33.00;1.59;128.24;27.01
170338;29.46;30.42;187.61;2948;1497.22;0;1.00;33.00;1.59;128.24;26.67
170559;29.46;30.42;182.42;2959;1497.39;0;1.00;33.00;1.59;128.24;26.34
170779;29.46;30.42;176.89;2969;1497.28;0;1.00;33.00;1.59;128.24;26.01
171000;29.40;30.42;132.82;2980;1497.50;1;1.00;33.00;1.59;128.24;25.65
171220;29.40;30.42;124.37;2991;1361.01;0;1.00;33.00;1.59;128.24;25.29
171440;29.40;30.42;115.56;3002;1497.33;0;1.00;33.00;1.59;128.24;24.93
171661;29.40;30.42;106.39;3012;1361.01;0;1.00;33.00;1.59;128.24;24.57
171881;29.46;30.42;138.06;3022;1361.11;0;1.00;33.00;1.59;128.24;24.24
172102;29.46;30.42;130.43;3032;1361.01;0;1.00;33.00;1.59;128.24;23.90
172322;29.40;30.42;86.35;3041;1361.21;1;1.00;33.00;1.59;128.24;23.54
172541;29.46;30.42;117.16;3051;1230.54;0;1.00;33.00;1.59;128.24;23.21
172762;29.46;30.42;108.50;3060;1224.78;0;1.00;33.00;1.59;128.24;22.88
172982;29.46;30.42;99.52;3069;1225.13;0;1.00;33.00;1.59;128.24;22.54
173202;29.46;30.42;90.19;3077;1230.85;0;1.00;33.00;1.59;128.24;22.21
173421;29.46;30.42;80.54;3086;1093.97;0;1.00;33.00;1.59;128.24;21.87
173640;29.46;30.42;70.55;3094;1230.67;0;1.00;33.00;1.59;128.24;21.54
173860;29.53;30.42;101.62;3102;1094.17;0;1.00;33.00;1.59;128.24;21.23
174080;29.53;30.42;93.22;3110;952.74;0;1.00;33.00;1.59;128.24;20.92
174299;29.60;30.39;136.88;3117;1099.34;1;1.00;33.00;1.59;128.24;20.64
174519;29.53;30.42;92.80;3125;952.64;1;1.00;33.00;1.59;128.24;20.33
174737;29.60;30.42;125.12;3132;1099.26;0;1.00;33.00;1.59;128.24;20.05
174958;29.60;30.42;117.77;3140;952.81;0;1.00;33.00;1.59;128.24;19.76
175177;29.67;30.42;151.62;3147;1094.17;0;1.00;33.00;1.59;128.24;19.50
175397;29.67;30.39;161.60;3155;1088.81;0;1.00;33.00;1.59;128.24;19.24
175618;29.67;30.39;156.53;3163;952.74;0;1.00;33.00;1.59;128.24;18.99
175837;29.67;30.42;135.50;3171;1094.13;0;1.00;33.00;1.59;128.24;18.72
176058;29.73;30.42;170.38;3179;1224.82;0;1.00;33.00;1.59;128.24;18.48
176278;29.60;30.42;126.30;3188;1088.81;1;1.00;33.00;1.59;128.24;18.19
176498;29.73;30.42;170.38;3196;1088.89;1;1.00;33.00;1.59;128.24;17.95
176719;29.73;30.42;165.42;3205;1224.78;0;1.00;33.00;1.59;128.24;17.71
176939;29.73;30.42;160.22;3213;1225.00;0;1.00;33.00;1.59;128.24;17.47
177160;29.73;30.42;154.77;3222;1225.13;0;1.00;33.00;1.59;128.24;17.23
177380;29.80;30.42;190.48;3231;1225.00;0;1.00;33.00;1.59;128.24;17.01
177601;29.80;30.42;186.82;3240;1224.82;0;1.00;33.00;1.59;128.24;16.80
177821;29.80;30.42;182.95;3250;1225.09;0;1.00;33.00;1.59;128.24;16.58
178041;29.80;30.42;178.85;3259;1224.96;0;1.00;33.00;1.59;128.24;16.36
178262;29.67;30.42;134.77;3269;1361.01;1;1.00;33.00;1.59;128.24;16.10
178482;29.80;30.42;178.86;3278;1360.96;1;1.00;33.00;1.59;128.24;15.88
178703;29.80;30.39;189.70;3288;1361.01;0;1.00;33.00;1.59;128.24;15.67
178923;29.80;30.42;169.91;3298;1224.82;0;1.00;33.00;1.59;128.24;15.45
179144;29.80;30.42;164.70;3308;1360.91;0;1.00;33.00;1.59;128.24;15.24
179364;29.73;30.42;120.61;3318;1361.06;1;1.00;33.00;1.59;128.24;15.00
179584;29.80;30.42;154.09;3328;1361.06;0;1.00;33.00;1.59;128.24;14.78
179805;29.80;30.42;148.19;3338;1360.96;0;1.00;33.00;1.59;128.24;14.56
180025;29.80;30.42;142.08;3348;1361.01;0;1.00;33.00;1.59;128.24;14.34
180246;29.80;30.42;135.76;3357;1361.31;0;1.00;33.00;1.59;128.24;14.13
180466;29.80;30.42;129.21;3367;1225.18;0;1.00;33.00;1.59;128.24;13.91
180686;29.80;30.42;122.45;3376;1361.31;0;1.00;33.00;1.59;128.24;13.69
180907;29.73;30.42;78.37;3386;1225.05;1;1.00;33.00;1.59;128.24;13.45
181126;29.80;30.42;110.49;3395;1367.61;0;1.00;33.00;1.59;128.24;13.24
181346;29.80;30.42;103.06;3404;1088.93;0;1.00;33.00;1.59;128.24;13.02
181567;29.80;30.42;95.40;3413;1225.18;0;1.00;33.00;1.59;128.24;12.80
181786;29.80;30.42;87.54;3421;1230.85;0;1.00;33.00;1.59;128.24;12.59
182006;29.80;30.42;79.45;3429;1094.17;0;1.00;33.00;1.59;128.24;12.37
182225;29.80;30.42;71.15;3437;1094.13;0;1.00;33.00;1.59;128.24;12.15
182444;29.80;30.42;62.63;3445;1094.13;0;1.00;33.00;1.59;128.24;11.94
182664;29.87;30.39;106.50;3453;957.44;1;1.00;33.00;1.59;128.24;11.75
182883;29.87;30.42;84.97;3460;957.12;0;1.00;33.00;1.59;128.24;11.56
183101;29.87;30.42;78.11;3467;961.71;0;1.00;33.00;1.59;128.24;11.37
183320;29.94;30.42;112.88;3474;961.89;0;1.00;33.00;1.59;128.24;11.20
183539;29.94;30.42;107.90;3481;957.05;0;1.00;33.00;1.59;128.24;11.03
183759;30.00;30.42;144.45;3489;1094.09;0;1.00;33.00;1.59;128.24;10.88
183979;30.00;30.42;141.40;3496;952.61;0;1.00;33.00;1.59;128.24;10.74
184198;30.00;30.39;153.92;3503;957.30;0;1.00;33.00;1.59;128.24;10.60
184418;30.00;30.42;135.74;3510;1093.89;0;1.00;33.00;1.59;128.24;10.46
184638;30.07;30.42;173.81;3518;952.71;0;1.00;33.00;1.59;128.24;10.33
184858;30.00;30.39;146.44;3526;1093.89;0;1.00;33.00;1.59;128.24;10.20
185078;30.07;30.42;169.46;3534;1088.77;0;1.00;33.00;1.59;128.24;10.07
185298;30.27;30.42;213.56;3542;1088.61;1;1.00;33.00;1.59;128.24;10.02
185519;30.07;30.42;169.47;3550;1224.87;1;1.00;33.00;1.59;128.24;9.90
185738;30.07;30.42;167.69;3559;1230.72;0;1.00;33.00;1.59;128.24;9.78
185958;30.14;30.39;211.56;3568;1230.90;1;1.00;33.00;1.59;128.24;9.69
186177;30.14;30.42;196.98;3577;1230.58;0;1.00;33.00;1.59;128.24;9.59
186396;30.14;30.39;212.85;3587;1230.72;0;1.00;33.00;1.59;128.24;9.50
186616;30.14;30.42;198.07;3596;1367.52;0;1.00;33.00;1.59;128.24;9.40
186835;30.14;30.42;198.05;3606;1367.61;0;1.00;33.00;1.59;128.24;9.30
187054;30.27;30.42;241.93;3616;1367.66;1;1.00;33.00;1.59;128.24;9.25
187274;30.14;30.39;198.05;3627;1367.57;1;1.00;33.00;1.59;128.24;9.16
187493;30.00;30.42;154.18;3637;1504.27;1;1.00;33.00;1.59;128.24;9.02
187713;30.14;30.42;198.05;3648;1367.66;1;1.00;33.00;1.59;128.24;8.92
187932;30.07;30.42;155.76;3659;1504.27;0;1.00;33.00;1.59;128.24;8.80
188151;30.07;30.42;152.88;3669;1504.38;0;1.00;33.00;1.59;128.24;8.67
188371;30.07;30.42;149.88;3680;1367.66;0;1.00;33.00;1.59;128.24;8.55
188590;30.07;30.39;162.46;3690;1504.32;0;1.00;33.00;1.59;128.24;8.44
188809;30.00;30.42;118.58;3701;1367.57;1;1.00;33.00;1.59;128.24;8.29
189029;30.00;30.42;112.95;3712;1504.43;0;1.00;33.00;1.59;128.24;8.15
189248;30.00;30.42;107.16;3722;1367.61;0;1.00;33.00;1.59;128.24;8.00
189467;30.00;30.42;101.24;3732;1367.52;0;1.00;33.00;1.59;128.24;7.86
189687;30.00;30.42;95.16;3741;1367.57;0;1.00;33.00;1.59;128.24;7.71
189905;29.94;30.42;51.50;3751;1236.76;1;1.00;33.00;1.59;128.24;7.54
190124;29.94;30.42;42.87;3759;1236.58;0;1.00;33.00;1.59;128.24;7.37
190342;30.00;30.42;75.94;3768;1099.10;0;1.00;33.00;1.59;128.24;7.23
190560;29.94;30.42;32.27;3776;1236.54;1;1.00;33.00;1.59;128.24;7.06
190779;29.94;30.42;23.15;3784;961.89;0;1.00;33.00;1.59;128.24;6.89
190996;30.00;30.42;55.82;3791;1101.48;0;1.00;33.00;1.59;128.24;6.75
191215;30.00;30.42;48.64;3798;961.79;0;1.00;33.00;1.59;128.24;6.60
191433;30.00;30.42;41.32;3805;963.87;0;1.00;33.00;1.59;128.24;6.46
191651;30.00;30.42;33.85;3812;826.20;0;1.00;33.00;1.59;128.24;6.31
191868;30.07;30.42;68.24;3818;826.26;0;1.00;33.00;1.59;128.24;6.19
192086;30.07;30.42;62.75;3824;826.02;0;1.00;33.00;1.59;128.24;6.07
192304;30.14;30.42;99.22;3830;826.39;0;1.00;33.00;1.59;128.24;5.97
192522;30.14;30.39;111.57;3835;826.17;0;1.00;33.00;1.59;128.24;5.88
192740;30.14;30.42;93.11;3841;824.42;0;1.00;33.00;1.59;128.24;5.78
192958;30.14;30.42;89.47;3847;826.17;0;1.00;33.00;1.59;128.24;5.69
193176;30.27;30.42;133.04;3853;688.60;1;1.00;33.00;1.59;128.24;5.64
193394;30.27;30.42;133.77;3859;824.36;0;1.00;33.00;1.59;128.24;5.58
193613;30.27;30.42;134.45;3865;962.00;0;1.00;33.00;1.59;128.24;5.53
193831;30.27;30.42;135.08;3872;824.57;0;1.00;33.00;1.59;128.24;5.48
194049;30.34;30.42;177.76;3878;961.96;0;1.00;33.00;1.59;128.24;5.45
194268;30.27;30.42;138.48;3885;961.96;0;1.00;33.00;1.59;128.24;5.40
194486;30.34;30.42;181.06;3893;961.86;0;1.00;33.00;1.59;128.24;5.38
194704;30.41;30.42;224.73;3900;1099.22;1;1.00;33.00;1.59;128.24;5.37
194924;30.41;30.42;229.73;3908;957.37;0;1.00;33.00;1.59;128.24;5.37
195142;30.41;30.42;234.72;3916;1236.81;0;1.00;33.00;1.59;128.24;5.36
195361;30.41;30.42;239.70;3925;1093.93;0;1.00;33.00;1.59;128.24;5.36
195581;30.41;30.42;244.69;3934;1367.27;0;1.00;33.00;1.59;128.24;5.36
195800;30.41;30.42;249.66;3944;1230.85;0;1.00;33.00;1.59;128.24;5.35
196019;30.41;30.42;254.64;3954;1367.61;0;1.00;33.00;1.59;128.24;5.35
196239;30.34;30.39;233.35;3964;1504.38;0;1.00;33.00;1.59;128.24;5.33
196458;30.34;30.42;221.19;3975;1367.37;0;1.00;33.00;1.59;128.24;5.30
196678;30.34;30.42;223.85;3986;1504.16;0;1.00;33.00;1.59;128.24;5.27
196897;30.34;30.39;242.18;3997;1504.21;0;1.00;33.00;1.59;128.24;5.26
197116;30.34;30.42;229.94;4008;1640.90;0;1.00;33.00;1.59;128.24;5.23
197336;30.27;30.42;190.63;4020;1504.05;0;1.00;33.00;1.59;128.24;5.18
197555;30.27;30.42;190.91;4031;1640.78;0;1.00;33.00;1.59;128.24;5.13
197775;30.27;30.42;191.13;4043;1504.43;0;1.00;33.00;1.59;128.24;5.07
197994;30.21;30.42;149.42;4054;1641.02;0;1.00;33.00;1.59;128.24;5.00
198213;30.21;30.42;147.25;4066;1504.21;0;1.00;33.00;1.59;128.24;4.92
198433;30.21;30.42;145.01;4077;1504.54;0;1.00;33.00;1.59;128.24;4.85
198652;30.14;30.42;101.15;4088;1504.60;1;1.00;33.00;1.59;128.24;4.75
198871;30.14;30.42;96.48;4099;1504.27;0;1.00;33.00;1.59;128.24;4.65
199090;30.07;30.42;52.82;4109;1511.63;1;1.00;33.00;1.59;128.24;4.53
199308;30.07;30.42;45.67;4119;1236.69;0;1.00;33.00;1.59;128.24;4.41
199526;30.14;30.42;80.39;4128;1374.23;0;1.00;33.00;1.59;128.24;4.31
199745;30.07;30.42;36.72;4137;1236.72;1;1.00;33.00;1.59;128.24;4.19
199963;30.07;30.42;29.24;4146;1236.67;0;1.00;33.00;1.59;128.24;4.07
200181;30.07;30.42;21.63;4154;1099.51;0;1.00;33.00;1.59;128.24;3.95
200399;30.07;30.42;13.90;4162;1099.34;0;1.00;33.00;1.59;128.24;3.83
200618;30.07;30.42;6.05;4170;961.96;0;1.00;33.00;1.59;128.24;3.70
200836;30.07;30.42;0.00;4172;413.25;0;1.00;33.00;1.59;128.24;3.58
201053;30.07;30.42;0.00;4172;0.00;0;1.00;33.00;1.59;128.24;3.46
201271;30.07;30.42;0.00;4172;0.00;0;1.00;33.00;1.59;128.24;3.34
201488;30.14;30.42;33.79;4172;0.00;0;1.00;33.00;1.59;128.24;3.24
201706;30.07;30.42;0.00;4176;413.45;1;1.00;33.00;1.59;128.24;3.12
201924;30.14;30.42;33.53;4181;826.60;0;1.00;33.00;1.59;128.24;3.02
202142;30.14;30.42;27.13;4184;275.37;0;1.00;33.00;1.59;128.24;2.93
202360;30.21;30.42;62.71;4189;826.17;0;1.00;33.00;1.59;128.24;2.85
202577;30.21;30.42;58.40;4194;688.43;0;1.00;33.00;1.59;128.24;2.78
202795;30.27;30.42;96.17;4199;688.48;0;1.00;33.00;1.59;128.24;2.73
203013;30.27;30.42;93.99;4204;688.40;0;1.00;33.00;1.59;128.24;2.67
203231;30.34;30.42;133.94;4209;688.48;0;1.00;33.00;1.59;128.24;2.65
203449;30.34;30.42;133.94;4214;686.86;0;1.00;33.00;1.59;128.24;2.62
203668;30.41;30.42;176.06;4220;824.45;0;1.00;33.00;1.59;128.24;2.62
203886;30.55;30.42;219.74;4226;686.94;1;1.00;33.00;1.59;128.24;2.66
204105;30.48;30.42;184.32;4232;961.61;0;1.00;33.00;1.59;128.24;2.68
204323;30.48;30.42;188.89;4239;824.42;0;1.00;33.00;1.59;128.24;2.70
204541;30.48;30.42;193.48;4246;1099.34;0;1.00;33.00;1.59;128.24;2.72
204760;30.48;30.42;198.08;4254;957.44;0;1.00;33.00;1.59;128.24;2.74
204979;30.48;30.39;218.49;4262;1099.38;0;1.00;33.00;1.59;128.24;2.77
205198;30.48;30.42;208.29;4270;1230.76;0;1.00;33.00;1.59;128.24;2.79
205418;30.48;30.42;212.96;4279;1094.13;0;1.00;33.00;1.59;128.24;2.81
205637;30.48;30.42;217.65;4288;1367.52;0;1.00;33.00;1.59;128.24;2.83
205856;30.61;30.42;255.00;4297;1230.99;1;1.00;33.00;1.59;128.24;2.89
206076;30.48;30.39;211.12;4307;1367.47;1;1.00;33.00;1.59;128.24;2.92
206295;30.48;30.42;201.08;4317;1367.61;0;1.00;33.00;1.59;128.24;2.94
206514;30.48;30.42;205.91;4328;1367.57;0;1.00;33.00;1.59;128.24;2.96
206734;30.48;30.42;210.76;4338;1367.66;0;1.00;33.00;1.59;128.24;2.98
206953;30.41;30.42;173.63;4349;1504.32;0;1.00;33.00;1.59;128.24;2.98
207172;30.48;30.42;217.50;4359;1504.32;1;1.00;33.00;1.59;128.24;3.00
207392;30.34;30.42;173.63;4370;1367.47;1;1.00;33.00;1.59;128.24;2.97
207611;30.34;30.42;173.95;4381;1504.16;0;1.00;33.00;1.59;128.24;2.94
207831;30.34;30.42;174.25;4392;1504.27;0;1.00;33.00;1.59;128.24;2.91
208050;30.27;30.42;132.62;4402;1504.27;0;1.00;33.00;1.59;128.24;2.86
208269;30.27;30.42;130.58;4413;1504.10;0;1.00;33.00;1.59;128.24;2.81
208489;30.27;30.42;128.49;4424;1367.71;0;1.00;33.00;1.59;128.24;2.76
208708;30.21;30.42;84.62;4434;1367.57;1;1.00;33.00;1.59;128.24;2.68
208926;30.21;30.42;80.14;4444;1373.78;0;1.00;33.00;1.59;128.24;2.61
209145;30.21;30.42;75.58;4453;1374.18;0;1.00;33.00;1.59;128.24;2.54
209363;30.21;30.42;70.95;4463;1236.72;0;1.00;33.00;1.59;128.24;2.46
209581;30.21;30.42;66.25;4471;1236.67;0;1.00;33.00;1.59;128.24;2.39
209800;30.14;30.42;22.59;4480;1099.26;1;1.00;33.00;1.59;128.24;2.29
210018;30.21;30.42;57.44;4488;1099.10;0;1.00;33.00;1.59;128.24;2.21
210236;30.14;30.42;13.78;4496;1099.30;1;1.00;33.00;1.59;128.24;2.12
210455;30.21;30.42;48.47;4503;961.79;0;1.00;33.00;1.59;128.24;2.04
210673;30.21;30.42;43.34;4510;963.90;0;1.00;33.00;1.59;128.24;1.97
210890;30.21;30.42;38.15;4516;964.05;0;1.00;33.00;1.59;128.24;1.89
211108;30.21;30.42;32.88;4523;826.23;0;1.00;33.00;1.59;128.24;1.82
211326;30.21;30.42;27.53;4529;826.23;0;1.00;33.00;1.59;128.24;1.74
211544;30.27;30.42;64.27;4535;826.32;0;1.00;33.00;1.59;128.24;1.69
211762;30.21;30.39;34.71;4540;826.20;0;1.00;33.00;1.59;128.24;1.63
211980;30.21;30.42;14.22;4545;688.43;0;1.00;33.00;1.59;128.24;1.55
212198;30.27;30.42;50.76;4550;688.48;0;1.00;33.00;1.59;128.24;1.50
212415;30.27;30.42;47.36;4555;688.53;0;1.00;33.00;1.59;128.24;1.45
212633;30.34;30.42;86.09;4560;688.58;0;1.00;33.00;1.59;128.24;1.42
212851;30.41;30.42;127.10;4564;550.82;0;1.00;33.00;1.59;128.24;1.42
213070;30.48;30.42;170.32;4569;686.99;0;1.00;33.00;1.59;128.24;1.44
213288;30.48;30.42;173.65;4574;686.96;0;1.00;33.00;1.59;128.24;1.46
213506;30.48;30.42;177.00;4580;687.09;0;1.00;33.00;1.59;128.24;1.48
213725;30.48;30.39;196.14;4586;824.36;0;1.00;33.00;1.59;128.24;1.51
213943;30.48;30.42;184.61;4592;961.71;0;1.00;33.00;1.59;128.24;1.53
214161;30.61;30.39;228.28;4599;961.68;1;1.00;33.00;1.59;128.24;1.60
214380;30.55;30.42;184.61;4607;961.64;1;1.00;33.00;1.59;128.24;1.65
214598;30.61;30.42;228.28;4615;1099.06;1;1.00;33.00;1.59;128.24;1.71
214817;30.61;30.42;236.42;4623;1230.58;0;1.00;33.00;1.59;128.24;1.78
215037;30.61;30.42;244.63;4632;1094.09;0;1.00;33.00;1.59;128.24;1.85
215256;30.61;30.42;252.91;4641;1230.85;0;1.00;33.00;1.59;128.24;1.91
215475;30.61;30.42;255.00;4651;1367.76;0;1.00;33.00;1.59;128.24;1.98
215695;30.61;30.42;255.00;4661;1367.52;0;1.00;33.00;1.59;128.24;2.05
215914;30.55;30.42;221.37;4671;1367.52;0;1.00;33.00;1.59;128.24;2.09
216134;30.55;30.42;227.62;4682;1504.21;0;1.00;33.00;1.59;128.24;2.14
216353;30.55;30.42;233.92;4693;1504.71;0;1.00;33.00;1.59;128.24;2.18
216572;30.48;30.42;198.20;4704;1504.38;0;1.00;33.00;1.59;128.24;2.20
216792;30.48;30.42;202.29;4715;1504.16;0;1.00;33.00;1.59;128.24;2.22
217011;30.48;30.42;206.40;4726;1504.49;0;1.00;33.00;1.59;128.24;2.24
217230;30.41;30.42;168.52;4737;1641.20;0;1.00;33.00;1.59;128.24;2.23
217450;30.34;30.42;128.43;4749;1504.21;0;1.00;33.00;1.59;128.24;2.21
217669;30.34;30.42;127.99;4760;1504.27;0;1.00;33.00;1.59;128.24;2.18
217888;30.27;30.42;85.62;4771;1504.49;0;1.00;33.00;1.59;128.24;2.13
218107;30.27;30.42;82.85;4781;1511.49;0;1.00;33.00;1.59;128.24;2.08
218325;30.27;30.42;80.02;4791;1374.33;0;1.00;33.00;1.59;128.24;2.03
218543;30.27;30.42;77.14;4801;1236.94;0;1.00;33.00;1.59;128.24;1.97
218762;30.21;30.42;33.48;4810;1374.28;1;1.00;33.00;1.59;128.24;1.90
218980;30.21;30.42;28.22;4820;1374.03;0;1.00;33.00;1.59;128.24;1.83
219198;30.21;30.42;22.88;4829;1099.42;0;1.00;33.00;1.59;128.24;1.75
219417;30.21;30.39;33.24;4837;1099.26;0;1.00;33.00;1.59;128.24;1.69
219635;30.21;30.42;12.84;4844;1099.18;0;1.00;33.00;1.59;128.24;1.61
219853;30.21;30.42;7.29;4851;961.75;0;1.00;33.00;1.59;128.24;1.54
220071;30.21;30.39;17.47;4854;413.15;0;1.00;33.00;1.59;128.24;1.47
220289;30.14;30.42;0.00;4858;413.06;1;1.00;33.00;1.59;128.24;1.37
220507;30.21;30.42;34.05;4863;826.57;0;1.00;33.00;1.59;128.24;1.30
220725;30.21;30.42;28.19;4867;413.06;0;1.00;33.00;1.59;128.24;1.22
220943;30.27;30.42;64.40;4872;826.14;0;1.00;33.00;1.59;128.24;1.17
221160;30.27;30.42;60.67;4878;688.43;0;1.00;33.00;1.59;128.24;1.12
221378;30.27;30.42;56.89;4883;826.17;0;1.00;33.00;1.59;128.24;1.07
221596;30.34;30.42;95.23;4888;688.40;0;1.00;33.00;1.59;128.24;1.04
221814;30.34;30.42;93.63;4893;688.43;0;1.00;33.00;1.59;128.24;1.02
222032;30.41;30.42;134.23;4899;688.50;0;1.00;33.00;1.59;128.24;1.01
222250;30.41;30.42;134.87;4904;824.42;0;1.00;33.00;1.59;128.24;1.01
222469;30.41;30.42;135.50;4910;687.14;0;1.00;33.00;1.59;128.24;1.00
222687;30.48;30.42;178.31;4916;824.51;0;1.00;33.00;1.59;128.24;1.02
222905;30.48;30.42;181.22;4922;824.39;0;1.00;33.00;1.59;128.24;1.04
223124;30.48;30.42;184.16;4929;962.03;0;1.00;33.00;1.59;128.24;1.06
223342;30.48;30.42;187.11;4936;962.00;0;1.00;33.00;1.59;128.24;1.08
223560;30.55;30.42;230.77;4943;1099.42;1;1.00;33.00;1.59;128.24;1.13
223780;30.55;30.42;236.05;4951;1093.85;0;1.00;33.00;1.59;128.24;1.17
223999;30.61;30.42;255.00;4959;1094.17;1;1.00;33.00;1.59;128.24;1.24
224218;30.55;30.42;220.56;4968;1230.85;0;1.00;33.00;1.59;128.24;1.28
224438;30.55;30.42;226.00;4978;1230.85;0;1.00;33.00;1.59;128.24;1.32
224657;30.48;30.42;189.42;4987;1367.66;0;1.00;33.00;1.59;128.24;1.34
224876;30.55;30.42;233.30;4997;1230.81;1;1.00;33.00;1.59;128.24;1.39
225096;30.55;30.42;238.84;5007;1504.16;0;1.00;33.00;1.59;128.24;1.43
225315;30.48;30.42;202.38;5017;1367.66;0;1.00;33.00;1.59;128.24;1.45
225535;30.48;30.42;205.72;5028;1367.37;0;1.00;33.00;1.59;128.24;1.47
225754;30.41;30.42;167.08;5039;1504.21;0;1.00;33.00;1.59;128.24;1.47
225973;30.41;30.42;168.17;5049;1504.10;0;1.00;33.00;1.59;128.24;1.46
226193;30.41;30.39;184.96;5060;1504.43;0;1.00;33.00;1.59;128.24;1.47
226412;30.34;30.42;141.08;5071;1367.37;1;1.00;33.00;1.59;128.24;1.44
226631;30.34;30.42;139.88;5082;1504.05;0;1.00;33.00;1.59;128.24;1.41
226851;30.27;30.42;96.75;5092;1367.52;0;1.00;33.00;1.59;128.24;1.36
227069;30.27;30.42;93.21;5102;1511.27;0;1.00;33.00;1.59;128.24;1.31
227288;30.21;30.42;49.54;5112;1373.98;1;1.00;33.00;1.59;128.24;1.24
227506;30.27;30.42;85.67;5122;1236.35;0;1.00;33.00;1.59;128.24;1.18
227724;30.27;30.42;81.95;5131;1236.44;0;1.00;33.00;1.59;128.24;1.13
227943;30.27;30.42;78.18;5140;1236.72;0;1.00;33.00;1.59;128.24;1.08
228161;30.21;30.42;34.51;5148;1236.72;1;1.00;33.00;1.59;128.24;1.01
228379;30.21;30.42;28.36;5156;1099.30;0;1.00;33.00;1.59;128.24;0.93
228598;30.14;30.42;0.00;5164;962.00;1;1.00;33.00;1.59;128.24;0.83
228815;30.21;30.39;43.56;5167;551.00;1;1.00;33.00;1.59;128.24;0.77
229033;30.21;30.42;22.20;5172;688.45;0;1.00;33.00;1.59;128.24;0.69
229251;30.14;30.42;0.00;5179;826.23;1;1.00;33.00;1.59;128.24;0.60
229469;30.21;30.42;33.27;5181;413.27;0;1.00;33.00;1.59;128.24;0.52
229687;30.21;30.39;42.44;5185;550.82;0;1.00;33.00;1.59;128.24;0.46
229905;30.21;30.42;20.77;5191;688.53;0;1.00;33.00;1.59;128.24;0.38
230122;30.27;30.42;56.15;5196;826.17;0;1.00;33.00;1.59;128.24;0.33
230340;30.27;30.42;51.57;5201;688.50;0;1.00;33.00;1.59;128.24;0.28
230558;30.27;30.42;46.95;5206;688.63;0;1.00;33.00;1.59;128.24;0.23
230776;30.34;30.42;84.45;5211;688.55;0;1.00;33.00;1.59;128.24;0.20
230994;30.34;30.42;82.01;5216;688.48;0;1.00;33.00;1.59;128.24;0.17
231212;30.41;30.42;121.79;5221;688.65;0;1.00;33.00;1.59;128.24;0.17
231430;30.41;30.42;121.58;5226;686.94;0;1.00;33.00;1.59;128.24;0.17
231648;30.41;30.39;137.14;5231;687.04;0;1.00;33.00;1.59;128.24;0.17
231867;30.48;30.42;164.19;5237;686.96;0;1.00;33.00;1.59;128.24;0.19
232085;30.48;30.42;166.27;5243;824.27;0;1.00;33.00;1.59;128.24;0.21
232303;30.55;30.42;209.94;5249;824.36;1;1.00;33.00;1.59;128.24;0.25
232522;30.55;30.42;214.35;5256;961.61;0;1.00;33.00;1.59;128.24;0.30
232740;30.55;30.39;234.59;5263;961.96;0;1.00;33.00;1.59;128.24;0.35
232958;30.61;30.39;255.00;5270;1099.14;1;1.00;33.00;1.59;128.24;0.43
233178;30.61;30.42;247.00;5279;1093.89;0;1.00;33.00;1.59;128.24;0.49
233397;30.61;30.42;253.92;5288;1230.72;0;1.00;33.00;1.59;128.24;0.56
233617;30.61;30.42;255.00;5297;1230.90;0;1.00;33.00;1.59;128.24;0.63
233836;30.61;30.42;255.00;5307;1367.57;0;1.00;33.00;1.59;128.24;0.69
234055;30.55;30.42;220.02;5317;1367.57;0;1.00;33.00;1.59;128.24;0.74
234275;30.55;30.42;224.91;5327;1504.32;0;1.00;33.00;1.59;128.24;0.78
234494;30.55;30.42;229.85;5338;1367.81;0;1.00;33.00;1.59;128.24;0.83
234713;30.48;30.42;192.78;5349;1504.38;0;1.00;33.00;1.59;128.24;0.84
234933;30.41;30.42;153.52;5360;1504.27;0;1.00;33.00;1.59;128.24;0.84
235152;30.41;30.42;153.99;5371;1504.21;0;1.00;33.00;1.59;128.24;0.84
235371;30.41;30.42;154.45;5382;1504.49;0;1.00;33.00;1.59;128.24;0.83
235591;30.41;30.42;154.90;5393;1504.54;0;1.00;33.00;1.59;128.24;0.83
235810;30.27;30.42;111.03;5403;1504.32;1;1.00;33.00;1.59;128.24;0.78
236030;30.34;30.42;148.80;5414;1367.47;0;1.00;33.00;1.59;128.24;0.75
236249;30.34;30.42;146.91;5424;1367.52;0;1.00;33.00;1.59;128.24;0.72
236468;30.27;30.42;103.08;5434;1367.76;0;1.00;33.00;1.59;128.24;0.67
236688;30.27;30.42;98.85;5444;1367.57;0;1.00;33.00;1.59;128.24;0.62
236906;30.21;30.39;68.27;5454;1374.28;0;1.00;33.00;1.59;128.24;0.55
237124;30.27;30.42;88.80;5463;1236.49;0;1.00;33.00;1.59;128.24;0.50
237343;30.21;30.42;45.13;5472;1236.54;1;1.00;33.00;1.59;128.24;0.43
237561;30.21;30.42;38.39;5480;1236.63;0;1.00;33.00;1.59;128.24;0.35
237779;30.21;30.42;31.58;5489;1099.22;0;1.00;33.00;1.59;128.24;0.28
237998;30.21;30.42;24.70;5496;1099.30;0;1.00;33.00;1.59;128.24;0.20
238216;30.21;30.42;17.74;5504;961.79;0;1.00;33.00;1.59;128.24;0.13
238434;30.21;30.42;10.70;5511;963.80;0;1.00;33.00;1.59;128.24;0.06
238652;30.21;30.42;3.60;5517;963.97;0;1.00;33.00;1.59;128.24;-0.02
238869;30.21;30.42;0.00;5520;413.19;0;1.00;33.00;1.59;128.24;-0.09
239087;30.21;30.42;0.00;5520;0.00;0;1.00;33.00;1.59;128.24;-0.17
239305;30.21;30.42;0.00;5520;0.00;0;1.00;33.00;1.59;128.24;-0.24
239522;30.27;30.42;34.81;5520;0.00;0;1.00;33.00;1.59;128.24;-0.29
239740;30.27;30.42;29.61;5523;413.44;0;1.00;33.00;1.59;128.24;-0.34
239958;30.27;30.42;24.37;5529;687.12;0;1.00;33.00;1.59;128.24;-0.39
240177;30.27;30.42;19.07;5534;687.01;0;1.00;33.00;1.59;128.24;-0.45
240395;30.34;30.42;55.81;5538;687.01;0;1.00;33.00;1.59;128.24;-0.47
240613;30.34;30.42;52.69;5543;686.99;0;1.00;33.00;1.59;128.24;-0.50
240832;30.41;30.42;91.71;5547;549.73;0;1.00;33.00;1.59;128.24;-0.50
241050;30.48;30.42;133.00;5552;686.96;0;1.00;33.00;1.59;128.24;-0.48
241269;30.48;30.42;134.41;5556;546.95;0;1.00;33.00;1.59;128.24;-0.47
241489;30.55;30.42;177.89;5561;683.86;0;1.00;33.00;1.59;128.24;-0.42
241708;30.55;30.42;181.62;5567;683.76;0;1.00;33.00;1.59;128.24;-0.38
241927;30.61;30.42;225.49;5573;820.66;1;1.00;33.00;1.59;128.24;-0.31
242147;30.61;30.42;231.61;5579;957.37;0;1.00;33.00;1.59;128.24;-0.24
242366;30.68;30.39;255.00;5586;957.44;1;1.00;33.00;1.59;128.24;-0.14
242585;30.68;30.42;248.71;5594;957.23;0;1.00;33.00;1.59;128.24;-0.05
242805;30.68;30.42;255.00;5602;1094.09;0;1.00;33.00;1.59;128.24;0.04
243024;30.68;30.42;255.00;5610;1231.03;0;1.00;33.00;1.59;128.24;0.13
243244;30.61;30.42;221.69;5620;1230.85;0;1.00;33.00;1.59;128.24;0.20
243463;30.68;30.42;255.00;5629;1367.42;1;1.00;33.00;1.59;128.24;0.29
243682;30.68;30.42;255.00;5639;1367.47;0;1.00;33.00;1.59;128.24;0.38
243902;30.61;30.42;221.94;5650;1367.57;0;1.00;33.00;1.59;128.24;0.45
244121;30.61;30.42;228.82;5660;1504.05;0;1.00;33.00;1.59;128.24;0.51
244341;30.55;30.42;193.66;5671;1367.37;0;1.00;33.00;1.59;128.24;0.56
244560;30.55;30.39;214.07;5682;1504.16;0;1.00;33.00;1.59;128.24;0.61
244779;30.55;30.42;203.99;5693;1640.84;0;1.00;33.00;1.59;128.24;0.65
244999;30.48;30.42;166.75;5704;1504.10;0;1.00;33.00;1.59;128.24;0.67
245218;30.41;30.42;127.32;5716;1504.05;0;1.00;33.00;1.59;128.24;0.67
245437;30.48;30.39;171.21;5727;1504.05;1;1.00;33.00;1.59;128.24;0.70
245657;30.41;30.42;127.33;5738;1504.27;1;1.00;33.00;1.59;128.24;0.69
245876;30.34;30.42;85.69;5748;1504.16;0;1.00;33.00;1.59;128.24;0.67
246095;30.34;30.42;83.72;5759;1373.78;0;1.00;33.00;1.59;128.24;0.64
246313;30.34;30.39;97.49;5769;1374.28;0;1.00;33.00;1.59;128.24;0.62
246531;30.27;30.42;53.83;5778;1374.18;1;1.00;33.00;1.59;128.24;0.57
246750;30.27;30.42;49.49;5788;1236.67;0;1.00;33.00;1.59;128.24;0.52
246968;30.34;30.42;87.20;5797;1236.63;0;1.00;33.00;1.59;128.24;0.49
247186;30.27;30.42;43.53;5805;1099.22;1;1.00;33.00;1.59;128.24;0.44
247405;30.21;30.42;0.00;5813;1236.67;1;1.00;33.00;1.59;128.24;0.36
247622;30.21;30.42;0.00;5818;688.55;0;1.00;33.00;1.59;128.24;0.29
247840;30.27;30.42;35.31;5818;0.00;0;1.00;33.00;1.59;128.24;0.24
248058;30.21;30.39;4.28;5822;551.19;0;1.00;33.00;1.59;128.24;0.17
248276;30.27;30.39;40.30;5828;826.26;0;1.00;33.00;1.59;128.24;0.13
248494;30.27;30.42;20.57;5832;550.80;0;1.00;33.00;1.59;128.24;0.08
248711;30.27;30.42;15.74;5839;826.23;0;1.00;33.00;1.59;128.24;0.03
248929;30.27;30.42;10.87;5844;826.32;0;1.00;33.00;1.59;128.24;-0.02
249148;30.34;30.42;48.04;5850;824.60;0;1.00;33.00;1.59;128.24;-0.05
249366;30.34;30.42;45.35;5855;686.91;0;1.00;33.00;1.59;128.24;-0.08
249584;30.34;30.42;42.63;5860;686.99;0;1.00;33.00;1.59;128.24;-0.10
249803;30.34;30.42;39.88;5865;687.06;0;1.00;33.00;1.59;128.24;-0.13
250021;30.41;30.42;79.26;5870;687.04;0;1.00;33.00;1.59;128.24;-0.14
250239;30.48;30.42;120.92;5874;549.55;0;1.00;33.00;1.59;128.24;-0.12
250459;30.41;30.39;96.41;5879;683.67;0;1.00;33.00;1.59;128.24;-0.11
250677;30.48;30.42;123.17;5884;686.90;0;1.00;33.00;1.59;128.24;-0.09
250896;30.55;30.42;167.01;5889;683.68;0;1.00;33.00;1.59;128.24;-0.05
251116;30.55;30.42;171.12;5894;683.71;0;1.00;33.00;1.59;128.24;-0.00
