time;temp;target;level;fancount;rpm;limited_change;period;K_p;K_i;K_d;integral
43;29.20;29.43;0.00;3;3007.22;1;1.00;33.00;3.18;85.49;-0.02
306;29.20;29.43;0.00;19;1708.17;0;1.00;33.00;3.18;85.49;-0.22
524;29.13;29.43;0.00;31;1654.84;0;1.00;33.00;3.18;85.49;-0.42
741;29.13;29.43;0.00;43;1792.35;0;1.00;33.00;3.18;85.49;-0.63
959;29.13;29.43;0.00;55;1516.93;0;1.00;33.00;3.18;85.49;-0.84
1176;29.13;29.43;0.00;59;689.44;0;1.00;33.00;3.18;85.49;-1.04
1394;29.06;29.43;0.00;59;0.00;0;1.00;33.00;3.18;85.49;-1.29
1611;29.06;29.43;0.00;59;0.00;0;1.00;33.00;3.18;85.49;-1.55
1829;29.06;29.43;0.00;59;0.00;0;1.00;33.00;3.18;85.49;-1.80
2046;29.06;29.43;0.00;59;0.00;0;1.00;33.00;3.18;85.49;-2.05
2263;29.06;29.43;0.00;59;0.00;0;1.00;33.00;3.18;85.49;-2.30
2481;29.00;29.43;0.00;59;0.00;0;1.00;33.00;3.18;85.49;-2.60
2698;29.06;29.43;11.27;59;0.00;0;1.00;33.00;3.18;85.49;-2.85
2916;29.06;29.43;0.00;59;0.00;0;1.00;33.00;3.18;85.49;-3.11
3133;29.06;29.43;0.00;59;0.00;0;1.00;33.00;3.18;85.49;-3.36
3350;29.13;29.43;12.80;59;0.00;0;1.00;33.00;3.18;85.49;-3.56
3568;29.13;29.43;0.00;59;0.00;0;1.00;33.00;3.18;85.49;-3.77
3785;29.20;29.43;14.66;59;0.00;0;1.00;33.00;3.18;85.49;-3.93
4003;29.20;29.43;2.93;63;413.86;0;1.00;33.00;3.18;85.49;-4.09
4220;29.20;29.43;0.00;68;827.27;0;1.00;33.00;3.18;85.49;-4.25
4438;29.20;29.43;0.00;68;0.00;0;1.00;33.00;3.18;85.49;-4.41
4655;29.26;29.43;16.29;68;0.00;0;1.00;33.00;3.18;85.49;-4.52
4873;29.26;29.43;6.22;72;413.85;0;1.00;33.00;3.18;85.49;-4.64
5090;29.33;29.43;24.51;77;827.30;0;1.00;33.00;3.18;85.49;-4.71
5308;29.40;29.43;45.01;80;413.42;0;1.00;33.00;3.18;85.49;-4.73
5525;29.46;29.43;67.78;85;689.19;0;1.00;33.00;3.18;85.49;-4.70
5743;29.46;29.43;64.28;90;551.25;0;1.00;33.00;3.18;85.49;-4.68
5961;29.53;29.43;89.38;94;689.24;0;1.00;33.00;3.18;85.49;-4.61
6178;29.53;29.43;88.23;99;689.03;0;1.00;33.00;3.18;85.49;-4.54
6396;29.60;29.43;115.76;104;689.29;0;1.00;33.00;3.18;85.49;-4.42
6614;29.67;29.43;145.68;109;688.86;0;1.00;33.00;3.18;85.49;-4.26
6832;29.67;29.45;138.57;114;688.86;0;1.00;33.00;3.18;85.49;-4.11
7049;29.73;29.43;181.05;120;826.57;0;1.00;33.00;3.18;85.49;-3.90
7267;29.73;29.43;187.40;126;826.66;0;1.00;33.00;3.18;85.49;-3.69
7485;29.80;29.43;222.65;133;826.87;0;1.00;33.00;3.18;85.49;-3.43
7703;29.87;29.43;255.00;140;964.44;0;1.00;33.00;3.18;85.49;-3.13
7920;29.87;29.43;255.00;147;1102.13;0;1.00;33.00;3.18;85.49;-2.82
8138;29.87;29.43;255.00;155;1102.25;0;1.00;33.00;3.18;85.49;-2.52
8356;29.94;29.45;255.00;164;1239.94;0;1.00;33.00;3.18;85.49;-2.19
8574;29.94;29.43;255.00;173;1239.90;0;1.00;33.00;3.18;85.49;-1.84
8791;29.94;29.43;255.00;183;1239.81;0;1.00;33.00;3.18;85.49;-1.49
9015;29.94;29.43;255.00;193;1377.66;0;1.00;33.00;3.18;85.49;-1.13
9233;29.94;29.45;255.00;204;1472.85;0;1.00;33.00;3.18;85.49;-0.79
9451;29.94;29.43;255.00;215;1515.32;0;1.00;33.00;3.18;85.49;-0.44
9669;29.94;29.43;255.00;226;1515.21;0;1.00;33.00;3.18;85.49;-0.09
9886;29.87;29.43;243.23;237;1515.54;0;1.00;33.00;3.18;85.49;0.21
10104;29.87;29.43;255.00;249;1653.01;0;1.00;33.00;3.18;85.49;0.52
10322;29.87;29.45;255.00;261;1653.01;0;1.00;33.00;3.18;85.49;0.80
10540;29.87;29.45;255.00;273;1652.77;0;1.00;33.00;3.18;85.49;1.09
10758;29.80;29.43;252.15;285;1653.01;0;1.00;33.00;3.18;85.49;1.35
10975;29.80;29.45;255.00;297;1652.65;0;1.00;33.00;3.18;85.49;1.59
11193;29.73;29.43;250.40;310;1790.24;0;1.00;33.00;3.18;85.49;1.80
11411;29.73;29.45;251.61;322;1652.65;0;1.00;33.00;3.18;85.49;1.99
11629;29.67;29.43;245.19;335;1790.24;0;1.00;33.00;3.18;85.49;2.15
11847;29.67;29.43;255.00;348;1790.11;0;1.00;33.00;3.18;85.49;2.32
12065;29.60;29.43;236.69;361;1790.44;0;1.00;33.00;3.18;85.49;2.44
12283;29.53;29.43;216.27;374;1790.30;0;1.00;33.00;3.18;85.49;2.51
12500;29.60;29.43;250.81;386;1790.50;0;1.00;33.00;3.18;85.49;2.62
12718;29.53;29.43;230.59;399;1790.24;0;1.00;33.00;3.18;85.49;2.69
12936;29.46;29.45;197.37;412;1652.65;0;1.00;33.00;3.18;85.49;2.70
13154;29.46;29.43;211.25;425;1790.24;0;1.00;33.00;3.18;85.49;2.73
13372;29.46;29.45;204.35;438;1790.44;0;1.00;33.00;3.18;85.49;2.73
13590;29.40;29.43;189.73;451;1790.37;0;1.00;33.00;3.18;85.49;2.71
13807;29.40;29.43;191.39;463;1652.53;0;1.00;33.00;3.18;85.49;2.69
14025;29.33;29.43;164.53;475;1790.50;0;1.00;33.00;3.18;85.49;2.62
14243;29.26;29.43;135.40;488;1652.47;0;1.00;33.00;3.18;85.49;2.51
14461;29.33;29.43;160.81;500;1652.65;0;1.00;33.00;3.18;85.49;2.44
14679;29.26;29.43;131.49;511;1652.71;0;1.00;33.00;3.18;85.49;2.33
14897;29.26;29.43;128.26;523;1514.87;0;1.00;33.00;3.18;85.49;2.21
15114;29.20;29.43;96.47;534;1515.04;0;1.00;33.00;3.18;85.49;2.05
15332;29.20;29.43;90.72;544;1515.21;0;1.00;33.00;3.18;85.49;1.89
15550;29.20;29.43;84.81;555;1377.61;0;1.00;33.00;3.18;85.49;1.73
15768;29.26;29.43;107.19;565;1377.61;0;1.00;33.00;3.18;85.49;1.62
15986;29.20;29.43;74.81;574;1376.90;0;1.00;33.00;3.18;85.49;1.46
16203;29.26;29.43;96.91;584;1239.58;0;1.00;33.00;3.18;85.49;1.34
16421;29.20;29.45;53.42;592;1239.71;0;1.00;33.00;3.18;85.49;1.16
16639;29.20;29.45;45.93;601;1239.71;0;1.00;33.00;3.18;85.49;0.99
16857;29.20;29.43;49.09;609;1102.17;0;1.00;33.00;3.18;85.49;0.83
17074;29.20;29.45;31.28;617;1102.05;0;1.00;33.00;3.18;85.49;0.65
17292;29.26;29.43;62.55;625;964.33;0;1.00;33.00;3.18;85.49;0.53
17510;29.26;29.43;57.53;632;1102.05;0;1.00;33.00;3.18;85.49;0.42
17728;29.26;29.45;41.56;639;964.44;0;1.00;33.00;3.18;85.49;0.29
17946;29.26;29.43;46.27;646;826.63;0;1.00;33.00;3.18;85.49;0.17
18163;29.33;29.43;69.35;652;964.33;0;1.00;33.00;3.18;85.49;0.11
18381;29.33;29.45;55.32;658;826.66;0;1.00;33.00;3.18;85.49;0.02
18599;29.40;29.43;90.52;664;826.72;0;1.00;33.00;3.18;85.49;-0.00
18816;29.40;29.43;89.47;670;826.75;0;1.00;33.00;3.18;85.49;-0.02
19034;29.40;29.43;88.40;676;688.96;0;1.00;33.00;3.18;85.49;-0.04
19252;29.46;29.45;105.01;682;826.81;0;1.00;33.00;3.18;85.49;-0.04
19470;29.53;29.43;144.71;687;826.51;0;1.00;33.00;3.18;85.49;0.03
19687;29.53;29.43;148.20;694;826.45;0;1.00;33.00;3.18;85.49;0.10
19905;29.53;29.43;151.77;700;964.29;0;1.00;33.00;3.18;85.49;0.18
20123;29.60;29.43;183.99;707;826.57;0;1.00;33.00;3.18;85.49;0.29
20341;29.60;29.43;190.00;714;964.29;0;1.00;33.00;3.18;85.49;0.41
20559;29.60;29.43;196.13;721;1102.13;0;1.00;33.00;3.18;85.49;0.53
20776;29.60;29.43;202.38;729;964.08;0;1.00;33.00;3.18;85.49;0.65
20994;29.80;29.43;245.93;737;1240.03;1;1.00;33.00;3.18;85.49;0.90
21212;29.67;29.45;202.37;746;1101.97;1;1.00;33.00;3.18;85.49;1.05
21430;29.67;29.43;221.37;755;1239.53;0;1.00;33.00;3.18;85.49;1.21
21648;29.73;29.43;255.00;764;1239.31;0;1.00;33.00;3.18;85.49;1.42
21865;29.73;29.43;255.00;774;1377.11;0;1.00;33.00;3.18;85.49;1.64
22083;29.73;29.43;255.00;784;1377.36;0;1.00;33.00;3.18;85.49;1.85
22301;29.73;29.43;255.00;794;1515.10;0;1.00;33.00;3.18;85.49;2.06
22519;29.73;29.43;255.00;805;1515.15;0;1.00;33.00;3.18;85.49;2.27
22737;29.67;29.43;238.88;816;1515.15;0;1.00;33.00;3.18;85.49;2.43
22955;29.67;29.43;249.30;828;1514.60;0;1.00;33.00;3.18;85.49;2.60
23172;29.67;29.43;255.00;839;1652.77;0;1.00;33.00;3.18;85.49;2.76
23390;29.67;29.43;255.00;851;1514.93;0;1.00;33.00;3.18;85.49;2.92
23608;29.67;29.43;255.00;863;1652.95;0;1.00;33.00;3.18;85.49;3.09
23826;29.60;29.43;237.45;875;1790.70;0;1.00;33.00;3.18;85.49;3.21
24044;29.60;29.45;235.55;888;1652.53;0;1.00;33.00;3.18;85.49;3.31
24261;29.60;29.43;254.55;900;1652.41;0;1.00;33.00;3.18;85.49;3.42
24479;29.53;29.43;235.12;912;1790.37;0;1.00;33.00;3.18;85.49;3.49
24697;29.46;29.43;213.53;925;1652.59;0;1.00;33.00;3.18;85.49;3.52
24915;29.60;29.43;255.00;938;1790.24;1;1.00;33.00;3.18;85.49;3.64
25133;29.46;29.43;211.44;950;1652.83;1;1.00;33.00;3.18;85.49;3.66
25351;29.40;29.43;187.77;963;1790.50;0;1.00;33.00;3.18;85.49;3.64
25568;29.40;29.43;190.36;975;1790.30;0;1.00;33.00;3.18;85.49;3.62
25786;29.40;29.43;192.92;988;1652.83;0;1.00;33.00;3.18;85.49;3.60
26004;29.46;29.45;213.18;1000;1652.95;0;1.00;33.00;3.18;85.49;3.60
26222;29.33;29.45;169.60;1012;1652.41;1;1.00;33.00;3.18;85.49;3.52
26440;29.26;29.43;151.34;1024;1789.91;0;1.00;33.00;3.18;85.49;3.40
26658;29.53;29.43;194.92;1036;1652.22;1;1.00;33.00;3.18;85.49;3.48
26876;29.26;29.43;151.34;1048;1514.71;1;1.00;33.00;3.18;85.49;3.36
27094;29.20;29.43;120.72;1059;1652.10;0;1.00;33.00;3.18;85.49;3.20
27311;29.20;29.45;105.29;1071;1514.48;0;1.00;33.00;3.18;85.49;3.02
27529;29.26;29.45;128.09;1082;1514.65;0;1.00;33.00;3.18;85.49;2.89
27747;29.20;29.45;96.13;1092;1514.65;0;1.00;33.00;3.18;85.49;2.71
27965;29.20;29.43;101.01;1103;1376.96;0;1.00;33.00;3.18;85.49;2.55
28183;29.20;29.43;95.76;1112;1376.85;0;1.00;33.00;3.18;85.49;2.39
28401;29.13;29.43;61.93;1122;1239.53;0;1.00;33.00;3.18;85.49;2.18
28619;29.20;29.43;82.48;1131;1377.11;0;1.00;33.00;3.18;85.49;2.02
28836;29.20;29.45;65.88;1140;1101.65;0;1.00;33.00;3.18;85.49;1.85
29054;29.20;29.43;69.89;1149;1239.35;0;1.00;33.00;3.18;85.49;1.69
29272;29.20;29.43;63.77;1157;1101.60;0;1.00;33.00;3.18;85.49;1.53
29490;29.20;29.43;57.50;1165;1101.97;0;1.00;33.00;3.18;85.49;1.37
29708;29.20;29.43;51.06;1172;1101.93;0;1.00;33.00;3.18;85.49;1.20
29926;29.26;29.43;72.91;1179;964.19;0;1.00;33.00;3.18;85.49;1.09
30143;29.26;29.43;68.44;1186;964.12;0;1.00;33.00;3.18;85.49;0.98
30361;29.26;29.43;63.87;1193;964.40;0;1.00;33.00;3.18;85.49;0.86
30579;29.26;29.43;59.17;1200;826.60;0;1.00;33.00;3.18;85.49;0.75
30797;29.33;29.45;72.00;1206;964.33;0;1.00;33.00;3.18;85.49;0.66
31014;29.33;29.45;68.50;1212;826.57;0;1.00;33.00;3.18;85.49;0.58
31232;29.33;29.43;75.75;1218;826.60;0;1.00;33.00;3.18;85.49;0.51
31450;29.40;29.45;90.62;1224;826.48;0;1.00;33.00;3.18;85.49;0.47
31668;29.40;29.43;100.02;1230;826.54;0;1.00;33.00;3.18;85.49;0.45
31886;29.46;29.45;117.12;1236;688.65;0;1.00;33.00;3.18;85.49;0.46
32103;29.46;29.45;117.92;1242;826.36;0;1.00;33.00;3.18;85.49;0.46
32321;29.53;29.43;158.11;1248;964.19;0;1.00;33.00;3.18;85.49;0.53
32539;29.53;29.43;162.11;1254;826.39;0;1.00;33.00;3.18;85.49;0.60
32757;29.60;29.40;205.58;1261;964.15;0;1.00;33.00;3.18;85.49;0.74
32975;29.60;29.43;202.07;1268;964.01;0;1.00;33.00;3.18;85.49;0.86
33192;29.67;29.43;237.26;1276;964.08;0;1.00;33.00;3.18;85.49;1.02
33410;29.67;29.43;246.26;1284;1101.73;0;1.00;33.00;3.18;85.49;1.19
33628;29.67;29.45;244.60;1292;1239.26;0;1.00;33.00;3.18;85.49;1.33
33846;29.33;29.43;201.02;1301;1239.17;1;1.00;33.00;3.18;85.49;1.26
34064;29.67;29.43;244.60;1311;1239.08;1;1.00;33.00;3.18;85.49;1.43
34282;29.67;29.43;254.01;1321;1376.96;0;1.00;33.00;3.18;85.49;1.59
34500;29.67;29.43;255.00;1331;1377.06;0;1.00;33.00;3.18;85.49;1.76
34718;29.67;29.43;255.00;1341;1514.87;0;1.00;33.00;3.18;85.49;1.92
34935;29.67;29.43;255.00;1352;1376.96;0;1.00;33.00;3.18;85.49;2.09
35153;29.67;29.45;254.24;1363;1652.41;0;1.00;33.00;3.18;85.49;2.23
35371;29.67;29.43;255.00;1375;1514.54;0;1.00;33.00;3.18;85.49;2.40
35589;29.67;29.45;254.55;1386;1652.16;0;1.00;33.00;3.18;85.49;2.54
35807;29.60;29.43;246.44;1398;1514.54;0;1.00;33.00;3.18;85.49;2.66
36025;29.67;29.43;255.00;1410;1652.35;0;1.00;33.00;3.18;85.49;2.82
36243;29.60;29.43;237.20;1422;1789.91;0;1.00;33.00;3.18;85.49;2.94
36461;29.60;29.43;245.86;1435;1652.29;0;1.00;33.00;3.18;85.49;3.06
36678;29.53;29.43;226.07;1447;1652.59;0;1.00;33.00;3.18;85.49;3.13
36896;29.53;29.45;221.84;1460;1790.11;0;1.00;33.00;3.18;85.49;3.18
37114;29.46;29.43;209.91;1472;1652.35;0;1.00;33.00;3.18;85.49;3.21
37332;29.46;29.43;214.32;1484;1789.98;0;1.00;33.00;3.18;85.49;3.23
37550;29.46;29.43;218.76;1497;1652.29;0;1.00;33.00;3.18;85.49;3.26
37768;29.46;31.39;175.19;1509;1652.35;1;1.00;33.00;3.18;85.49;1.93
37986;29.46;35.22;131.61;1521;1790.04;1;1.00;33.00;3.18;85.49;-2.06
38204;29.40;35.96;87.95;1534;1648.96;1;1.00;33.00;3.18;85.49;-6.62
38422;29.40;35.99;44.39;1545;1652.74;1;1.00;33.00;3.18;85.49;-11.18
38640;29.40;35.96;0.73;1556;1511.76;1;1.00;33.00;3.18;85.49;-15.74
38858;29.33;35.99;0.00;1564;1101.60;1;1.00;33.00;3.18;85.49;-20.35
39076;29.33;35.96;0.00;1564;0.00;1;1.00;33.00;3.18;85.49;-24.94
39293;29.33;35.99;0.00;1564;0.00;1;1.00;33.00;3.18;85.49;-29.54
39511;29.33;35.96;0.00;1564;0.00;1;1.00;33.00;3.18;85.49;-34.13
39728;29.33;35.96;0.00;1564;0.00;1;1.00;33.00;3.18;85.49;-38.71
39946;29.40;35.99;0.00;1564;0.00;1;1.00;33.00;3.18;85.49;-43.27
40163;29.40;35.99;0.00;1564;0.00;1;1.00;33.00;3.18;85.49;-47.83
40381;29.33;35.99;0.00;1564;0.00;1;1.00;33.00;3.18;85.49;-52.43
40598;29.40;35.96;0.00;1564;0.00;1;1.00;33.00;3.18;85.49;-56.97
40816;29.40;35.96;0.00;1564;0.00;1;1.00;33.00;3.18;85.49;-61.51
41033;29.40;35.99;0.00;1564;0.00;1;1.00;33.00;3.18;85.49;-66.07
41251;29.40;35.96;0.00;1564;0.00;1;1.00;33.00;3.18;85.49;-70.60
41468;29.40;35.96;0.00;1564;0.00;1;1.00;33.00;3.18;85.49;-75.14
41685;29.46;35.96;0.00;1564;0.00;1;1.00;33.00;3.18;85.49;-79.64
41903;29.46;35.99;0.00;1564;0.00;1;1.00;33.00;3.18;85.49;-84.15
42121;29.53;35.99;0.00;1564;0.00;1;1.00;33.00;3.18;85.49;-88.61
42338;29.53;35.96;0.00;1564;0.00;1;1.00;33.00;3.18;85.49;-93.06
42556;29.60;35.96;0.00;1564;0.00;1;1.00;33.00;3.18;85.49;-97.46
42773;29.60;35.96;0.00;1564;0.00;1;1.00;33.00;3.18;85.49;-101.87
42991;29.67;35.96;0.00;1564;0.00;1;1.00;33.00;3.18;85.49;-106.22
43209;29.67;35.96;0.00;1564;0.00;1;1.00;33.00;3.18;85.49;-110.58
43426;29.73;35.99;0.00;1564;0.00;1;1.00;33.00;3.18;85.49;-114.91
43644;29.80;35.96;0.00;1564;0.00;1;1.00;33.00;3.18;85.49;-119.17
43862;29.80;35.99;0.00;1564;0.00;1;1.00;33.00;3.18;85.49;-123.45
44079;29.87;35.99;0.00;1564;0.00;1;1.00;33.00;3.18;85.49;-127.69
44297;29.87;35.99;0.00;1564;0.00;1;1.00;33.00;3.18;85.49;-131.92
44515;29.94;35.96;0.00;1564;0.00;1;1.00;33.00;3.18;85.49;-136.09
44732;30.00;35.99;0.00;1564;0.00;1;1.00;33.00;3.18;85.49;-140.23
44950;30.07;35.99;0.00;1564;0.00;1;1.00;33.00;3.18;85.49;-144.33
45167;30.14;35.96;0.00;1564;0.00;1;1.00;33.00;3.18;85.49;-148.36
45385;30.21;35.96;0.00;1564;0.00;1;1.00;33.00;3.18;85.49;-152.34
45603;30.21;35.96;0.00;1564;0.00;1;1.00;33.00;3.18;85.49;-156.32
45820;30.34;35.99;0.00;1564;0.00;1;1.00;33.00;3.18;85.49;-160.23
46038;30.34;35.96;0.00;1564;0.00;1;1.00;33.00;3.18;85.49;-164.11
46255;30.41;35.96;0.00;1564;0.00;1;1.00;33.00;3.18;85.49;-167.95
46473;30.48;35.99;0.00;1564;0.00;1;1.00;33.00;3.18;85.49;-171.77
46690;30.55;35.99;0.00;1564;0.00;1;1.00;33.00;3.18;85.49;-175.53
46908;30.61;35.99;0.00;1564;0.00;1;1.00;33.00;3.18;85.49;-179.25
47125;30.68;35.99;0.00;1564;0.00;1;1.00;33.00;3.18;85.49;-182.92
47343;30.75;35.99;0.00;1564;0.00;1;1.00;33.00;3.18;85.49;-186.54
47561;30.82;35.99;0.00;1564;0.00;1;1.00;33.00;3.18;85.49;-190.12
47778;30.89;35.99;0.00;1564;0.00;1;1.00;33.00;3.18;85.49;-193.64
47996;30.95;35.99;0.00;1564;0.00;1;1.00;33.00;3.18;85.49;-197.13
48213;31.02;35.99;0.00;1564;0.00;1;1.00;33.00;3.18;85.49;-200.56
48431;31.16;35.99;0.00;1564;0.00;1;1.00;33.00;3.18;85.49;-203.90
48649;31.23;35.99;0.00;1564;0.00;1;1.00;33.00;3.18;85.49;-207.19
48866;31.23;35.96;0.00;1564;0.00;1;1.00;33.00;3.18;85.49;-210.47
49084;31.44;35.99;0.00;1564;0.00;1;1.00;33.00;3.18;85.49;-213.61
49301;31.44;35.99;0.00;1564;0.00;1;1.00;33.00;3.18;85.49;-216.76
49519;31.51;35.99;0.00;1564;0.00;1;1.00;33.00;3.18;85.49;-219.86
49737;31.58;35.99;0.00;1564;0.00;1;1.00;33.00;3.18;85.49;-222.92
49954;31.71;35.99;0.00;1564;0.00;1;1.00;33.00;3.18;85.49;-225.87
50172;31.78;35.99;0.00;1564;0.00;1;1.00;33.00;3.18;85.49;-228.78
50390;31.85;35.99;0.00;1564;0.00;1;1.00;33.00;3.18;85.49;-231.64
50607;31.99;35.96;0.00;1564;0.00;1;1.00;33.00;3.18;85.49;-234.39
50825;32.06;35.99;0.00;1564;0.00;1;1.00;33.00;3.18;85.49;-237.10
51043;32.13;35.99;0.00;1564;0.00;1;1.00;33.00;3.18;85.49;-239.77
51260;32.20;35.99;0.00;1564;0.00;1;1.00;33.00;3.18;85.49;-242.39
51478;32.34;35.99;0.00;1564;0.00;1;1.00;33.00;3.18;85.49;-244.91
51695;32.41;35.96;0.00;1564;0.00;1;1.00;33.00;3.18;85.49;-247.36
51913;32.55;35.96;0.00;1564;0.00;1;1.00;33.00;3.18;85.49;-249.72
52130;32.62;35.96;0.00;1564;0.00;1;1.00;33.00;3.18;85.49;-252.03
52348;32.77;35.96;0.00;1564;0.00;1;1.00;33.00;3.18;85.49;-254.24
52565;32.84;35.99;0.00;1564;0.00;1;1.00;33.00;3.18;85.49;-255.00
52783;32.98;35.99;0.00;1564;0.00;1;1.00;33.00;3.18;85.49;-255.00
53000;33.05;35.99;0.00;1564;0.00;1;1.00;33.00;3.18;85.49;-255.00
53218;33.12;35.99;0.00;1564;0.00;1;1.00;33.00;3.18;85.49;-255.00
53436;33.27;35.96;0.00;1564;0.00;1;1.00;33.00;3.18;85.49;-255.00
53653;33.41;35.96;0.00;1564;0.00;1;1.00;33.00;3.18;85.49;-255.00
53871;33.55;35.96;0.00;1564;0.00;1;1.00;33.00;3.18;85.49;-255.00
54088;33.70;35.99;0.00;1564;0.00;1;1.00;33.00;3.18;85.49;-255.00
54306;33.70;35.96;0.00;1564;0.00;1;1.00;33.00;3.18;85.49;-255.00
54524;33.91;35.96;0.00;1564;0.00;1;1.00;33.00;3.18;85.49;-255.00
54741;33.99;35.99;0.00;1564;0.00;1;1.00;33.00;3.18;85.49;-255.00
54959;34.13;35.96;0.00;1564;0.00;1;1.00;33.00;3.18;85.49;-255.00
55176;34.21;35.99;0.00;1564;0.00;1;1.00;33.00;3.18;85.49;-255.00
55394;34.35;35.96;0.00;1564;0.00;1;1.00;33.00;3.18;85.49;-255.00
55612;34.57;35.96;0.00;1564;0.00;1;1.00;33.00;3.18;85.49;-255.00
55829;34.65;35.99;0.00;1564;0.00;1;1.00;33.00;3.18;85.49;-255.00
56047;34.79;35.96;0.00;1564;0.00;1;1.00;33.00;3.18;85.49;-255.00
56265;34.94;35.96;0.00;1564;0.00;1;1.00;33.00;3.18;85.49;-255.00
56482;35.09;35.96;0.00;1564;0.00;1;1.00;33.00;3.18;85.49;-255.00
56700;35.16;35.96;0.00;1564;0.00;1;1.00;33.00;3.18;85.49;-255.00
56918;35.39;35.99;0.00;1564;0.00;1;1.00;33.00;3.18;85.49;-255.00
57135;35.54;35.99;0.00;1564;0.00;1;1.00;33.00;3.18;85.49;-255.00
57353;35.61;35.99;0.00;1564;0.00;1;1.00;33.00;3.18;85.49;-255.00
57570;35.77;35.96;0.00;1564;0.00;1;1.00;33.00;3.18;85.49;-255.00
57788;35.92;35.99;0.00;1564;0.00;1;1.00;33.00;3.18;85.49;-255.00
58005;36.07;35.99;0.00;1564;0.00;1;1.00;33.00;3.18;85.49;-254.94
58223;36.22;35.99;0.00;1564;0.00;1;1.00;33.00;3.18;85.49;-254.78
58441;36.38;35.96;0.00;1564;0.00;1;1.00;33.00;3.18;85.49;-254.49
58658;36.53;35.96;0.00;1564;0.00;1;1.00;33.00;3.18;85.49;-254.10
58876;36.61;35.96;0.00;1564;0.00;1;1.00;33.00;3.18;85.49;-253.65
59093;36.76;35.96;0.00;1564;0.00;1;1.00;33.00;3.18;85.49;-253.10
59311;36.92;35.96;0.00;1564;0.00;1;1.00;33.00;3.18;85.49;-252.43
59528;37.07;35.96;0.00;1564;0.00;1;1.00;33.00;3.18;85.49;-251.66
59746;37.23;35.99;0.00;1564;0.00;1;1.00;33.00;3.18;85.49;-250.80
59963;37.31;35.99;0.00;1564;0.00;1;1.00;33.00;3.18;85.49;-249.89
60181;37.47;35.96;0.00;1564;0.00;1;1.00;33.00;3.18;85.49;-248.85
60399;37.63;35.96;0.00;1564;0.00;1;1.00;33.00;3.18;85.49;-247.69
60616;37.70;35.96;0.00;1564;0.00;1;1.00;33.00;3.18;85.49;-246.49
60834;37.86;35.96;0.00;1564;0.00;1;1.00;33.00;3.18;85.49;-245.17
61052;38.02;35.99;0.00;1564;0.00;1;1.00;33.00;3.18;85.49;-243.76
61269;38.10;35.96;0.00;1564;0.00;1;1.00;33.00;3.18;85.49;-242.28
61487;38.18;35.99;0.00;1564;0.00;1;1.00;33.00;3.18;85.49;-240.75
61705;38.35;35.96;0.00;1564;0.00;1;1.00;33.00;3.18;85.49;-239.10
61922;38.43;35.99;0.00;1564;0.00;1;1.00;33.00;3.18;85.49;-237.41
62140;38.59;35.99;0.00;1564;0.00;1;1.00;33.00;3.18;85.49;-235.61
62358;38.75;35.96;0.00;1564;0.00;1;1.00;33.00;3.18;85.49;-233.68
62575;38.83;35.99;0.00;1564;0.00;1;1.00;33.00;3.18;85.49;-231.71
62793;38.92;35.99;0.00;1564;0.00;1;1.00;33.00;3.18;85.49;-229.68
63017;39.00;35.99;0.00;1564;0.00;1;1.00;33.00;3.18;85.49;-227.59
63234;39.16;35.99;0.00;1564;0.00;1;1.00;33.00;3.18;85.49;-225.33
63452;39.16;35.96;0.00;1564;0.00;1;1.00;33.00;3.18;85.49;-223.12
63670;39.33;35.96;0.00;1564;0.00;1;1.00;33.00;3.18;85.49;-220.78
63887;39.50;35.96;0.00;1564;0.00;0;1.00;33.00;3.18;85.49;-218.34
64105;39.58;35.99;0.00;1564;0.00;1;1.00;33.00;3.18;85.49;-215.85
64322;39.75;35.99;0.00;1564;0.00;0;1.00;33.00;3.18;85.49;-213.25
64540;39.83;35.96;0.00;1564;0.00;0;1.00;33.00;3.18;85.49;-210.57
64757;39.83;35.99;0.00;1564;0.00;1;1.00;33.00;3.18;85.49;-207.91
64975;40.00;35.96;4.70;1564;0.00;0;1.00;33.00;3.18;85.49;-205.11
65192;40.17;35.99;0.00;1564;0.00;0;1.00;33.00;3.18;85.49;-202.22
65410;40.26;35.96;0.00;1564;0.00;0;1.00;33.00;3.18;85.49;-199.24
65628;40.34;35.99;0.00;1564;0.00;0;1.00;33.00;3.18;85.49;-196.23
65845;40.43;35.96;0.00;1564;0.00;0;1.00;33.00;3.18;85.49;-193.14
66063;40.51;35.96;0.00;1564;0.00;0;1.00;33.00;3.18;85.49;-189.99
66280;40.60;35.99;0.00;1564;0.00;0;1.00;33.00;3.18;85.49;-186.80
66498;40.69;35.96;16.37;1564;0.00;0;1.00;33.00;3.18;85.49;-183.53
66716;40.77;35.96;29.00;1564;0.00;0;1.00;33.00;3.18;85.49;-180.19
66933;40.86;35.99;37.16;1564;0.00;0;1.00;33.00;3.18;85.49;-176.82
67151;40.95;35.99;61.67;1565;137.79;0;1.00;33.00;3.18;85.49;-173.38
67370;41.03;35.96;103.39;1567;274.80;0;1.00;33.00;3.18;85.49;-169.86
67589;41.12;35.96;141.59;1570;410.34;0;1.00;33.00;3.18;85.49;-166.26
67808;41.12;35.99;138.49;1573;410.33;0;1.00;33.00;3.18;85.49;-162.68
68028;41.03;35.99;111.81;1576;410.33;0;1.00;33.00;3.18;85.49;-159.16
68247;41.03;35.99;122.78;1580;547.07;0;1.00;33.00;3.18;85.49;-155.63
68466;40.95;35.96;111.05;1585;547.17;0;1.00;33.00;3.18;85.49;-152.16
68686;40.86;35.96;90.06;1589;683.86;0;1.00;33.00;3.18;85.49;-148.74
68904;40.77;35.96;69.47;1594;687.09;0;1.00;33.00;3.18;85.49;-145.40
69122;40.69;35.96;49.40;1599;687.14;0;1.00;33.00;3.18;85.49;-142.12
69341;40.60;35.99;18.97;1604;687.01;0;1.00;33.00;3.18;85.49;-138.91
69559;40.43;35.96;0.00;1609;687.09;1;1.00;33.00;3.18;85.49;-135.81
69777;40.34;35.96;0.00;1611;275.49;0;1.00;33.00;3.18;85.49;-132.78
69994;40.17;35.99;0.00;1611;0.00;1;1.00;33.00;3.18;85.49;-129.88
70212;40.09;35.99;0.00;1611;0.00;0;1.00;33.00;3.18;85.49;-127.04
70429;40.00;35.96;0.00;1611;0.00;0;1.00;33.00;3.18;85.49;-124.25
70647;39.92;35.96;0.00;1611;0.00;0;1.00;33.00;3.18;85.49;-121.51
70864;39.75;35.99;0.00;1611;0.00;1;1.00;33.00;3.18;85.49;-118.91
71082;39.75;35.99;7.85;1611;0.00;0;1.00;33.00;3.18;85.49;-116.31
71300;39.58;35.99;0.00;1611;0.00;1;1.00;33.00;3.18;85.49;-113.82
71517;39.50;35.99;0.00;1611;0.00;0;1.00;33.00;3.18;85.49;-111.39
71735;39.41;35.96;0.00;1611;0.00;0;1.00;33.00;3.18;85.49;-109.00
71952;39.33;35.99;0.00;1611;0.00;0;1.00;33.00;3.18;85.49;-106.69
72170;39.25;35.99;0.00;1611;0.00;0;1.00;33.00;3.18;85.49;-104.43
72388;39.25;35.96;16.27;1611;0.00;0;1.00;33.00;3.18;85.49;-102.16
72605;39.16;35.96;0.00;1612;137.79;0;1.00;33.00;3.18;85.49;-99.94
72823;39.08;35.99;0.00;1615;413.31;0;1.00;33.00;3.18;85.49;-97.80
73041;39.00;35.99;0.00;1616;137.76;0;1.00;33.00;3.18;85.49;-95.71
73259;38.92;35.96;0.00;1616;0.00;0;1.00;33.00;3.18;85.49;-93.66
73476;38.83;35.99;0.00;1616;0.00;0;1.00;33.00;3.18;85.49;-91.69
73694;38.83;35.96;15.12;1616;0.00;0;1.00;33.00;3.18;85.49;-89.70
73911;38.83;35.96;22.25;1617;137.81;0;1.00;33.00;3.18;85.49;-87.71
74129;38.75;35.96;0.00;1620;413.21;0;1.00;33.00;3.18;85.49;-85.78
74347;38.67;35.99;0.00;1622;275.51;0;1.00;33.00;3.18;85.49;-83.92
74565;38.67;35.99;6.54;1622;0.00;0;1.00;33.00;3.18;85.49;-82.06
74782;38.59;35.99;0.00;1622;0.00;0;1.00;33.00;3.18;85.49;-80.26
75012;38.51;35.96;0.00;1622;0.00;0;1.00;33.00;3.18;85.49;-78.49
75230;38.51;35.96;7.44;1622;0.00;0;1.00;33.00;3.18;85.49;-76.63
75448;38.43;35.96;0.00;1622;0.00;0;1.00;33.00;3.18;85.49;-74.93
75665;38.43;35.96;8.17;1622;0.00;0;1.00;33.00;3.18;85.49;-73.22
75883;38.43;35.99;7.20;1622;0.00;0;1.00;33.00;3.18;85.49;-71.53
76100;38.35;35.99;0.00;1622;0.00;0;1.00;33.00;3.18;85.49;-69.90
76318;38.35;35.96;20.46;1622;0.00;0;1.00;33.00;3.18;85.49;-68.25
76536;38.27;35.96;0.00;1623;137.84;0;1.00;33.00;3.18;85.49;-66.65
76753;38.27;35.96;10.99;1625;275.56;0;1.00;33.00;3.18;85.49;-65.06
76971;38.27;35.99;12.75;1627;275.46;0;1.00;33.00;3.18;85.49;-63.48
77189;38.27;35.99;26.06;1630;413.04;0;1.00;33.00;3.18;85.49;-61.90
77407;38.27;35.96;51.78;1632;275.48;0;1.00;33.00;3.18;85.49;-60.30
77625;38.18;35.96;34.77;1634;275.41;0;1.00;33.00;3.18;85.49;-58.76
77843;38.27;35.96;78.34;1637;275.40;1;1.00;33.00;3.18;85.49;-57.17
78060;38.18;35.99;53.65;1639;413.06;0;1.00;33.00;3.18;85.49;-55.64
78278;38.18;35.96;82.91;1642;275.42;0;1.00;33.00;3.18;85.49;-54.10
78496;38.18;35.96;103.73;1644;413.16;0;1.00;33.00;3.18;85.49;-52.56
78714;38.43;35.99;147.39;1647;412.31;1;1.00;33.00;3.18;85.49;-50.87
78933;38.10;35.99;103.73;1651;412.24;1;1.00;33.00;3.18;85.49;-49.40
79151;38.10;35.96;136.50;1654;549.61;0;1.00;33.00;3.18;85.49;-47.91
79369;38.02;35.99;115.87;1659;549.69;0;1.00;33.00;3.18;85.49;-46.49
79588;38.02;35.96;148.85;1663;687.01;0;1.00;33.00;3.18;85.49;-45.06
79806;37.86;35.99;105.18;1668;686.98;1;1.00;33.00;3.18;85.49;-43.76
80024;37.86;35.99;124.69;1674;687.03;0;1.00;33.00;3.18;85.49;-42.45
80243;37.70;35.99;81.03;1679;824.63;1;1.00;33.00;3.18;85.49;-41.26
80460;37.70;35.96;108.50;1685;826.36;0;1.00;33.00;3.18;85.49;-40.05
80679;37.55;35.96;64.84;1691;687.06;1;1.00;33.00;3.18;85.49;-38.95
80897;37.47;35.96;45.58;1697;826.26;0;1.00;33.00;3.18;85.49;-37.91
81115;37.39;35.96;24.77;1703;826.26;0;1.00;33.00;3.18;85.49;-36.92
81332;37.31;35.96;2.37;1708;826.20;0;1.00;33.00;3.18;85.49;-35.99
81550;37.15;35.96;0.00;1710;275.41;1;1.00;33.00;3.18;85.49;-35.16
81768;37.07;35.96;0.00;1710;0.00;0;1.00;33.00;3.18;85.49;-34.39
81985;36.92;35.96;0.00;1710;0.00;1;1.00;33.00;3.18;85.49;-33.73
82203;37.00;35.96;31.78;1710;0.00;0;1.00;33.00;3.18;85.49;-33.01
82421;36.84;35.99;0.00;1712;275.69;1;1.00;33.00;3.18;85.49;-32.42
82638;36.76;35.96;0.00;1717;689.08;0;1.00;33.00;3.18;85.49;-31.87
82856;36.68;35.99;0.00;1717;0.00;1;1.00;33.00;3.18;85.49;-31.38
83073;36.68;35.99;0.00;1717;0.00;0;1.00;33.00;3.18;85.49;-30.90
83291;36.61;35.96;0.00;1717;0.00;0;1.00;33.00;3.18;85.49;-30.45
83508;36.61;35.96;0.00;1717;0.00;0;1.00;33.00;3.18;85.49;-30.01
83726;36.53;35.96;0.00;1717;0.00;0;1.00;33.00;3.18;85.49;-29.61
83943;36.45;35.96;0.00;1717;0.00;0;1.00;33.00;3.18;85.49;-29.27
84161;36.45;35.99;0.00;1717;0.00;0;1.00;33.00;3.18;85.49;-28.95
84379;36.38;35.99;0.00;1717;0.00;1;1.00;33.00;3.18;85.49;-28.68
84596;36.38;35.96;0.00;1717;0.00;0;1.00;33.00;3.18;85.49;-28.39
84814;36.30;35.99;0.00;1717;0.00;1;1.00;33.00;3.18;85.49;-28.18
85031;36.38;35.96;25.96;1717;0.00;0;1.00;33.00;3.18;85.49;-27.89
85249;36.30;35.99;0.00;1718;137.82;1;1.00;33.00;3.18;85.49;-27.67
85467;36.30;35.96;0.00;1721;413.27;0;1.00;33.00;3.18;85.49;-27.44
85685;36.30;35.99;0.00;1722;137.76;0;1.00;33.00;3.18;85.49;-27.22
85903;36.22;35.99;0.00;1722;0.00;1;1.00;33.00;3.18;85.49;-27.06
86120;36.22;35.99;0.00;1722;0.00;0;1.00;33.00;3.18;85.49;-26.89
86338;36.22;35.96;0.00;1722;0.00;0;1.00;33.00;3.18;85.49;-26.71
86555;36.22;35.99;0.00;1722;0.00;0;1.00;33.00;3.18;85.49;-26.55
86773;36.22;35.99;0.00;1722;0.00;0;1.00;33.00;3.18;85.49;-26.38
86990;36.22;35.99;0.00;1722;0.00;0;1.00;33.00;3.18;85.49;-26.22
87208;36.22;35.96;0.00;1722;0.00;0;1.00;33.00;3.18;85.49;-26.04
87425;36.22;35.96;0.00;1722;0.00;0;1.00;33.00;3.18;85.49;-25.86
87643;36.30;35.99;4.82;1722;0.00;0;1.00;33.00;3.18;85.49;-25.64
87861;36.22;35.96;0.00;1722;0.00;0;1.00;33.00;3.18;85.49;-25.46
88078;36.30;35.96;16.06;1722;0.00;0;1.00;33.00;3.18;85.49;-25.23
88296;36.30;35.99;0.00;1722;0.00;0;1.00;33.00;3.18;85.49;-25.01
88513;36.30;35.96;0.00;1725;413.74;0;1.00;33.00;3.18;85.49;-24.78
88731;36.30;35.96;0.00;1727;275.56;0;1.00;33.00;3.18;85.49;-24.54
88949;36.30;35.96;0.00;1727;0.00;0;1.00;33.00;3.18;85.49;-24.31
89166;36.30;35.99;0.00;1727;0.00;0;1.00;33.00;3.18;85.49;-24.09
89384;36.38;35.99;19.22;1727;0.00;0;1.00;33.00;3.18;85.49;-23.82
89601;36.38;35.99;8.54;1727;0.00;0;1.00;33.00;3.18;85.49;-23.55
89819;36.38;35.99;0.00;1730;275.75;0;1.00;33.00;3.18;85.49;-23.28
90037;36.45;35.96;33.48;1732;413.41;0;1.00;33.00;3.18;85.49;-22.94
90255;36.45;35.99;16.30;1733;137.72;0;1.00;33.00;3.18;85.49;-22.62
90473;36.45;35.96;20.23;1736;275.39;0;1.00;33.00;3.18;85.49;-22.28
90690;36.45;35.99;3.71;1738;413.07;0;1.00;33.00;3.18;85.49;-21.95
90908;36.45;35.99;0.00;1740;275.48;0;1.00;33.00;3.18;85.49;-21.63
91126;36.45;35.96;4.93;1740;0.00;0;1.00;33.00;3.18;85.49;-21.29
91344;36.45;35.96;0.23;1740;0.00;0;1.00;33.00;3.18;85.49;-20.95
91561;36.45;35.99;0.00;1740;0.00;0;1.00;33.00;3.18;85.49;-20.62
91779;36.45;35.96;5.94;1740;0.00;0;1.00;33.00;3.18;85.49;-20.28
91997;36.45;35.96;2.24;1740;0.00;0;1.00;33.00;3.18;85.49;-19.94
92214;36.53;35.99;20.91;1740;0.00;0;1.00;33.00;3.18;85.49;-19.57
92432;36.53;35.99;19.66;1740;0.00;0;1.00;33.00;3.18;85.49;-19.19
92650;36.53;35.96;29.63;1743;413.46;0;1.00;33.00;3.18;85.49;-18.80
92867;36.53;35.99;19.19;1746;275.38;0;1.00;33.00;3.18;85.49;-18.42
93085;36.53;35.96;29.92;1748;413.09;0;1.00;33.00;3.18;85.49;-18.02
93303;36.61;35.96;63.97;1751;275.41;0;1.00;33.00;3.18;85.49;-17.58
93521;36.61;35.96;68.18;1753;413.12;0;1.00;33.00;3.18;85.49;-17.13
93739;36.61;35.96;72.83;1756;275.41;0;1.00;33.00;3.18;85.49;-16.68
93957;36.61;35.96;77.93;1758;413.13;0;1.00;33.00;3.18;85.49;-16.23
94175;36.68;35.96;116.45;1761;413.19;0;1.00;33.00;3.18;85.49;-15.73
94393;36.61;35.96;92.21;1765;412.20;0;1.00;33.00;3.18;85.49;-15.28
94611;36.61;35.99;87.87;1768;550.83;0;1.00;33.00;3.18;85.49;-14.85
94829;36.61;35.99;93.95;1772;550.80;0;1.00;33.00;3.18;85.49;-14.42
95046;36.53;35.96;78.38;1776;550.88;0;1.00;33.00;3.18;85.49;-14.03
95264;36.53;35.96;83.53;1780;550.75;0;1.00;33.00;3.18;85.49;-13.63
95482;36.53;35.96;89.07;1785;550.83;0;1.00;33.00;3.18;85.49;-13.24
95700;36.45;35.99;51.35;1789;688.50;0;1.00;33.00;3.18;85.49;-12.92
95918;36.45;35.96;64.99;1794;550.76;0;1.00;33.00;3.18;85.49;-12.58
96136;36.45;35.99;58.17;1798;688.40;0;1.00;33.00;3.18;85.49;-12.25
96354;36.38;35.96;39.70;1803;550.84;0;1.00;33.00;3.18;85.49;-11.96
96572;36.30;35.96;9.01;1807;688.58;0;1.00;33.00;3.18;85.49;-11.73
96789;36.30;35.96;8.69;1810;413.18;0;1.00;33.00;3.18;85.49;-11.50
97007;36.30;35.96;8.60;1810;0.00;0;1.00;33.00;3.18;85.49;-11.26
97225;36.22;35.99;0.00;1810;0.00;0;1.00;33.00;3.18;85.49;-11.10
97442;36.22;35.96;7.71;1810;0.00;0;1.00;33.00;3.18;85.49;-10.92
97660;36.22;35.99;0.00;1810;0.00;0;1.00;33.00;3.18;85.49;-10.75
97878;36.15;35.96;0.00;1810;0.00;0;1.00;33.00;3.18;85.49;-10.62
98095;36.15;35.99;0.00;1810;0.00;0;1.00;33.00;3.18;85.49;-10.51
98313;36.15;35.99;0.00;1810;0.00;0;1.00;33.00;3.18;85.49;-10.40
98530;36.15;35.96;5.83;1810;0.00;0;1.00;33.00;3.18;85.49;-10.27
98748;36.15;35.96;1.80;1810;0.00;0;1.00;33.00;3.18;85.49;-10.15
98966;36.07;35.99;0.00;1810;0.00;1;1.00;33.00;3.18;85.49;-10.09
99183;36.07;35.96;3.57;1810;0.00;0;1.00;33.00;3.18;85.49;-10.01
99401;36.07;35.96;0.00;1810;0.00;0;1.00;33.00;3.18;85.49;-9.94
99618;36.07;35.99;0.00;1810;0.00;0;1.00;33.00;3.18;85.49;-9.88
99836;36.07;35.96;3.78;1810;0.00;0;1.00;33.00;3.18;85.49;-9.80
100053;36.07;35.99;0.00;1810;0.00;0;1.00;33.00;3.18;85.49;-9.75
100271;36.07;35.96;3.92;1810;0.00;0;1.00;33.00;3.18;85.49;-9.67
100488;36.15;35.99;19.64;1810;0.00;0;1.00;33.00;3.18;85.49;-9.56
100706;36.15;35.96;26.31;1810;0.00;0;1.00;33.00;3.18;85.49;-9.43
100924;36.22;35.96;55.73;1812;275.68;0;1.00;33.00;3.18;85.49;-9.25
101142;36.15;35.99;12.16;1815;413.06;1;1.00;33.00;3.18;85.49;-9.14
101360;36.15;35.99;8.41;1818;275.39;0;1.00;33.00;3.18;85.49;-9.03
101577;36.15;35.99;4.77;1819;275.51;0;1.00;33.00;3.18;85.49;-8.92
101795;36.15;35.96;12.08;1819;0.00;0;1.00;33.00;3.18;85.49;-8.79
102013;36.15;35.99;0.00;1819;0.00;0;1.00;33.00;3.18;85.49;-8.68
102230;36.15;35.99;0.00;1819;0.00;0;1.00;33.00;3.18;85.49;-8.57
102448;36.22;35.99;29.44;1819;0.00;0;1.00;33.00;3.18;85.49;-8.40
102666;36.22;35.96;39.84;1819;0.00;0;1.00;33.00;3.18;85.49;-8.22
102883;36.22;35.99;29.61;1822;413.42;0;1.00;33.00;3.18;85.49;-8.06
103101;36.22;35.99;29.52;1824;275.38;0;1.00;33.00;3.18;85.49;-7.90
103319;36.30;35.99;62.25;1827;413.19;0;1.00;33.00;3.18;85.49;-7.68
103537;36.22;35.99;32.46;1830;413.15;0;1.00;33.00;3.18;85.49;-7.51
103755;36.22;35.96;43.74;1832;275.41;0;1.00;33.00;3.18;85.49;-7.33
103973;36.30;35.96;77.89;1835;413.13;0;1.00;33.00;3.18;85.49;-7.10
104190;36.30;35.96;82.19;1838;413.14;0;1.00;33.00;3.18;85.49;-6.86
104408;36.30;35.96;86.74;1841;413.22;0;1.00;33.00;3.18;85.49;-6.63
104626;36.15;35.96;43.17;1844;413.19;1;1.00;33.00;3.18;85.49;-6.50
104844;36.30;35.99;86.74;1847;413.13;1;1.00;33.00;3.18;85.49;-6.28
105062;36.22;35.99;58.36;1851;413.10;0;1.00;33.00;3.18;85.49;-6.12
105280;36.30;35.99;92.85;1854;550.78;0;1.00;33.00;3.18;85.49;-5.90
105498;36.30;35.99;97.50;1858;550.78;0;1.00;33.00;3.18;85.49;-5.69
105715;36.30;35.99;102.36;1862;413.15;0;1.00;33.00;3.18;85.49;-5.47
105934;36.30;35.96;118.25;1866;549.63;0;1.00;33.00;3.18;85.49;-5.23
106152;36.30;35.99;113.61;1870;686.91;0;1.00;33.00;3.18;85.49;-5.02
106371;36.15;35.96;69.93;1875;686.84;1;1.00;33.00;3.18;85.49;-4.89
106588;36.15;35.99;60.46;1880;688.40;0;1.00;33.00;3.18;85.49;-4.78
106806;36.15;35.99;61.08;1885;688.50;0;1.00;33.00;3.18;85.49;-4.67
107024;36.07;35.96;40.11;1890;550.86;0;1.00;33.00;3.18;85.49;-4.59
107242;35.99;35.96;6.72;1895;688.48;0;1.00;33.00;3.18;85.49;-4.57
107460;36.07;35.96;35.73;1898;550.86;0;1.00;33.00;3.18;85.49;-4.49
107678;35.99;35.96;2.45;1901;275.40;0;1.00;33.00;3.18;85.49;-4.47
107895;35.92;35.99;0.00;1904;550.94;1;1.00;33.00;3.18;85.49;-4.52
108113;35.92;35.99;0.00;1904;0.00;0;1.00;33.00;3.18;85.49;-4.57
108331;35.84;35.96;0.00;1904;0.00;0;1.00;33.00;3.18;85.49;-4.65
108548;35.84;35.96;0.00;1904;0.00;0;1.00;33.00;3.18;85.49;-4.73
108766;35.77;35.96;0.00;1904;0.00;0;1.00;33.00;3.18;85.49;-4.86
108984;35.84;35.99;10.06;1904;0.00;0;1.00;33.00;3.18;85.49;-4.96
109201;35.84;35.99;0.23;1904;0.00;0;1.00;33.00;3.18;85.49;-5.07
109419;35.77;35.99;0.00;1904;0.00;0;1.00;33.00;3.18;85.49;-5.22
109637;35.77;35.99;0.00;1904;0.00;0;1.00;33.00;3.18;85.49;-5.37
109854;35.77;35.78;43.52;1904;0.00;1;1.00;33.00;3.18;85.49;-5.38
110072;35.77;33.55;87.07;1906;137.79;1;1.00;33.00;3.18;85.49;-3.84
110290;35.77;31.51;130.64;1909;550.81;1;1.00;33.00;3.18;85.49;-0.90
110508;35.77;31.13;174.31;1912;412.21;1;1.00;33.00;3.18;85.49;2.32
110726;35.77;31.13;217.89;1916;550.76;1;1.00;33.00;3.18;85.49;5.53
110944;35.69;31.13;255.00;1921;550.82;1;1.00;33.00;3.18;85.49;8.69
111162;35.69;31.13;255.00;1926;826.20;1;1.00;33.00;3.18;85.49;11.85
111380;35.69;31.13;255.00;1932;824.39;1;1.00;33.00;3.18;85.49;15.01
111598;35.61;31.13;255.00;1939;824.36;1;1.00;33.00;3.18;85.49;18.12
111817;35.54;31.13;255.00;1946;1098.98;1;1.00;33.00;3.18;85.49;21.18
112036;35.46;31.13;255.00;1954;1093.89;1;1.00;33.00;3.18;85.49;24.21
112256;35.39;31.13;255.00;1963;1093.81;1;1.00;33.00;3.18;85.49;27.18
112475;35.31;31.13;255.00;1972;1367.27;1;1.00;33.00;3.18;85.49;30.10
112694;35.16;31.13;255.00;1982;1230.45;1;1.00;33.00;3.18;85.49;32.91
112914;35.09;31.13;255.00;1992;1367.37;1;1.00;33.00;3.18;85.49;35.67
113133;34.94;31.11;255.00;2002;1503.94;1;1.00;33.00;3.18;85.49;38.35
113353;34.87;31.13;255.00;2013;1367.47;1;1.00;33.00;3.18;85.49;40.95
113572;34.72;31.13;255.00;2024;1504.10;1;1.00;33.00;3.18;85.49;43.46
113791;34.65;31.13;255.00;2035;1640.72;1;1.00;33.00;3.18;85.49;45.91
114005;34.50;31.11;255.00;2047;1504.05;1;1.00;33.00;3.18;85.49;48.27
114224;34.35;31.13;255.00;2058;1689.13;1;1.00;33.00;3.18;85.49;50.46
114443;34.21;31.11;255.00;2071;1640.96;1;1.00;33.00;3.18;85.49;52.62
114663;34.06;31.13;255.00;2083;1640.84;1;1.00;33.00;3.18;85.49;54.66
114882;33.91;31.11;255.00;2095;1640.96;1;1.00;33.00;3.18;85.49;56.62
115102;33.77;31.13;255.00;2108;1777.70;1;1.00;33.00;3.18;85.49;58.46
115321;33.70;31.13;255.00;2120;1641.08;1;1.00;33.00;3.18;85.49;60.25
115540;33.48;31.13;255.00;2133;1777.58;1;1.00;33.00;3.18;85.49;61.89
115760;33.41;31.13;255.00;2146;1777.51;1;1.00;33.00;3.18;85.49;63.47
115979;33.27;31.13;255.00;2159;1777.70;1;1.00;33.00;3.18;85.49;64.96
116198;33.12;31.11;255.00;2172;1777.83;1;1.00;33.00;3.18;85.49;66.37
116418;32.98;31.13;255.00;2185;1777.90;1;1.00;33.00;3.18;85.49;67.66
116637;32.84;31.13;255.00;2198;1777.64;1;1.00;33.00;3.18;85.49;68.85
116857;32.77;31.11;255.00;2211;1777.77;1;1.00;33.00;3.18;85.49;70.00
117076;32.55;31.13;255.00;2224;1914.38;0;1.00;33.00;3.18;85.49;71.00
117295;32.55;31.11;255.00;2238;1777.64;1;1.00;33.00;3.18;85.49;72.01
117515;32.34;31.11;255.00;2251;1777.51;0;1.00;33.00;3.18;85.49;72.87
117734;32.27;31.13;255.00;2264;1914.10;1;1.00;33.00;3.18;85.49;73.67
117954;32.13;31.13;255.00;2278;1777.70;1;1.00;33.00;3.18;85.49;74.36
118173;31.99;31.13;255.00;2291;1777.64;1;1.00;33.00;3.18;85.49;74.96
118392;31.92;31.11;255.00;2305;1914.24;1;1.00;33.00;3.18;85.49;75.53
118612;31.85;31.13;255.00;2318;1777.70;1;1.00;33.00;3.18;85.49;76.04
118831;31.71;31.13;255.00;2332;1914.38;0;1.00;33.00;3.18;85.49;76.44
119051;31.58;31.13;255.00;2345;1777.45;0;1.00;33.00;3.18;85.49;76.75
119270;31.51;31.13;255.00;2359;1914.31;1;1.00;33.00;3.18;85.49;77.01
119489;31.37;31.13;255.00;2372;1777.70;0;1.00;33.00;3.18;85.49;77.18
119709;31.30;31.13;255.00;2386;1914.17;1;1.00;33.00;3.18;85.49;77.29
119928;31.23;31.13;255.00;2399;1914.31;1;1.00;33.00;3.18;85.49;77.36
120148;31.09;31.13;255.00;2413;1777.64;0;1.00;33.00;3.18;85.49;77.33
120367;31.02;31.13;255.00;2427;1914.59;1;1.00;33.00;3.18;85.49;77.26
120586;30.95;31.13;255.00;2440;1777.83;1;1.00;33.00;3.18;85.49;77.14
120806;30.89;31.11;255.00;2454;1914.66;1;1.00;33.00;3.18;85.49;76.98
121025;30.75;31.13;255.00;2467;1914.31;0;1.00;33.00;3.18;85.49;76.71
121244;30.68;31.13;255.00;2481;1777.77;0;1.00;33.00;3.18;85.49;76.40
121464;30.61;31.13;255.00;2495;1914.52;0;1.00;33.00;3.18;85.49;76.04
121683;30.55;31.13;255.00;2508;1777.64;0;1.00;33.00;3.18;85.49;75.63
121903;30.48;31.11;255.00;2522;1914.38;0;1.00;33.00;3.18;85.49;75.19
122122;30.41;31.13;255.00;2536;1914.59;0;1.00;33.00;3.18;85.49;74.69
122341;30.34;31.13;255.00;2549;1777.83;0;1.00;33.00;3.18;85.49;74.13
122561;30.27;31.13;255.00;2563;1914.73;0;1.00;33.00;3.18;85.49;73.53
122780;30.21;31.13;255.00;2577;1914.45;0;1.00;33.00;3.18;85.49;72.89
123000;30.14;31.13;255.00;2590;1777.51;0;1.00;33.00;3.18;85.49;72.19
123219;30.00;31.11;247.23;2604;1914.52;0;1.00;33.00;3.18;85.49;71.42
123438;30.00;31.13;255.00;2618;1914.52;0;1.00;33.00;3.18;85.49;70.64
123658;29.94;31.11;255.00;2631;1777.64;0;1.00;33.00;3.18;85.49;69.82
123877;29.87;31.13;246.07;2645;1914.03;0;1.00;33.00;3.18;85.49;68.94
124096;29.87;31.13;255.00;2658;1914.45;0;1.00;33.00;3.18;85.49;68.06
124316;29.73;31.13;223.46;2672;1777.83;0;1.00;33.00;3.18;85.49;67.08
124535;29.73;31.13;243.41;2686;1913.96;0;1.00;33.00;3.18;85.49;66.10
124755;29.53;31.13;199.53;2699;1777.70;1;1.00;33.00;3.18;85.49;64.99
124974;29.60;31.13;238.98;2712;1914.38;0;1.00;33.00;3.18;85.49;63.92
125193;29.53;31.13;222.86;2726;1777.58;0;1.00;33.00;3.18;85.49;62.80
125413;29.53;31.13;231.74;2739;1777.45;0;1.00;33.00;3.18;85.49;61.69
125632;29.46;31.13;211.14;2752;1777.70;0;1.00;33.00;3.18;85.49;60.52
125852;29.46;31.13;215.49;2765;1777.77;0;1.00;33.00;3.18;85.49;59.36
126071;29.40;31.11;201.08;2778;1777.90;0;1.00;33.00;3.18;85.49;58.17
126290;29.33;31.13;162.60;2791;1777.77;0;1.00;33.00;3.18;85.49;56.91
126510;29.33;31.13;158.83;2804;1777.58;0;1.00;33.00;3.18;85.49;55.65
126729;29.33;31.13;153.79;2816;1641.08;0;1.00;33.00;3.18;85.49;54.40
126949;29.26;31.13;119.23;2828;1641.26;0;1.00;33.00;3.18;85.49;53.10
127168;29.26;31.13;109.39;2840;1640.90;0;1.00;33.00;3.18;85.49;51.79
127387;29.26;31.13;98.25;2851;1641.02;0;1.00;33.00;3.18;85.49;50.49
127606;29.20;31.11;68.23;2862;1511.65;0;1.00;33.00;3.18;85.49;49.16
127824;29.20;31.13;42.26;2873;1373.93;0;1.00;33.00;3.18;85.49;47.82
128042;29.20;31.13;24.91;2883;1373.98;0;1.00;33.00;3.18;85.49;46.48
128261;29.20;31.13;6.21;2892;1374.23;0;1.00;33.00;3.18;85.49;45.14
128478;29.20;31.13;0.00;2896;550.86;0;1.00;33.00;3.18;85.49;43.80
128696;29.20;31.13;0.00;2896;0.00;0;1.00;33.00;3.18;85.49;42.46
128914;29.20;31.11;0.00;2896;0.00;0;1.00;33.00;3.18;85.49;41.13
129131;29.20;31.11;0.00;2896;0.00;0;1.00;33.00;3.18;85.49;39.81
129349;29.20;31.11;0.00;2896;0.00;0;1.00;33.00;3.18;85.49;38.49
129566;29.20;31.13;0.00;2896;0.00;0;1.00;33.00;3.18;85.49;37.16
129784;29.20;31.11;0.00;2896;0.00;0;1.00;33.00;3.18;85.49;35.83
130001;29.26;31.13;0.00;2896;0.00;0;1.00;33.00;3.18;85.49;34.54
130219;29.26;31.11;0.00;2896;0.00;0;1.00;33.00;3.18;85.49;33.27
130436;29.33;31.13;0.00;2896;0.00;0;1.00;33.00;3.18;85.49;32.02
130654;29.33;31.13;0.00;2896;0.00;0;1.00;33.00;3.18;85.49;30.78
130872;29.40;31.13;0.00;2896;0.00;0;1.00;33.00;3.18;85.49;29.58
131089;29.40;31.13;0.00;2896;0.00;0;1.00;33.00;3.18;85.49;28.38
131307;29.46;31.13;0.00;2896;0.00;0;1.00;33.00;3.18;85.49;27.22
131524;29.46;31.13;0.00;2896;0.00;0;1.00;33.00;3.18;85.49;26.07
131742;29.46;31.13;0.00;2896;0.00;0;1.00;33.00;3.18;85.49;24.92
131959;29.60;31.11;36.79;2896;0.00;0;1.00;33.00;3.18;85.49;23.87
132177;29.60;31.11;9.87;2899;413.45;0;1.00;33.00;3.18;85.49;22.83
132395;29.60;31.13;0.00;2904;550.96;0;1.00;33.00;3.18;85.49;21.77
132613;29.67;31.11;9.56;2904;137.72;0;1.00;33.00;3.18;85.49;20.77
132830;29.80;31.13;28.28;2904;0.00;0;1.00;33.00;3.18;85.49;19.85
133048;29.80;31.13;3.27;2906;275.61;0;1.00;33.00;3.18;85.49;18.93
133266;29.87;31.13;6.03;2910;550.96;0;1.00;33.00;3.18;85.49;18.05
133484;29.94;31.13;10.20;2911;137.74;0;1.00;33.00;3.18;85.49;17.22
133702;29.94;31.13;0.00;2911;0.00;0;1.00;33.00;3.18;85.49;16.39
133919;30.00;31.13;4.86;2911;0.00;0;1.00;33.00;3.18;85.49;15.61
134137;30.07;31.13;11.22;2911;0.00;0;1.00;33.00;3.18;85.49;14.88
134354;30.21;31.11;54.76;2911;0.00;1;1.00;33.00;3.18;85.49;14.25
134572;30.21;31.11;38.66;2913;137.81;0;1.00;33.00;3.18;85.49;13.63
134790;30.27;31.13;39.98;2916;550.84;0;1.00;33.00;3.18;85.49;13.04
135014;30.34;31.11;63.81;2920;550.82;0;1.00;33.00;3.18;85.49;12.50
135232;30.41;31.13;68.14;2924;401.46;0;1.00;33.00;3.18;85.49;11.99
135450;30.48;31.13;84.73;2927;550.80;0;1.00;33.00;3.18;85.49;11.54
135668;30.61;31.11;128.31;2931;550.78;1;1.00;33.00;3.18;85.49;11.19
135886;30.61;31.13;112.07;2935;549.51;0;1.00;33.00;3.18;85.49;10.83
136105;30.68;31.11;145.23;2939;549.57;0;1.00;33.00;3.18;85.49;10.54
136323;30.75;31.11;170.46;2944;686.94;0;1.00;33.00;3.18;85.49;10.29
136541;30.89;31.11;214.13;2949;686.91;1;1.00;33.00;3.18;85.49;10.14
136760;30.82;31.11;187.76;2956;961.68;0;1.00;33.00;3.18;85.49;9.94
136978;30.89;31.13;206.30;2962;826.08;0;1.00;33.00;3.18;85.49;9.77
137195;30.89;31.13;207.79;2969;963.80;0;1.00;33.00;3.18;85.49;9.60
137413;30.95;31.13;238.31;2976;963.87;0;1.00;33.00;3.18;85.49;9.47
137631;30.82;31.13;194.73;2984;1101.48;1;1.00;33.00;3.18;85.49;9.26
137850;31.02;31.13;238.40;2992;1099.06;1;1.00;33.00;3.18;85.49;9.18
138068;30.95;31.13;214.76;3001;1236.49;0;1.00;33.00;3.18;85.49;9.06
138286;30.95;31.13;217.85;3010;1236.72;0;1.00;33.00;3.18;85.49;8.94
138505;31.02;31.13;250.00;3020;1236.81;0;1.00;33.00;3.18;85.49;8.86
138723;31.09;31.13;255.00;3029;1373.98;0;1.00;33.00;3.18;85.49;8.83
138941;31.02;31.13;233.29;3040;1374.03;0;1.00;33.00;3.18;85.49;8.76
139160;30.95;31.11;220.03;3050;1374.08;0;1.00;33.00;3.18;85.49;8.65
139378;30.95;31.13;212.77;3061;1511.27;0;1.00;33.00;3.18;85.49;8.53
139596;30.89;31.13;186.20;3072;1511.54;0;1.00;33.00;3.18;85.49;8.36
139815;30.82;31.13;157.19;3083;1511.27;0;1.00;33.00;3.18;85.49;8.14
140033;30.82;31.13;154.75;3094;1511.38;0;1.00;33.00;3.18;85.49;7.92
140251;30.75;31.13;123.01;3105;1511.65;0;1.00;33.00;3.18;85.49;7.66
140470;30.75;31.13;117.78;3115;1511.32;0;1.00;33.00;3.18;85.49;7.39
140688;30.68;31.13;83.27;3127;1511.60;0;1.00;33.00;3.18;85.49;7.08
140906;30.68;31.11;86.00;3137;1377.16;0;1.00;33.00;3.18;85.49;6.78
141124;30.68;31.13;67.63;3147;1377.01;0;1.00;33.00;3.18;85.49;6.47
141342;30.61;31.13;29.86;3156;1239.12;0;1.00;33.00;3.18;85.49;6.11
141559;30.68;31.13;47.55;3165;1239.21;0;1.00;33.00;3.18;85.49;5.80
141777;30.61;31.13;9.11;3173;1239.31;0;1.00;33.00;3.18;85.49;5.44
141995;30.61;31.13;0.00;3179;826.29;0;1.00;33.00;3.18;85.49;5.08
142213;30.55;31.13;0.00;3179;0.00;0;1.00;33.00;3.18;85.49;4.68
142430;30.55;31.11;0.00;3179;0.00;0;1.00;33.00;3.18;85.49;4.29
142648;30.61;31.13;3.60;3179;0.00;0;1.00;33.00;3.18;85.49;3.93
142865;30.61;31.13;0.00;3179;0.00;0;1.00;33.00;3.18;85.49;3.57
143083;30.55;31.11;0.00;3179;0.00;0;1.00;33.00;3.18;85.49;3.18
143300;30.61;31.13;2.50;3179;0.00;0;1.00;33.00;3.18;85.49;2.82
143518;30.61;31.11;0.00;3179;0.00;0;1.00;33.00;3.18;85.49;2.48
143735;30.61;31.13;0.00;3179;0.00;0;1.00;33.00;3.18;85.49;2.12
143953;30.68;31.13;13.75;3179;0.00;0;1.00;33.00;3.18;85.49;1.81
144170;30.68;31.13;0.38;3179;0.00;0;1.00;33.00;3.18;85.49;1.50
144388;30.68;31.13;0.00;3179;0.00;0;1.00;33.00;3.18;85.49;1.19
144606;30.75;31.13;15.12;3179;0.00;0;1.00;33.00;3.18;85.49;0.92
144823;30.75;31.11;14.00;3179;0.00;0;1.00;33.00;3.18;85.49;0.68
145041;30.75;31.13;0.00;3184;689.14;0;1.00;33.00;3.18;85.49;0.41
145259;30.82;31.11;27.52;3186;275.57;0;1.00;33.00;3.18;85.49;0.21
145477;30.82;31.13;7.18;3188;275.46;0;1.00;33.00;3.18;85.49;-0.01
145694;30.82;31.13;0.00;3193;688.83;0;1.00;33.00;3.18;85.49;-0.22
145912;30.95;31.11;43.53;3193;0.00;1;1.00;33.00;3.18;85.49;-0.33
146130;30.95;31.11;38.09;3195;275.65;0;1.00;33.00;3.18;85.49;-0.43
146347;31.02;31.13;50.96;3200;551.00;0;1.00;33.00;3.18;85.49;-0.51
146565;31.02;31.11;57.63;3204;550.90;0;1.00;33.00;3.18;85.49;-0.57
146783;31.09;31.11;83.53;3208;550.94;0;1.00;33.00;3.18;85.49;-0.58
147013;31.09;31.11;82.47;3212;688.68;0;1.00;33.00;3.18;85.49;-0.59
147231;31.16;31.11;109.24;3216;520.91;0;1.00;33.00;3.18;85.49;-0.55
147450;31.23;31.11;139.79;3221;549.55;0;1.00;33.00;3.18;85.49;-0.46
147668;31.23;31.13;132.68;3225;686.84;0;1.00;33.00;3.18;85.49;-0.39
147886;31.23;31.13;135.58;3231;686.96;0;1.00;33.00;3.18;85.49;-0.33
148105;31.37;31.13;179.25;3236;824.48;1;1.00;33.00;3.18;85.49;-0.16
148323;31.37;31.11;197.84;3242;686.94;0;1.00;33.00;3.18;85.49;0.02
148541;31.37;31.13;195.83;3248;963.83;0;1.00;33.00;3.18;85.49;0.18
148759;31.37;31.11;214.78;3255;963.69;0;1.00;33.00;3.18;85.49;0.36
148977;31.37;31.13;213.12;3262;963.76;0;1.00;33.00;3.18;85.49;0.53
149195;31.37;31.13;221.59;3270;1101.36;0;1.00;33.00;3.18;85.49;0.69
149413;31.37;31.11;241.03;3278;1099.30;0;1.00;33.00;3.18;85.49;0.87
149631;31.37;31.13;239.90;3287;1236.44;0;1.00;33.00;3.18;85.49;1.04
149850;31.30;31.13;219.53;3296;1236.49;0;1.00;33.00;3.18;85.49;1.15
150068;31.37;31.13;255.00;3306;1236.54;0;1.00;33.00;3.18;85.49;1.32
150286;31.30;31.11;245.71;3316;1374.03;0;1.00;33.00;3.18;85.49;1.45
150505;31.30;31.13;242.83;3326;1374.13;0;1.00;33.00;3.18;85.49;1.56
150723;31.23;31.11;231.51;3337;1511.54;0;1.00;33.00;3.18;85.49;1.65
150941;31.09;31.13;187.85;3347;1511.38;1;1.00;33.00;3.18;85.49;1.62
151160;31.23;31.11;231.52;3358;1511.38;1;1.00;33.00;3.18;85.49;1.71
151378;31.23;31.11;237.38;3370;1511.60;0;1.00;33.00;3.18;85.49;1.79
151596;31.16;31.11;214.06;3381;1511.65;0;1.00;33.00;3.18;85.49;1.83
151815;31.02;31.13;170.39;3392;1648.77;1;1.00;33.00;3.18;85.49;1.76
152033;31.02;31.13;168.49;3404;1511.60;0;1.00;33.00;3.18;85.49;1.68
152251;31.02;31.13;166.52;3415;1511.54;0;1.00;33.00;3.18;85.49;1.61
152470;30.89;31.13;122.86;3426;1649.08;1;1.00;33.00;3.18;85.49;1.44
152688;30.95;31.13;145.15;3438;1511.43;0;1.00;33.00;3.18;85.49;1.31
152906;30.89;31.13;111.37;3448;1511.32;0;1.00;33.00;3.18;85.49;1.14
153125;30.82;31.11;85.95;3459;1374.13;0;1.00;33.00;3.18;85.49;0.94
153343;30.75;31.11;48.03;3469;1514.37;0;1.00;33.00;3.18;85.49;0.69
153560;30.82;31.11;65.84;3479;1239.26;0;1.00;33.00;3.18;85.49;0.49
153778;30.68;31.13;22.26;3488;1376.85;1;1.00;33.00;3.18;85.49;0.18
153996;30.75;31.13;36.33;3497;1239.08;0;1.00;33.00;3.18;85.49;-0.08
154215;30.61;31.13;0.00;3506;1099.18;1;1.00;33.00;3.18;85.49;-0.44
154432;30.61;31.13;0.00;3510;688.78;0;1.00;33.00;3.18;85.49;-0.80
154650;30.61;31.13;0.00;3510;0.00;0;1.00;33.00;3.18;85.49;-1.16
154867;30.61;31.13;0.00;3510;0.00;0;1.00;33.00;3.18;85.49;-1.52
155085;30.55;31.13;0.00;3510;0.00;1;1.00;33.00;3.18;85.49;-1.93
155302;30.55;31.13;0.00;3510;0.00;0;1.00;33.00;3.18;85.49;-2.33
155520;30.61;31.13;6.97;3510;0.00;0;1.00;33.00;3.18;85.49;-2.69
155737;30.61;31.13;0.00;3510;0.00;0;1.00;33.00;3.18;85.49;-3.05
155955;30.61;31.13;0.00;3510;0.00;0;1.00;33.00;3.18;85.49;-3.41
156172;30.61;31.13;0.00;3510;0.00;0;1.00;33.00;3.18;85.49;-3.77
156390;30.61;31.13;0.00;3510;0.00;0;1.00;33.00;3.18;85.49;-4.13
156608;30.61;31.13;0.00;3510;0.00;0;1.00;33.00;3.18;85.49;-4.49
156825;30.68;31.13;7.13;3510;0.00;0;1.00;33.00;3.18;85.49;-4.80
157043;30.68;31.13;0.00;3510;0.00;0;1.00;33.00;3.18;85.49;-5.11
157260;30.68;31.13;0.00;3510;0.00;0;1.00;33.00;3.18;85.49;-5.42
157478;30.75;31.13;8.51;3510;0.00;0;1.00;33.00;3.18;85.49;-5.69
157695;30.82;31.13;19.11;3510;0.00;0;1.00;33.00;3.18;85.49;-5.90
157913;30.75;31.11;0.00;3512;275.67;0;1.00;33.00;3.18;85.49;-6.15
158131;30.82;31.11;10.98;3517;551.05;0;1.00;33.00;3.18;85.49;-6.35
158349;30.82;31.13;0.00;3517;137.73;0;1.00;33.00;3.18;85.49;-6.57
158567;30.95;31.13;41.24;3517;0.00;0;1.00;33.00;3.18;85.49;-6.69
158784;30.89;31.13;0.00;3519;275.61;0;1.00;33.00;3.18;85.49;-6.86
159015;30.95;31.11;24.91;3524;551.11;0;1.00;33.00;3.18;85.49;-6.96
159232;31.02;31.11;40.60;3525;260.45;0;1.00;33.00;3.18;85.49;-7.03
159450;31.02;31.13;19.95;3529;550.88;0;1.00;33.00;3.18;85.49;-7.10
159668;31.09;31.13;38.45;3533;550.80;0;1.00;33.00;3.18;85.49;-7.13
159886;31.16;31.13;59.30;3536;413.13;0;1.00;33.00;3.18;85.49;-7.11
160104;31.16;31.13;53.17;3540;413.15;0;1.00;33.00;3.18;85.49;-7.09
160322;31.23;31.11;87.22;3543;550.94;0;1.00;33.00;3.18;85.49;-7.00
160539;31.23;31.13;73.54;3547;413.15;0;1.00;33.00;3.18;85.49;-6.93
160757;31.30;31.13;99.26;3550;550.80;0;1.00;33.00;3.18;85.49;-6.82
160975;31.37;31.11;138.31;3554;550.86;0;1.00;33.00;3.18;85.49;-6.64
161193;31.44;31.13;159.03;3558;549.57;0;1.00;33.00;3.18;85.49;-6.43
161412;31.51;31.13;192.29;3563;686.86;0;1.00;33.00;3.18;85.49;-6.17
161630;31.44;31.13;169.30;3568;686.96;0;1.00;33.00;3.18;85.49;-5.96
161849;31.58;31.11;212.98;3574;686.94;1;1.00;33.00;3.18;85.49;-5.63
162067;31.51;31.13;182.88;3580;961.64;0;1.00;33.00;3.18;85.49;-5.37
162285;31.58;31.13;219.57;3587;824.39;0;1.00;33.00;3.18;85.49;-5.06
162504;31.58;31.13;229.44;3594;1099.10;0;1.00;33.00;3.18;85.49;-4.75
162723;31.58;31.11;250.39;3602;957.37;0;1.00;33.00;3.18;85.49;-4.43
162941;31.58;31.13;250.95;3610;1236.63;0;1.00;33.00;3.18;85.49;-4.12
163161;31.51;31.13;232.43;3619;1094.01;0;1.00;33.00;3.18;85.49;-3.86
163380;31.51;31.13;241.18;3628;1367.61;0;1.00;33.00;3.18;85.49;-3.60
163599;31.44;31.13;220.89;3638;1230.99;0;1.00;33.00;3.18;85.49;-3.39
163819;31.51;31.13;255.00;3648;1367.52;0;1.00;33.00;3.18;85.49;-3.12
164038;31.44;31.11;245.95;3658;1504.38;0;1.00;33.00;3.18;85.49;-2.89
164258;31.44;31.13;243.42;3669;1367.47;0;1.00;33.00;3.18;85.49;-2.68
164477;31.23;31.13;199.55;3680;1504.32;1;1.00;33.00;3.18;85.49;-2.61
164696;31.37;31.13;243.42;3691;1504.43;1;1.00;33.00;3.18;85.49;-2.45
164916;31.30;31.13;219.69;3702;1641.02;0;1.00;33.00;3.18;85.49;-2.33
165135;31.23;31.11;204.56;3714;1504.27;0;1.00;33.00;3.18;85.49;-2.25
165354;31.23;31.11;206.47;3725;1641.02;0;1.00;33.00;3.18;85.49;-2.16
165574;31.09;31.13;162.59;3737;1504.38;1;1.00;33.00;3.18;85.49;-2.19
165793;31.02;31.11;140.76;3749;1640.96;0;1.00;33.00;3.18;85.49;-2.25
166013;31.09;31.11;164.78;3760;1504.10;0;1.00;33.00;3.18;85.49;-2.26
166232;31.02;31.13;122.21;3771;1504.10;0;1.00;33.00;3.18;85.49;-2.33
166451;30.95;31.13;87.18;3782;1504.38;0;1.00;33.00;3.18;85.49;-2.46
166670;30.95;31.13;78.76;3793;1511.43;0;1.00;33.00;3.18;85.49;-2.58
166888;30.89;31.13;41.08;3803;1374.08;0;1.00;33.00;3.18;85.49;-2.75
167106;30.82;31.11;11.77;3813;1373.83;0;1.00;33.00;3.18;85.49;-2.95
167325;30.68;31.13;0.00;3822;1236.54;1;1.00;33.00;3.18;85.49;-3.26
167542;30.82;31.13;39.80;3825;551.07;0;1.00;33.00;3.18;85.49;-3.48
167760;30.82;31.13;25.74;3831;688.60;0;1.00;33.00;3.18;85.49;-3.70
167978;30.75;31.13;0.00;3839;1101.89;0;1.00;33.00;3.18;85.49;-3.96
168196;30.75;31.13;0.00;3842;551.07;0;1.00;33.00;3.18;85.49;-4.23
168413;30.68;31.13;0.00;3842;0.00;1;1.00;33.00;3.18;85.49;-4.54
168631;30.75;31.13;9.39;3842;0.00;0;1.00;33.00;3.18;85.49;-4.80
168849;30.75;31.13;0.00;3842;0.00;0;1.00;33.00;3.18;85.49;-5.07
169066;30.68;31.13;0.00;3842;0.00;1;1.00;33.00;3.18;85.49;-5.38
169284;30.75;31.11;19.39;3842;0.00;0;1.00;33.00;3.18;85.49;-5.63
169502;30.75;31.13;0.00;3845;413.47;0;1.00;33.00;3.18;85.49;-5.89
169719;30.75;31.13;0.00;3851;826.66;0;1.00;33.00;3.18;85.49;-6.16
169937;30.75;31.13;0.00;3851;0.00;0;1.00;33.00;3.18;85.49;-6.42
170154;30.75;31.13;0.00;3851;0.00;0;1.00;33.00;3.18;85.49;-6.68
170372;30.82;31.13;9.61;3851;0.00;0;1.00;33.00;3.18;85.49;-6.90
170590;30.82;31.11;2.97;3851;0.00;0;1.00;33.00;3.18;85.49;-7.10
170807;30.82;31.13;0.00;3851;0.00;0;1.00;33.00;3.18;85.49;-7.32
171025;30.89;31.13;11.29;3851;0.00;0;1.00;33.00;3.18;85.49;-7.49
171242;30.89;31.13;0.00;3851;0.00;0;1.00;33.00;3.18;85.49;-7.66
171460;30.89;31.13;0.00;3851;0.00;0;1.00;33.00;3.18;85.49;-7.83
171677;30.95;31.11;23.99;3851;0.00;0;1.00;33.00;3.18;85.49;-7.93
171895;30.95;31.11;10.95;3853;137.84;0;1.00;33.00;3.18;85.49;-8.04
172113;31.02;31.13;16.20;3857;688.65;0;1.00;33.00;3.18;85.49;-8.11
172331;31.09;31.11;44.53;3861;413.13;0;1.00;33.00;3.18;85.49;-8.12
172549;31.09;31.13;25.09;3864;550.84;0;1.00;33.00;3.18;85.49;-8.15
172767;31.16;31.13;44.91;3868;550.84;0;1.00;33.00;3.18;85.49;-8.13
172984;31.23;31.11;77.91;3872;413.12;0;1.00;33.00;3.18;85.49;-8.05
173202;31.30;31.11;103.38;3875;550.84;0;1.00;33.00;3.18;85.49;-7.91
173421;31.30;31.13;91.13;3879;549.53;0;1.00;33.00;3.18;85.49;-7.80
173638;31.37;31.13;118.37;3883;413.12;0;1.00;33.00;3.18;85.49;-7.63
