time;temp;readout bread;low temp;high temp;iscooling;fancount;lastcount;rpm;forcefan
49;33.77;641;37.57;39.57;0;2;17;1665.56;0
606;33.77;641;37.60;39.60;0;21;593;991.34;0
1121;33.55;639;37.60;39.60;0;35;1007;851.85;0
1637;33.55;638;37.60;39.60;0;35;1007;0.00;0
2165;33.41;637;37.57;39.57;0;35;1007;0.00;0
2681;33.34;637;37.57;39.57;0;35;1007;0.00;0
3196;33.34;635;37.57;39.57;0;35;1007;0.00;0
3712;33.27;634;37.57;39.57;0;35;1007;0.00;0
4240;33.19;635;37.60;39.60;0;35;1007;0.00;0
4768;33.27;635;37.57;39.57;0;35;1007;0.00;0
5296;33.19;635;37.60;39.60;0;35;1007;0.00;0
5812;33.27;635;37.60;39.60;0;35;1007;0.00;0
6340;33.34;636;37.57;39.57;0;35;1007;0.00;0
6856;33.34;636;37.57;39.57;0;35;1007;0.00;0
7371;33.41;637;37.57;39.57;0;35;1007;0.00;0
7899;33.48;638;37.60;39.60;0;35;1007;0.00;0
8427;33.55;640;37.57;39.57;0;35;1007;0.00;0
8956;33.70;640;37.60;39.60;0;35;1007;0.00;0
9484;33.77;643;37.57;39.57;0;35;1007;0.00;0
10012;33.91;644;37.60;39.60;0;35;1007;0.00;0
10540;34.06;646;37.62;39.62;0;35;1007;0.00;0
11068;34.28;648;37.60;39.60;0;35;1007;0.00;0
11596;34.42;651;37.57;39.57;0;35;1007;0.00;0
12112;34.65;653;37.57;39.57;0;35;1007;0.00;0
12628;34.79;657;37.57;39.57;0;35;1007;0.00;0
13143;35.02;659;37.57;39.57;0;35;1007;0.00;0
13659;35.24;662;37.57;39.57;0;35;1007;0.00;0
14174;35.46;665;37.57;39.57;0;35;1007;0.00;0
14690;35.77;669;37.57;39.57;0;35;1007;0.00;0
15206;35.99;672;37.57;39.57;0;35;1007;0.00;0
15721;36.22;675;37.57;39.57;0;35;1007;0.00;0
16237;36.53;679;37.57;39.57;0;35;1007;0.00;0
16753;36.84;684;37.57;39.57;0;35;1007;0.00;0
17268;37.07;687;37.57;39.57;0;35;1007;0.00;0
17784;37.39;691;37.57;39.57;0;35;1007;0.00;0
18299;37.70;694;37.57;39.57;0;35;1007;0.00;0
18815;37.86;697;37.57;39.57;0;35;1007;0.00;0
19343;38.27;701;37.60;39.60;0;35;1007;0.00;0
19859;38.59;705;37.60;39.60;0;35;1007;0.00;0
20374;38.83;708;37.60;39.60;0;35;1007;0.00;0
20890;39.08;711;37.60;39.60;0;35;1007;0.00;0
21418;39.33;715;37.57;39.57;0;35;1007;0.00;0
21934;39.58;718;37.57;39.57;1;35;1007;0.00;0
22449;39.92;721;37.57;39.57;1;35;1007;0.00;0
22965;40.09;724;37.57;39.57;1;41;22906;349.10;0
23494;40.17;724;37.60;39.60;1;48;23425;407.10;0
24022;40.00;723;37.57;39.57;1;56;23976;454.19;0
24538;39.92;721;37.57;39.57;1;64;24498;454.19;0
25054;39.83;720;37.57;39.57;1;72;25001;465.25;0
25582;39.66;718;37.60;39.60;1;81;25552;523.37;0
26111;39.50;716;37.57;39.57;1;90;26090;454.18;0
26626;39.25;714;37.57;39.57;1;99;26613;567.70;0
27142;39.08;711;37.57;39.57;1;108;27119;523.39;0
27658;38.92;709;37.57;39.57;1;117;27618;523.33;0
28174;38.67;707;37.57;39.57;1;127;28163;523.31;0
28690;38.51;704;37.57;39.57;1;136;28648;581.51;0
29206;38.27;702;37.57;39.57;1;146;29184;581.47;0
29722;38.10;699;37.57;39.57;1;156;29715;523.31;0
30238;37.86;697;37.57;39.57;1;165;30192;581.45;0
30754;37.70;694;37.57;39.57;1;175;30719;581.47;0
31270;37.47;691;37.57;39.57;0;185;31244;581.48;0
31786;37.31;690;37.57;39.57;0;190;31486;290.73;0
32314;37.15;687;37.60;39.60;0;190;31486;0.00;0
32830;37.00;686;37.60;39.60;0;190;31486;0.00;0
33358;36.92;683;37.57;39.57;0;190;31486;0.00;0
33874;36.76;683;37.57;39.57;0;190;31486;0.00;0
34389;36.68;682;37.57;39.57;0;190;31486;0.00;0
34905;36.68;681;37.57;39.57;0;190;31486;0.00;0
35433;36.68;681;37.60;39.60;0;190;31486;0.00;0
35962;36.61;680;37.57;39.57;0;190;31486;0.00;0
36477;36.61;681;37.57;39.57;0;190;31486;0.00;0
37006;36.68;682;37.60;39.60;0;190;31486;0.00;0
37534;36.76;682;37.57;39.57;0;190;31486;0.00;0
38062;36.84;683;37.60;39.60;0;190;31486;0.00;0
38590;36.92;684;37.57;39.57;0;190;31486;0.00;0
39106;37.00;685;37.57;39.57;0;190;31486;0.00;0
39622;37.15;687;37.57;39.57;0;190;31486;0.00;0
40150;37.31;690;37.60;39.60;0;190;31486;0.00;0
40678;37.55;692;37.57;39.57;0;190;31486;0.00;0
41207;37.70;694;37.60;39.60;0;190;31486;0.00;0
41735;37.94;697;37.57;39.57;0;190;31486;0.00;0
42251;38.10;699;37.57;39.57;0;190;31486;0.00;0
42766;38.35;701;37.57;39.57;0;190;31486;0.00;0
43282;38.51;704;37.57;39.57;0;190;31486;0.00;0
43810;38.67;707;37.60;39.60;0;190;31486;0.00;0
44339;38.92;710;37.57;39.57;0;190;31486;0.00;0
44854;39.16;712;37.57;39.57;0;190;31486;0.00;0
45383;39.41;716;37.60;39.60;0;190;31486;0.00;0
45911;39.66;718;37.57;39.57;1;190;31486;0.00;0
46439;39.92;721;37.60;39.60;1;191;46412;56.79;0
46968;40.17;724;37.57;39.57;1;196;46889;283.86;0
47496;40.17;723;37.60;39.60;1;203;47431;397.38;0
48024;40.09;723;37.57;39.57;1;211;47996;454.14;0
48553;39.83;722;37.60;39.60;1;219;48527;454.15;0
49069;39.83;720;37.60;39.60;1;227;49036;454.13;0
49597;39.66;717;37.57;39.57;1;236;49592;465.19;0
50113;39.41;716;37.57;39.57;1;244;50075;510.91;0
50629;39.25;714;37.57;39.57;1;253;50607;523.33;0
51145;39.08;711;37.57;39.57;1;262;51123;523.34;0
51661;38.92;708;37.57;39.57;1;271;51626;523.33;0
52177;38.67;707;37.57;39.57;1;281;52177;523.32;0
52705;38.59;704;37.60;39.60;1;290;52666;581.45;0
53221;38.35;702;37.60;39.60;1;300;53205;567.66;0
53750;38.10;700;37.57;39.57;1;310;53741;523.30;0
54266;37.94;697;37.57;39.57;1;319;54220;567.64;0
54782;37.78;694;37.57;39.57;1;329;54753;581.48;0
55298;37.55;692;37.57;39.57;0;339;55284;581.44;0
55826;37.39;690;37.60;39.60;0;343;55488;232.58;0
56355;37.23;688;37.57;39.57;0;343;55488;0.00;0
56883;37.15;686;37.60;39.60;0;343;55488;0.00;0
57411;37.00;685;37.57;39.57;0;343;55488;0.00;0
57939;36.92;684;37.60;39.60;0;343;55488;0.00;0
58468;36.84;683;37.57;39.57;0;343;55488;0.00;0
58996;36.84;682;37.60;39.60;0;343;55488;0.00;0
59524;36.76;682;37.57;39.57;0;343;55488;0.00;0
60052;36.76;683;37.60;39.60;0;343;55488;0.00;0
60581;36.76;682;37.57;39.57;0;343;55488;0.00;0
61109;36.84;684;37.60;39.60;0;343;55488;0.00;0
61637;36.84;684;37.57;39.57;0;343;55488;0.00;0
62153;37.00;685;37.57;39.57;0;343;55488;0.00;0
62669;37.07;686;37.57;39.57;0;343;55488;0.00;0
63184;37.23;688;37.57;39.57;0;343;55488;0.00;0
63700;37.39;690;37.57;39.57;0;343;55488;0.00;0
64216;37.55;693;37.57;39.57;0;343;55488;0.00;0
64731;37.70;695;37.57;39.57;0;343;55488;0.00;0
65247;37.94;697;37.57;39.57;0;343;55488;0.00;0
65775;38.10;700;37.60;39.60;0;343;55488;0.00;0
66304;38.35;703;37.57;39.57;0;343;55488;0.00;0
66832;38.59;705;37.60;39.60;0;343;55488;0.00;0
67360;38.83;708;37.57;39.57;0;343;55488;0.00;0
67889;39.00;711;37.60;39.60;0;343;55488;0.00;0
68417;39.33;713;37.57;39.57;0;343;55488;0.00;0
68932;39.41;715;37.57;39.57;0;343;55488;0.00;0
69448;39.58;719;37.57;39.57;1;343;55488;0.00;0
69977;39.83;720;37.60;39.60;1;344;69948;58.17;0
70505;40.09;722;37.57;39.57;1;349;70426;283.84;0
71021;40.09;724;37.57;39.57;1;356;70968;397.37;0
71549;40.00;722;37.60;39.60;1;364;71533;407.04;0
72078;40.00;721;37.57;39.57;1;372;72064;454.15;0
72594;39.75;719;37.57;39.57;1;380;72574;510.91;0
73110;39.58;716;37.57;39.57;1;388;73069;465.20;0
73626;39.41;715;37.57;39.57;1;397;73614;465.19;0
74141;39.25;713;37.57;39.57;1;405;74088;523.35;0
74670;39.08;710;37.60;39.60;1;415;74662;523.35;0
75198;38.92;708;37.57;39.57;1;424;75165;567.67;0
75714;38.67;706;37.57;39.57;1;433;75661;510.88;0
76230;38.51;703;37.57;39.57;1;443;76206;581.49;0
76746;38.35;702;37.57;39.57;1;453;76745;523.33;0
77275;38.10;699;37.60;39.60;1;462;77228;581.46;0
77803;37.86;697;37.57;39.57;1;472;77761;567.68;0
78332;37.70;694;37.60;39.60;1;482;78294;567.62;0
78860;37.55;692;37.57;39.57;0;492;78826;567.63;0
79376;37.39;690;37.57;39.57;0;496;79040;227.06;0
79892;37.31;689;37.57;39.57;0;496;79040;0.00;0
80408;37.15;686;37.57;39.57;0;496;79040;0.00;0
80936;37.00;685;37.60;39.60;0;496;79040;0.00;0
81452;37.00;684;37.60;39.60;0;496;79040;0.00;0
81967;36.84;684;37.60;39.60;0;496;79040;0.00;0
82496;36.84;683;37.57;39.57;0;496;79040;0.00;0
83011;36.84;683;37.57;39.57;0;496;79040;0.00;0
83527;36.84;683;37.57;39.57;0;496;79040;0.00;0
84043;36.84;683;37.57;39.57;0;496;79040;0.00;0
84571;36.84;684;37.60;39.60;0;496;79040;0.00;0
85087;37.00;684;37.60;39.60;0;496;79040;0.00;0
85615;37.00;686;37.57;39.57;0;496;79040;0.00;0
86143;37.15;686;37.60;39.60;0;496;79040;0.00;0
86672;37.23;688;37.57;39.57;0;496;79040;0.00;0
87200;37.47;690;37.60;39.60;0;496;79040;0.00;0
87728;37.55;693;37.57;39.57;0;496;79040;0.00;0
88244;37.70;695;37.57;39.57;0;496;79040;0.00;0
88760;37.94;698;37.57;39.57;0;496;79040;0.00;0
89275;38.10;700;37.57;39.57;0;496;79040;0.00;0
89791;38.43;703;37.57;39.57;0;496;79040;0.00;0
90307;38.67;706;37.57;39.57;0;496;79040;0.00;0
90835;38.92;709;37.60;39.60;0;496;79040;0.00;0
91363;39.16;713;37.57;39.57;0;496;79040;0.00;0
91879;39.50;715;37.57;39.57;0;496;79040;0.00;0
92407;39.66;719;37.60;39.60;1;496;79040;0.00;0
92936;39.92;721;37.57;39.57;1;497;92909;56.79;0
93451;40.09;724;37.57;39.57;1;503;93431;340.64;0
93967;40.26;724;37.57;39.57;1;510;93937;407.03;0
94483;40.09;723;37.57;39.57;1;518;94479;407.06;0
94999;39.92;722;37.57;39.57;1;526;94995;465.22;0
95528;39.83;721;37.60;39.60;1;534;95496;523.35;0
96056;39.75;717;37.57;39.57;1;543;96045;454.12;0
96572;39.50;716;37.57;39.57;1;551;96523;510.90;0
97088;39.25;714;37.57;39.57;1;560;97046;523.35;0
97604;39.08;711;37.57;39.57;1;569;97555;523.34;0
98120;38.83;709;37.57;39.57;1;579;98110;523.35;0
98636;38.67;706;37.57;39.57;1;588;98603;581.48;0
99152;38.51;704;37.57;39.57;1;598;99146;523.34;0
99668;38.27;701;37.57;39.57;1;607;99632;581.48;0
100183;38.10;699;37.57;39.57;1;617;100169;581.46;0
100699;37.86;696;37.57;39.57;1;626;100651;523.25;0
101228;37.70;694;37.60;39.60;1;636;101185;581.37;0
101744;37.47;692;37.60;39.60;0;646;101719;567.56;0
102273;37.39;690;37.57;39.57;0;651;101963;290.68;0
102789;37.23;688;37.57;39.57;0;651;101963;0.00;0
103304;37.07;686;37.57;39.57;0;651;101963;0.00;0
103820;37.00;685;37.57;39.57;0;651;101963;0.00;0
104336;36.92;684;37.57;39.57;0;651;101963;0.00;0
104852;36.84;683;37.57;39.57;0;651;101963;0.00;0
105368;36.84;682;37.57;39.57;0;651;101963;0.00;0
105883;36.76;682;37.57;39.57;0;651;101963;0.00;0
106412;36.76;682;37.60;39.60;0;651;101963;0.00;0
106940;36.84;683;37.57;39.57;0;651;101963;0.00;0
107456;36.76;683;37.57;39.57;0;651;101963;0.00;0
107971;36.92;684;37.57;39.57;0;651;101963;0.00;0
108487;37.00;685;37.57;39.57;0;651;101963;0.00;0
109016;37.07;686;37.60;39.60;0;651;101963;0.00;0
109544;37.15;688;37.57;39.57;0;651;101963;0.00;0
110072;37.31;690;37.60;39.60;0;651;101963;0.00;0
110601;37.55;692;37.57;39.57;0;651;101963;0.00;0
111117;37.70;694;37.57;39.57;0;651;101963;0.00;0
111632;37.94;697;37.57;39.57;0;651;101963;0.00;0
112148;38.18;700;37.57;39.57;0;651;101963;0.00;0
112676;38.43;702;37.60;39.60;0;651;101963;0.00;0
113205;38.67;705;37.57;39.57;0;651;101963;0.00;0
113721;38.83;709;37.57;39.57;0;651;101963;0.00;0
114236;39.08;712;37.57;39.57;0;651;101963;0.00;0
114765;39.33;714;37.60;39.60;0;651;101963;0.00;0
115293;39.58;717;37.57;39.57;1;651;101963;0.00;0
115809;39.75;720;37.57;39.57;1;652;115781;56.78;0
116325;39.92;721;37.57;39.57;1;657;116256;290.74;0
116841;39.92;722;37.57;39.57;1;664;116795;406.95;0
117369;39.92;720;37.60;39.60;1;672;117359;406.98;0
117898;39.83;720;37.57;39.57;1;680;117890;454.07;0
118414;39.66;718;37.57;39.57;1;688;118399;510.82;0
118930;39.50;717;37.57;39.57;1;696;118894;465.13;0
119459;39.41;714;37.60;39.60;1;705;119438;465.13;0
119974;39.16;711;37.60;39.60;1;714;119971;510.82;0
120491;39.00;710;37.60;39.60;1;723;120488;523.26;0
121019;38.83;708;37.57;39.57;1;732;120993;581.37;0
121548;38.67;705;37.60;39.60;1;742;121545;510.81;0
122064;38.43;703;37.60;39.60;1;751;122037;567.60;0
122592;38.27;701;37.57;39.57;1;761;122580;523.24;0
123108;38.10;698;37.57;39.57;1;770;123066;567.54;0
123624;37.86;696;37.57;39.57;1;780;123603;581.38;0
124140;37.63;693;37.57;39.57;1;790;124139;523.23;0
124656;37.47;692;37.57;39.57;0;799;124620;581.36;0
125185;37.39;690;37.62;39.62;0;803;124835;232.54;0
125713;37.23;688;37.57;39.57;0;803;124835;0.00;0
126229;37.15;686;37.57;39.57;0;803;124835;0.00;0
126745;37.07;685;37.57;39.57;0;803;124835;0.00;0
127261;36.92;684;37.57;39.57;0;803;124835;0.00;0
127777;36.92;683;37.57;39.57;0;803;124835;0.00;0
128305;36.84;683;37.60;39.60;0;803;124835;0.00;0
128821;36.84;683;37.60;39.60;0;803;124835;0.00;0
129349;36.84;683;37.57;39.57;0;803;124835;0.00;0
129865;36.84;683;37.57;39.57;0;803;124835;0.00;0
130381;36.92;683;37.57;39.57;0;803;124835;0.00;0
130897;37.00;685;37.57;39.57;0;803;124835;0.00;0
131412;37.00;686;37.57;39.57;0;803;124835;0.00;0
131941;37.15;687;37.60;39.60;0;803;124835;0.00;0
132469;37.31;690;37.57;39.57;0;803;124835;0.00;0
132985;37.47;691;37.57;39.57;0;803;124835;0.00;0
133513;37.55;693;37.60;39.60;0;803;124835;0.00;0
134029;37.78;695;37.60;39.60;0;803;124835;0.00;0
134557;38.02;698;37.57;39.57;0;803;124835;0.00;0
135086;38.18;700;37.60;39.60;0;803;124835;0.00;0
135614;38.35;703;37.57;39.57;0;803;124835;0.00;0
136143;38.59;706;37.60;39.60;0;803;124835;0.00;0
136671;38.83;708;37.57;39.57;0;803;124835;0.00;0
137199;39.08;711;37.60;39.60;0;803;124835;0.00;0
137728;39.25;713;37.57;39.57;0;803;124835;0.00;0
138243;39.50;715;37.57;39.57;0;803;124835;0.00;0
138772;39.66;719;37.60;39.60;1;803;124835;0.00;0
139300;39.92;721;37.57;39.57;1;803;124835;0.00;0
139816;40.09;723;37.57;39.57;1;809;139767;340.69;0
140332;40.17;723;37.57;39.57;1;816;140282;406.98;0
140848;40.00;722;37.57;39.57;1;824;140830;465.12;0
141364;39.92;721;37.57;39.57;1;832;141351;465.14;0
141880;39.83;719;37.57;39.57;1;840;141853;465.10;0
142396;39.58;717;37.57;39.57;1;848;142344;465.13;0
142912;39.41;715;37.57;39.57;1;857;142884;523.24;0
143428;39.33;713;37.57;39.57;1;866;143409;523.26;0
143944;39.08;711;37.57;39.57;1;875;143919;523.23;0
144473;38.92;708;37.60;39.60;1;884;144419;523.25;0
145001;38.67;706;37.57;39.57;1;894;144967;567.52;0
145517;38.51;703;37.57;39.57;1;904;145508;510.81;0
146046;38.27;701;37.60;39.60;1;913;145992;581.40;0
146574;38.10;699;37.57;39.57;1;923;146528;567.56;0
147090;37.94;697;37.57;39.57;1;933;147061;567.55;0
147606;37.78;694;37.57;39.57;1;943;147594;523.24;0
148135;37.55;692;37.60;39.60;0;953;148126;581.38;0
148663;37.39;690;37.57;39.57;0;957;148326;283.76;0
149179;37.23;688;37.57;39.57;0;957;148326;0.00;0
149708;37.07;687;37.60;39.60;0;957;148326;0.00;0
150236;37.00;685;37.57;39.57;0;957;148326;0.00;0
150752;36.92;684;37.57;39.57;0;957;148326;0.00;0
151280;36.84;683;37.60;39.60;0;957;148326;0.00;0
151809;36.84;683;37.57;39.57;0;957;148326;0.00;0
152325;36.84;683;37.57;39.57;0;957;148326;0.00;0
152840;36.84;683;37.57;39.57;0;957;148326;0.00;0
153356;36.84;683;37.57;39.57;0;957;148326;0.00;0
153884;36.84;684;37.60;39.60;0;957;148326;0.00;0
154413;37.00;685;37.57;39.57;0;957;148326;0.00;0
154929;37.07;686;37.57;39.57;0;957;148326;0.00;0
155457;37.15;687;37.60;39.60;0;957;148326;0.00;0
155973;37.31;689;37.60;39.60;0;957;148326;0.00;0
156489;37.47;691;37.60;39.60;0;957;148326;0.00;0
157017;37.70;693;37.57;39.57;0;957;148326;0.00;0
157533;37.78;696;37.57;39.57;0;957;148326;0.00;0
158049;37.94;699;37.57;39.57;0;957;148326;0.00;0
158564;38.27;701;37.57;39.57;0;957;148326;0.00;0
159093;38.51;704;37.60;39.60;0;957;148326;0.00;0
159621;38.75;707;37.57;39.57;0;957;148326;0.00;0
160137;39.00;709;37.57;39.57;0;957;148326;0.00;0
160665;39.16;713;37.60;39.60;0;957;148326;0.00;0
161194;39.41;715;37.57;39.57;0;957;148326;0.00;0
161709;39.66;718;37.57;39.57;1;957;148326;0.00;0
162225;39.83;720;37.57;39.57;1;957;148326;0.00;0
162741;40.09;722;37.57;39.57;1;963;162673;348.97;0
163270;40.00;723;37.60;39.60;1;971;163256;406.99;0
163798;39.92;722;37.57;39.57;1;979;163798;454.09;0
164314;39.83;720;37.57;39.57;1;986;164251;454.07;0
164843;39.66;718;37.60;39.60;1;995;164815;523.23;0
165371;39.58;717;37.57;39.57;1;1004;165363;454.05;0
165900;39.41;715;37.60;39.60;1;1012;165842;510.77;0
166429;39.16;712;37.57;39.57;1;1022;166422;510.79;0
166945;39.00;710;37.57;39.57;1;1031;166930;567.52;0
167461;38.83;707;37.57;39.57;1;1040;167428;523.18;0
167977;38.59;705;37.57;39.57;1;1050;167974;523.21;0
168493;38.43;703;37.57;39.57;1;1059;168462;581.32;0
169009;38.18;701;37.57;39.57;1;1069;168999;523.21;0
169538;38.02;698;37.60;39.60;1;1079;169534;581.33;0
170066;37.86;696;37.57;39.57;1;1088;170013;567.48;0
170582;37.63;694;37.57;39.57;1;1098;170546;567.49;0
171111;37.55;692;37.60;39.60;0;1108;171079;581.30;0
171640;37.39;689;37.57;39.57;0;1112;171294;227.00;0
172155;37.23;687;37.57;39.57;0;1112;171294;0.00;0
172684;37.07;686;37.60;39.60;0;1112;171294;0.00;0
173212;37.00;685;37.57;39.57;0;1112;171294;0.00;0
173728;36.92;684;37.57;39.57;0;1112;171294;0.00;0
174244;36.92;684;37.57;39.57;0;1112;171294;0.00;0
174772;36.84;683;37.60;39.60;0;1112;171294;0.00;0
175301;36.84;683;37.57;39.57;0;1112;171294;0.00;0
175817;36.84;683;37.57;39.57;0;1112;171294;0.00;0
176333;36.84;683;37.57;39.57;0;1112;171294;0.00;0
176848;36.92;684;37.57;39.57;0;1112;171294;0.00;0
177377;37.00;685;37.60;39.60;0;1112;171294;0.00;0
177905;37.07;686;37.57;39.57;0;1112;171294;0.00;0
178421;37.15;688;37.57;39.57;0;1112;171294;0.00;0
178937;37.31;689;37.57;39.57;0;1112;171294;0.00;0
179453;37.39;691;37.57;39.57;0;1112;171294;0.00;0
179969;37.63;694;37.57;39.57;0;1112;171294;0.00;0
180484;37.78;695;37.57;39.57;0;1112;171294;0.00;0
181000;38.02;697;37.57;39.57;0;1112;171294;0.00;0
181516;38.18;700;37.57;39.57;0;1112;171294;0.00;0
182032;38.43;703;37.57;39.57;0;1112;171294;0.00;0
182548;38.59;705;37.57;39.57;0;1112;171294;0.00;0
183064;38.83;708;37.57;39.57;0;1112;171294;0.00;0
183579;39.00;710;37.57;39.57;0;1112;171294;0.00;0
184108;39.25;713;37.60;39.60;0;1112;171294;0.00;0
184636;39.50;717;37.57;39.57;0;1112;171294;0.00;0
185152;39.75;719;37.57;39.57;1;1112;171294;0.00;0
185668;39.92;722;37.57;39.57;1;1112;171294;0.00;0
186184;40.09;724;37.57;39.57;1;1118;186121;348.95;0
186700;40.17;724;37.57;39.57;1;1126;186639;465.06;0
187228;40.09;723;37.60;39.60;1;1134;187189;465.07;0
187757;40.00;722;37.57;39.57;1;1142;187710;454.03;0
188273;39.83;720;37.57;39.57;1;1150;188214;454.06;0
188789;39.66;719;37.57;39.57;1;1159;188766;523.22;0
189318;39.50;717;37.60;39.60;1;1168;189306;465.07;0
189846;39.33;714;37.57;39.57;1;1177;189833;510.76;0
190362;39.16;712;37.57;39.57;1;1186;190345;567.54;0
190891;39.00;709;37.54;39.54;1;1195;190846;523.18;0
191420;38.75;707;37.57;39.57;1;1205;191396;510.77;0
191936;38.59;704;37.57;39.57;1;1214;191885;567.50;0
192464;38.51;702;37.60;39.60;1;1224;192424;581.32;0
192993;38.10;700;37.57;39.57;1;1234;192961;567.49;0
193509;38.02;698;37.57;39.57;1;1244;193496;567.51;0
194025;37.86;695;37.57;39.57;1;1253;193977;523.19;0
194554;37.63;692;37.60;39.60;1;1263;194510;581.31;0
195082;37.47;691;37.57;39.57;0;1273;195043;567.50;0
195598;37.31;689;37.57;39.57;0;1277;195257;227.00;0
196114;37.15;687;37.57;39.57;0;1277;195257;0.00;0
196630;37.07;685;37.57;39.57;0;1277;195257;0.00;0
197146;36.92;685;37.57;39.57;0;1277;195257;0.00;0
197662;36.84;683;37.57;39.57;0;1277;195257;0.00;0
198178;36.84;683;37.57;39.57;0;1277;195257;0.00;0
198694;36.76;683;37.57;39.57;0;1277;195257;0.00;0
199209;36.76;682;37.57;39.57;0;1277;195257;0.00;0
199725;36.76;683;37.57;39.57;0;1277;195257;0.00;0
200254;36.84;682;37.60;39.60;0;1277;195257;0.00;0
200782;36.92;683;37.57;39.57;0;1277;195257;0.00;0
201298;37.00;684;37.57;39.57;0;1277;195257;0.00;0
201814;37.00;685;37.57;39.57;0;1277;195257;0.00;0
